{"current_page":1,"data":[{"id":797851,"province":"AB","city":"Pending","age":"Pending","travel_history":"Pending","confirmed_presumptive":"CONFIRMED","source":"https:\/\/www.alberta.ca\/covid-19-alberta-data.aspx","date":"2021-02-03 15:36:46","hr_uid":null},{"id":797850,"province":"AB","city":"Pending","age":"Pending","travel_history":"Pending","confirmed_presumptive":"CONFIRMED","source":"https:\/\/www.alberta.ca\/covid-19-alberta-data.aspx","date":"2021-02-03 15:36:46","hr_uid":null},{"id":797849,"province":"AB","city":"Pending","age":"Pending","travel_history":"Pending","confirmed_presumptive":"CONFIRMED","source":"https:\/\/www.alberta.ca\/covid-19-alberta-data.aspx","date":"2021-02-03 15:36:46","hr_uid":null},{"id":797848,"province":"AB","city":"Pending","age":"Pending","travel_history":"Pending","confirmed_presumptive":"CONFIRMED","source":"https:\/\/www.alberta.ca\/covid-19-alberta-data.aspx","date":"2021-02-03 15:36:46","hr_uid":null},{"id":797847,"province":"AB","city":"Pending","age":"Pending","travel_history":"Pending","confirmed_presumptive":"CONFIRMED","source":"https:\/\/www.alberta.ca\/covid-19-alberta-data.aspx","date":"2021-02-03 15:36:46","hr_uid":null},{"id":797846,"province":"AB","city":"Pending","age":"Pending","travel_history":"Pending","confirmed_presumptive":"CONFIRMED","source":"https:\/\/www.alberta.ca\/covid-19-alberta-data.aspx","date":"2021-02-03 15:36:46","hr_uid":null},{"id":797845,"province":"AB","city":"Pending","age":"Pending","travel_history":"Pending","confirmed_presumptive":"CONFIRMED","source":"https:\/\/www.alberta.ca\/covid-19-alberta-data.aspx","date":"2021-02-03 15:36:46","hr_uid":null},{"id":797844,"province":"AB","city":"Pending","age":"Pending","travel_history":"Pending","confirmed_presumptive":"CONFIRMED","source":"https:\/\/www.alberta.ca\/covid-19-alberta-data.aspx","date":"2021-02-03 15:36:46","hr_uid":null},{"id":797843,"province":"AB","city":"Pending","age":"Pending","travel_history":"Pending","confirmed_presumptive":"CONFIRMED","source":"https:\/\/www.alberta.ca\/covid-19-alberta-data.aspx","date":"2021-02-03 15:36:46","hr_uid":null},{"id":797842,"province":"AB","city":"Pending","age":"Pending","travel_history":"Pending","confirmed_presumptive":"CONFIRMED","source":"https:\/\/www.alberta.ca\/covid-19-alberta-data.aspx","date":"2021-02-03 15:36:46","hr_uid":null},{"id":797841,"province":"AB","city":"Pending","age":"Pending","travel_history":"Pending","confirmed_presumptive":"CONFIRMED","source":"https:\/\/www.alberta.ca\/covid-19-alberta-data.aspx","date":"2021-02-03 15:36:46","hr_uid":null},{"id":797840,"province":"AB","city":"Pending","age":"Pending","travel_history":"Pending","confirmed_presumptive":"CONFIRMED","source":"https:\/\/www.alberta.ca\/covid-19-alberta-data.aspx","date":"2021-02-03 15:36:46","hr_uid":null},{"id":797839,"province":"AB","city":"Pending","age":"Pending","travel_history":"Pending","confirmed_presumptive":"CONFIRMED","source":"https:\/\/www.alberta.ca\/covid-19-alberta-data.aspx","date":"2021-02-03 15:36:46","hr_uid":null},{"id":797838,"province":"AB","city":"Pending","age":"Pending","travel_history":"Pending","confirmed_presumptive":"CONFIRMED","source":"https:\/\/www.alberta.ca\/covid-19-alberta-data.aspx","date":"2021-02-03 15:36:46","hr_uid":null},{"id":797837,"province":"AB","city":"Pending","age":"Pending","travel_history":"Pending","confirmed_presumptive":"CONFIRMED","source":"https:\/\/www.alberta.ca\/covid-19-alberta-data.aspx","date":"2021-02-03 15:36:46","hr_uid":null},{"id":797836,"province":"AB","city":"Pending","age":"Pending","travel_history":"Pending","confirmed_presumptive":"CONFIRMED","source":"https:\/\/www.alberta.ca\/covid-19-alberta-data.aspx","date":"2021-02-03 15:36:46","hr_uid":null},{"id":797835,"province":"AB","city":"Pending","age":"Pending","travel_history":"Pending","confirmed_presumptive":"CONFIRMED","source":"https:\/\/www.alberta.ca\/covid-19-alberta-data.aspx","date":"2021-02-03 15:36:46","hr_uid":null},{"id":797834,"province":"AB","city":"Pending","age":"Pending","travel_history":"Pending","confirmed_presumptive":"CONFIRMED","source":"https:\/\/www.alberta.ca\/covid-19-alberta-data.aspx","date":"2021-02-03 15:36:46","hr_uid":null},{"id":797833,"province":"AB","city":"Pending","age":"Pending","travel_history":"Pending","confirmed_presumptive":"CONFIRMED","source":"https:\/\/www.alberta.ca\/covid-19-alberta-data.aspx","date":"2021-02-03 15:36:46","hr_uid":null},{"id":797832,"province":"AB","city":"Pending","age":"Pending","travel_history":"Pending","confirmed_presumptive":"CONFIRMED","source":"https:\/\/www.alberta.ca\/covid-19-alberta-data.aspx","date":"2021-02-03 15:36:46","hr_uid":null},{"id":797831,"province":"AB","city":"Pending","age":"Pending","travel_history":"Pending","confirmed_presumptive":"CONFIRMED","source":"https:\/\/www.alberta.ca\/covid-19-alberta-data.aspx","date":"2021-02-03 15:36:46","hr_uid":null},{"id":797830,"province":"AB","city":"Pending","age":"Pending","travel_history":"Pending","confirmed_presumptive":"CONFIRMED","source":"https:\/\/www.alberta.ca\/covid-19-alberta-data.aspx","date":"2021-02-03 15:36:46","hr_uid":null},{"id":797829,"province":"AB","city":"Pending","age":"Pending","travel_history":"Pending","confirmed_presumptive":"CONFIRMED","source":"https:\/\/www.alberta.ca\/covid-19-alberta-data.aspx","date":"2021-02-03 15:36:46","hr_uid":null},{"id":797828,"province":"AB","city":"Pending","age":"Pending","travel_history":"Pending","confirmed_presumptive":"CONFIRMED","source":"https:\/\/www.alberta.ca\/covid-19-alberta-data.aspx","date":"2021-02-03 15:36:46","hr_uid":null},{"id":797827,"province":"AB","city":"Pending","age":"Pending","travel_history":"Pending","confirmed_presumptive":"CONFIRMED","source":"https:\/\/www.alberta.ca\/covid-19-alberta-data.aspx","date":"2021-02-03 15:36:46","hr_uid":null},{"id":797826,"province":"AB","city":"Pending","age":"Pending","travel_history":"Pending","confirmed_presumptive":"CONFIRMED","source":"https:\/\/www.alberta.ca\/covid-19-alberta-data.aspx","date":"2021-02-03 15:36:46","hr_uid":null},{"id":797825,"province":"AB","city":"Pending","age":"Pending","travel_history":"Pending","confirmed_presumptive":"CONFIRMED","source":"https:\/\/www.alberta.ca\/covid-19-alberta-data.aspx","date":"2021-02-03 15:36:46","hr_uid":null},{"id":797824,"province":"AB","city":"Pending","age":"Pending","travel_history":"Pending","confirmed_presumptive":"CONFIRMED","source":"https:\/\/www.alberta.ca\/covid-19-alberta-data.aspx","date":"2021-02-03 15:36:46","hr_uid":null},{"id":797823,"province":"AB","city":"Pending","age":"Pending","travel_history":"Pending","confirmed_presumptive":"CONFIRMED","source":"https:\/\/www.alberta.ca\/covid-19-alberta-data.aspx","date":"2021-02-03 15:36:46","hr_uid":null},{"id":797822,"province":"AB","city":"Pending","age":"Pending","travel_history":"Pending","confirmed_presumptive":"CONFIRMED","source":"https:\/\/www.alberta.ca\/covid-19-alberta-data.aspx","date":"2021-02-03 15:36:46","hr_uid":null},{"id":797821,"province":"AB","city":"Pending","age":"Pending","travel_history":"Pending","confirmed_presumptive":"CONFIRMED","source":"https:\/\/www.alberta.ca\/covid-19-alberta-data.aspx","date":"2021-02-03 15:36:46","hr_uid":null},{"id":797820,"province":"AB","city":"Pending","age":"Pending","travel_history":"Pending","confirmed_presumptive":"CONFIRMED","source":"https:\/\/www.alberta.ca\/covid-19-alberta-data.aspx","date":"2021-02-03 15:36:46","hr_uid":null},{"id":797819,"province":"AB","city":"Pending","age":"Pending","travel_history":"Pending","confirmed_presumptive":"CONFIRMED","source":"https:\/\/www.alberta.ca\/covid-19-alberta-data.aspx","date":"2021-02-03 15:36:46","hr_uid":null},{"id":797818,"province":"AB","city":"Pending","age":"Pending","travel_history":"Pending","confirmed_presumptive":"CONFIRMED","source":"https:\/\/www.alberta.ca\/covid-19-alberta-data.aspx","date":"2021-02-03 15:36:46","hr_uid":null},{"id":797817,"province":"AB","city":"Pending","age":"Pending","travel_history":"Pending","confirmed_presumptive":"CONFIRMED","source":"https:\/\/www.alberta.ca\/covid-19-alberta-data.aspx","date":"2021-02-03 15:36:46","hr_uid":null},{"id":797816,"province":"AB","city":"Pending","age":"Pending","travel_history":"Pending","confirmed_presumptive":"CONFIRMED","source":"https:\/\/www.alberta.ca\/covid-19-alberta-data.aspx","date":"2021-02-03 15:36:46","hr_uid":null},{"id":797815,"province":"AB","city":"Pending","age":"Pending","travel_history":"Pending","confirmed_presumptive":"CONFIRMED","source":"https:\/\/www.alberta.ca\/covid-19-alberta-data.aspx","date":"2021-02-03 15:36:46","hr_uid":null},{"id":797814,"province":"AB","city":"Pending","age":"Pending","travel_history":"Pending","confirmed_presumptive":"CONFIRMED","source":"https:\/\/www.alberta.ca\/covid-19-alberta-data.aspx","date":"2021-02-03 15:36:46","hr_uid":null},{"id":797813,"province":"AB","city":"Pending","age":"Pending","travel_history":"Pending","confirmed_presumptive":"CONFIRMED","source":"https:\/\/www.alberta.ca\/covid-19-alberta-data.aspx","date":"2021-02-03 15:36:46","hr_uid":null},{"id":797812,"province":"AB","city":"Pending","age":"Pending","travel_history":"Pending","confirmed_presumptive":"CONFIRMED","source":"https:\/\/www.alberta.ca\/covid-19-alberta-data.aspx","date":"2021-02-03 15:36:46","hr_uid":null},{"id":797811,"province":"AB","city":"Pending","age":"Pending","travel_history":"Pending","confirmed_presumptive":"CONFIRMED","source":"https:\/\/www.alberta.ca\/covid-19-alberta-data.aspx","date":"2021-02-03 15:36:46","hr_uid":null},{"id":797810,"province":"AB","city":"Pending","age":"Pending","travel_history":"Pending","confirmed_presumptive":"CONFIRMED","source":"https:\/\/www.alberta.ca\/covid-19-alberta-data.aspx","date":"2021-02-03 15:36:46","hr_uid":null},{"id":797809,"province":"AB","city":"Pending","age":"Pending","travel_history":"Pending","confirmed_presumptive":"CONFIRMED","source":"https:\/\/www.alberta.ca\/covid-19-alberta-data.aspx","date":"2021-02-03 15:36:46","hr_uid":null},{"id":797808,"province":"AB","city":"Pending","age":"Pending","travel_history":"Pending","confirmed_presumptive":"CONFIRMED","source":"https:\/\/www.alberta.ca\/covid-19-alberta-data.aspx","date":"2021-02-03 15:36:46","hr_uid":null},{"id":797807,"province":"AB","city":"Pending","age":"Pending","travel_history":"Pending","confirmed_presumptive":"CONFIRMED","source":"https:\/\/www.alberta.ca\/covid-19-alberta-data.aspx","date":"2021-02-03 15:36:46","hr_uid":null},{"id":797806,"province":"AB","city":"Pending","age":"Pending","travel_history":"Pending","confirmed_presumptive":"CONFIRMED","source":"https:\/\/www.alberta.ca\/covid-19-alberta-data.aspx","date":"2021-02-03 15:36:46","hr_uid":null},{"id":797805,"province":"AB","city":"Pending","age":"Pending","travel_history":"Pending","confirmed_presumptive":"CONFIRMED","source":"https:\/\/www.alberta.ca\/covid-19-alberta-data.aspx","date":"2021-02-03 15:36:46","hr_uid":null},{"id":797804,"province":"AB","city":"Pending","age":"Pending","travel_history":"Pending","confirmed_presumptive":"CONFIRMED","source":"https:\/\/www.alberta.ca\/covid-19-alberta-data.aspx","date":"2021-02-03 15:36:46","hr_uid":null},{"id":797803,"province":"AB","city":"Pending","age":"Pending","travel_history":"Pending","confirmed_presumptive":"CONFIRMED","source":"https:\/\/www.alberta.ca\/covid-19-alberta-data.aspx","date":"2021-02-03 15:36:46","hr_uid":null},{"id":797802,"province":"AB","city":"Pending","age":"Pending","travel_history":"Pending","confirmed_presumptive":"CONFIRMED","source":"https:\/\/www.alberta.ca\/covid-19-alberta-data.aspx","date":"2021-02-03 15:36:46","hr_uid":null},{"id":797801,"province":"AB","city":"Pending","age":"Pending","travel_history":"Pending","confirmed_presumptive":"CONFIRMED","source":"https:\/\/www.alberta.ca\/covid-19-alberta-data.aspx","date":"2021-02-03 15:36:46","hr_uid":null},{"id":797800,"province":"AB","city":"Pending","age":"Pending","travel_history":"Pending","confirmed_presumptive":"CONFIRMED","source":"https:\/\/www.alberta.ca\/covid-19-alberta-data.aspx","date":"2021-02-03 15:36:46","hr_uid":null},{"id":797799,"province":"AB","city":"Pending","age":"Pending","travel_history":"Pending","confirmed_presumptive":"CONFIRMED","source":"https:\/\/www.alberta.ca\/covid-19-alberta-data.aspx","date":"2021-02-03 15:36:46","hr_uid":null},{"id":797798,"province":"AB","city":"Pending","age":"Pending","travel_history":"Pending","confirmed_presumptive":"CONFIRMED","source":"https:\/\/www.alberta.ca\/covid-19-alberta-data.aspx","date":"2021-02-03 15:36:46","hr_uid":null},{"id":797797,"province":"AB","city":"Pending","age":"Pending","travel_history":"Pending","confirmed_presumptive":"CONFIRMED","source":"https:\/\/www.alberta.ca\/covid-19-alberta-data.aspx","date":"2021-02-03 15:36:46","hr_uid":null},{"id":797796,"province":"AB","city":"Pending","age":"Pending","travel_history":"Pending","confirmed_presumptive":"CONFIRMED","source":"https:\/\/www.alberta.ca\/covid-19-alberta-data.aspx","date":"2021-02-03 15:36:46","hr_uid":null},{"id":797795,"province":"AB","city":"Pending","age":"Pending","travel_history":"Pending","confirmed_presumptive":"CONFIRMED","source":"https:\/\/www.alberta.ca\/covid-19-alberta-data.aspx","date":"2021-02-03 15:36:46","hr_uid":null},{"id":797794,"province":"AB","city":"Pending","age":"Pending","travel_history":"Pending","confirmed_presumptive":"CONFIRMED","source":"https:\/\/www.alberta.ca\/covid-19-alberta-data.aspx","date":"2021-02-03 15:36:46","hr_uid":null},{"id":797793,"province":"AB","city":"Pending","age":"Pending","travel_history":"Pending","confirmed_presumptive":"CONFIRMED","source":"https:\/\/www.alberta.ca\/covid-19-alberta-data.aspx","date":"2021-02-03 15:36:46","hr_uid":null},{"id":797792,"province":"AB","city":"Pending","age":"Pending","travel_history":"Pending","confirmed_presumptive":"CONFIRMED","source":"https:\/\/www.alberta.ca\/covid-19-alberta-data.aspx","date":"2021-02-03 15:36:46","hr_uid":null},{"id":797791,"province":"AB","city":"Pending","age":"Pending","travel_history":"Pending","confirmed_presumptive":"CONFIRMED","source":"https:\/\/www.alberta.ca\/covid-19-alberta-data.aspx","date":"2021-02-03 15:36:46","hr_uid":null},{"id":797790,"province":"AB","city":"Pending","age":"Pending","travel_history":"Pending","confirmed_presumptive":"CONFIRMED","source":"https:\/\/www.alberta.ca\/covid-19-alberta-data.aspx","date":"2021-02-03 15:36:46","hr_uid":null},{"id":797789,"province":"AB","city":"Pending","age":"Pending","travel_history":"Pending","confirmed_presumptive":"CONFIRMED","source":"https:\/\/www.alberta.ca\/covid-19-alberta-data.aspx","date":"2021-02-03 15:36:46","hr_uid":null},{"id":797788,"province":"AB","city":"Pending","age":"Pending","travel_history":"Pending","confirmed_presumptive":"CONFIRMED","source":"https:\/\/www.alberta.ca\/covid-19-alberta-data.aspx","date":"2021-02-03 15:36:46","hr_uid":null},{"id":797787,"province":"AB","city":"Pending","age":"Pending","travel_history":"Pending","confirmed_presumptive":"CONFIRMED","source":"https:\/\/www.alberta.ca\/covid-19-alberta-data.aspx","date":"2021-02-03 15:36:46","hr_uid":null},{"id":797786,"province":"AB","city":"Pending","age":"Pending","travel_history":"Pending","confirmed_presumptive":"CONFIRMED","source":"https:\/\/www.alberta.ca\/covid-19-alberta-data.aspx","date":"2021-02-03 15:36:46","hr_uid":null},{"id":797785,"province":"AB","city":"Pending","age":"Pending","travel_history":"Pending","confirmed_presumptive":"CONFIRMED","source":"https:\/\/www.alberta.ca\/covid-19-alberta-data.aspx","date":"2021-02-03 15:36:46","hr_uid":null},{"id":797784,"province":"AB","city":"Pending","age":"Pending","travel_history":"Pending","confirmed_presumptive":"CONFIRMED","source":"https:\/\/www.alberta.ca\/covid-19-alberta-data.aspx","date":"2021-02-03 15:36:46","hr_uid":null},{"id":797783,"province":"AB","city":"Pending","age":"Pending","travel_history":"Pending","confirmed_presumptive":"CONFIRMED","source":"https:\/\/www.alberta.ca\/covid-19-alberta-data.aspx","date":"2021-02-03 15:36:46","hr_uid":null},{"id":797782,"province":"AB","city":"Pending","age":"Pending","travel_history":"Pending","confirmed_presumptive":"CONFIRMED","source":"https:\/\/www.alberta.ca\/covid-19-alberta-data.aspx","date":"2021-02-03 15:36:46","hr_uid":null},{"id":797781,"province":"AB","city":"Pending","age":"Pending","travel_history":"Pending","confirmed_presumptive":"CONFIRMED","source":"https:\/\/www.alberta.ca\/covid-19-alberta-data.aspx","date":"2021-02-03 15:36:46","hr_uid":null},{"id":797780,"province":"AB","city":"Pending","age":"Pending","travel_history":"Pending","confirmed_presumptive":"CONFIRMED","source":"https:\/\/www.alberta.ca\/covid-19-alberta-data.aspx","date":"2021-02-03 15:36:46","hr_uid":null},{"id":797779,"province":"AB","city":"Pending","age":"Pending","travel_history":"Pending","confirmed_presumptive":"CONFIRMED","source":"https:\/\/www.alberta.ca\/covid-19-alberta-data.aspx","date":"2021-02-03 15:36:46","hr_uid":null},{"id":797778,"province":"AB","city":"Pending","age":"Pending","travel_history":"Pending","confirmed_presumptive":"CONFIRMED","source":"https:\/\/www.alberta.ca\/covid-19-alberta-data.aspx","date":"2021-02-03 15:36:46","hr_uid":null},{"id":797777,"province":"AB","city":"Pending","age":"Pending","travel_history":"Pending","confirmed_presumptive":"CONFIRMED","source":"https:\/\/www.alberta.ca\/covid-19-alberta-data.aspx","date":"2021-02-03 15:36:46","hr_uid":null},{"id":797776,"province":"AB","city":"Pending","age":"Pending","travel_history":"Pending","confirmed_presumptive":"CONFIRMED","source":"https:\/\/www.alberta.ca\/covid-19-alberta-data.aspx","date":"2021-02-03 15:36:46","hr_uid":null},{"id":797775,"province":"AB","city":"Pending","age":"Pending","travel_history":"Pending","confirmed_presumptive":"CONFIRMED","source":"https:\/\/www.alberta.ca\/covid-19-alberta-data.aspx","date":"2021-02-03 15:36:46","hr_uid":null},{"id":797774,"province":"AB","city":"Pending","age":"Pending","travel_history":"Pending","confirmed_presumptive":"CONFIRMED","source":"https:\/\/www.alberta.ca\/covid-19-alberta-data.aspx","date":"2021-02-03 15:36:46","hr_uid":null},{"id":797773,"province":"AB","city":"Pending","age":"Pending","travel_history":"Pending","confirmed_presumptive":"CONFIRMED","source":"https:\/\/www.alberta.ca\/covid-19-alberta-data.aspx","date":"2021-02-03 15:36:46","hr_uid":null},{"id":797772,"province":"AB","city":"Pending","age":"Pending","travel_history":"Pending","confirmed_presumptive":"CONFIRMED","source":"https:\/\/www.alberta.ca\/covid-19-alberta-data.aspx","date":"2021-02-03 15:36:46","hr_uid":null},{"id":797771,"province":"AB","city":"Pending","age":"Pending","travel_history":"Pending","confirmed_presumptive":"CONFIRMED","source":"https:\/\/www.alberta.ca\/covid-19-alberta-data.aspx","date":"2021-02-03 15:36:46","hr_uid":null},{"id":797770,"province":"AB","city":"Pending","age":"Pending","travel_history":"Pending","confirmed_presumptive":"CONFIRMED","source":"https:\/\/www.alberta.ca\/covid-19-alberta-data.aspx","date":"2021-02-03 15:36:46","hr_uid":null},{"id":797769,"province":"AB","city":"Pending","age":"Pending","travel_history":"Pending","confirmed_presumptive":"CONFIRMED","source":"https:\/\/www.alberta.ca\/covid-19-alberta-data.aspx","date":"2021-02-03 15:36:46","hr_uid":null},{"id":797768,"province":"AB","city":"Pending","age":"Pending","travel_history":"Pending","confirmed_presumptive":"CONFIRMED","source":"https:\/\/www.alberta.ca\/covid-19-alberta-data.aspx","date":"2021-02-03 15:36:46","hr_uid":null},{"id":797767,"province":"AB","city":"Pending","age":"Pending","travel_history":"Pending","confirmed_presumptive":"CONFIRMED","source":"https:\/\/www.alberta.ca\/covid-19-alberta-data.aspx","date":"2021-02-03 15:36:46","hr_uid":null},{"id":797766,"province":"AB","city":"Pending","age":"Pending","travel_history":"Pending","confirmed_presumptive":"CONFIRMED","source":"https:\/\/www.alberta.ca\/covid-19-alberta-data.aspx","date":"2021-02-03 15:36:46","hr_uid":null},{"id":797765,"province":"AB","city":"Pending","age":"Pending","travel_history":"Pending","confirmed_presumptive":"CONFIRMED","source":"https:\/\/www.alberta.ca\/covid-19-alberta-data.aspx","date":"2021-02-03 15:36:46","hr_uid":null},{"id":797764,"province":"AB","city":"Pending","age":"Pending","travel_history":"Pending","confirmed_presumptive":"CONFIRMED","source":"https:\/\/www.alberta.ca\/covid-19-alberta-data.aspx","date":"2021-02-03 15:36:46","hr_uid":null},{"id":797763,"province":"AB","city":"Pending","age":"Pending","travel_history":"Pending","confirmed_presumptive":"CONFIRMED","source":"https:\/\/www.alberta.ca\/covid-19-alberta-data.aspx","date":"2021-02-03 15:36:46","hr_uid":null},{"id":797762,"province":"AB","city":"Pending","age":"Pending","travel_history":"Pending","confirmed_presumptive":"CONFIRMED","source":"https:\/\/www.alberta.ca\/covid-19-alberta-data.aspx","date":"2021-02-03 15:36:46","hr_uid":null},{"id":797761,"province":"AB","city":"Pending","age":"Pending","travel_history":"Pending","confirmed_presumptive":"CONFIRMED","source":"https:\/\/www.alberta.ca\/covid-19-alberta-data.aspx","date":"2021-02-03 15:36:46","hr_uid":null},{"id":797760,"province":"AB","city":"Pending","age":"Pending","travel_history":"Pending","confirmed_presumptive":"CONFIRMED","source":"https:\/\/www.alberta.ca\/covid-19-alberta-data.aspx","date":"2021-02-03 15:36:46","hr_uid":null},{"id":797759,"province":"AB","city":"Pending","age":"Pending","travel_history":"Pending","confirmed_presumptive":"CONFIRMED","source":"https:\/\/www.alberta.ca\/covid-19-alberta-data.aspx","date":"2021-02-03 15:36:46","hr_uid":null},{"id":797758,"province":"AB","city":"Pending","age":"Pending","travel_history":"Pending","confirmed_presumptive":"CONFIRMED","source":"https:\/\/www.alberta.ca\/covid-19-alberta-data.aspx","date":"2021-02-03 15:36:46","hr_uid":null},{"id":797757,"province":"AB","city":"Pending","age":"Pending","travel_history":"Pending","confirmed_presumptive":"CONFIRMED","source":"https:\/\/www.alberta.ca\/covid-19-alberta-data.aspx","date":"2021-02-03 15:36:46","hr_uid":null},{"id":797756,"province":"AB","city":"Pending","age":"Pending","travel_history":"Pending","confirmed_presumptive":"CONFIRMED","source":"https:\/\/www.alberta.ca\/covid-19-alberta-data.aspx","date":"2021-02-03 15:36:46","hr_uid":null},{"id":797755,"province":"AB","city":"Pending","age":"Pending","travel_history":"Pending","confirmed_presumptive":"CONFIRMED","source":"https:\/\/www.alberta.ca\/covid-19-alberta-data.aspx","date":"2021-02-03 15:36:46","hr_uid":null},{"id":797754,"province":"AB","city":"Pending","age":"Pending","travel_history":"Pending","confirmed_presumptive":"CONFIRMED","source":"https:\/\/www.alberta.ca\/covid-19-alberta-data.aspx","date":"2021-02-03 15:36:46","hr_uid":null},{"id":797753,"province":"AB","city":"Pending","age":"Pending","travel_history":"Pending","confirmed_presumptive":"CONFIRMED","source":"https:\/\/www.alberta.ca\/covid-19-alberta-data.aspx","date":"2021-02-03 15:36:46","hr_uid":null},{"id":797752,"province":"AB","city":"Pending","age":"Pending","travel_history":"Pending","confirmed_presumptive":"CONFIRMED","source":"https:\/\/www.alberta.ca\/covid-19-alberta-data.aspx","date":"2021-02-03 15:36:46","hr_uid":null}],"first_page_url":"https:\/\/api.covid19tracker.ca\/cases?page=1","from":1,"last_page":1251,"last_page_url":"https:\/\/api.covid19tracker.ca\/cases?page=1251","links":[{"url":null,"label":"&laquo; Previous","active":false},{"url":"https:\/\/api.covid19tracker.ca\/cases?page=1","label":1,"active":true},{"url":"https:\/\/api.covid19tracker.ca\/cases?page=2","label":2,"active":false},{"url":"https:\/\/api.covid19tracker.ca\/cases?page=3","label":3,"active":false},{"url":"https:\/\/api.covid19tracker.ca\/cases?page=4","label":4,"active":false},{"url":"https:\/\/api.covid19tracker.ca\/cases?page=5","label":5,"active":false},{"url":"https:\/\/api.covid19tracker.ca\/cases?page=6","label":6,"active":false},{"url":"https:\/\/api.covid19tracker.ca\/cases?page=7","label":7,"active":false},{"url":"https:\/\/api.covid19tracker.ca\/cases?page=8","label":8,"active":false},{"url":"https:\/\/api.covid19tracker.ca\/cases?page=9","label":9,"active":false},{"url":"https:\/\/api.covid19tracker.ca\/cases?page=10","label":10,"active":false},{"url":null,"label":"...","active":false},{"url":"https:\/\/api.covid19tracker.ca\/cases?page=1250","label":1250,"active":false},{"url":"https:\/\/api.covid19tracker.ca\/cases?page=1251","label":1251,"active":false},{"url":"https:\/\/api.covid19tracker.ca\/cases?page=2","label":"Next &raquo;","active":false}],"next_page_url":"https:\/\/api.covid19tracker.ca\/cases?page=2","path":"https:\/\/api.covid19tracker.ca\/cases","per_page":100,"prev_page_url":null,"to":100,"total":125090}