{"current_page":1,"data":[{"id":799345,"province":"BC","city":"Pending","age":"Pending","travel_history":"Pending","confirmed_presumptive":"CONFIRMED","source":"https:\/\/news.gov.bc.ca\/releases\/2021HLTH0028-000199","date":"2021-02-03 16:22:29","hr_uid":null},{"id":799344,"province":"BC","city":"Pending","age":"Pending","travel_history":"Pending","confirmed_presumptive":"CONFIRMED","source":"https:\/\/news.gov.bc.ca\/releases\/2021HLTH0028-000199","date":"2021-02-03 16:22:29","hr_uid":null},{"id":799343,"province":"BC","city":"Pending","age":"Pending","travel_history":"Pending","confirmed_presumptive":"CONFIRMED","source":"https:\/\/news.gov.bc.ca\/releases\/2021HLTH0028-000199","date":"2021-02-03 16:22:29","hr_uid":null},{"id":799342,"province":"BC","city":"Pending","age":"Pending","travel_history":"Pending","confirmed_presumptive":"CONFIRMED","source":"https:\/\/news.gov.bc.ca\/releases\/2021HLTH0028-000199","date":"2021-02-03 16:22:29","hr_uid":null},{"id":799341,"province":"BC","city":"Pending","age":"Pending","travel_history":"Pending","confirmed_presumptive":"CONFIRMED","source":"https:\/\/news.gov.bc.ca\/releases\/2021HLTH0028-000199","date":"2021-02-03 16:22:29","hr_uid":null},{"id":799340,"province":"BC","city":"Pending","age":"Pending","travel_history":"Pending","confirmed_presumptive":"CONFIRMED","source":"https:\/\/news.gov.bc.ca\/releases\/2021HLTH0028-000199","date":"2021-02-03 16:22:29","hr_uid":null},{"id":799339,"province":"BC","city":"Pending","age":"Pending","travel_history":"Pending","confirmed_presumptive":"CONFIRMED","source":"https:\/\/news.gov.bc.ca\/releases\/2021HLTH0028-000199","date":"2021-02-03 16:22:29","hr_uid":null},{"id":799338,"province":"BC","city":"Pending","age":"Pending","travel_history":"Pending","confirmed_presumptive":"CONFIRMED","source":"https:\/\/news.gov.bc.ca\/releases\/2021HLTH0028-000199","date":"2021-02-03 16:22:29","hr_uid":null},{"id":799337,"province":"BC","city":"Pending","age":"Pending","travel_history":"Pending","confirmed_presumptive":"CONFIRMED","source":"https:\/\/news.gov.bc.ca\/releases\/2021HLTH0028-000199","date":"2021-02-03 16:22:29","hr_uid":null},{"id":799336,"province":"BC","city":"Pending","age":"Pending","travel_history":"Pending","confirmed_presumptive":"CONFIRMED","source":"https:\/\/news.gov.bc.ca\/releases\/2021HLTH0028-000199","date":"2021-02-03 16:22:29","hr_uid":null},{"id":799335,"province":"BC","city":"Pending","age":"Pending","travel_history":"Pending","confirmed_presumptive":"CONFIRMED","source":"https:\/\/news.gov.bc.ca\/releases\/2021HLTH0028-000199","date":"2021-02-03 16:22:29","hr_uid":null},{"id":799334,"province":"BC","city":"Pending","age":"Pending","travel_history":"Pending","confirmed_presumptive":"CONFIRMED","source":"https:\/\/news.gov.bc.ca\/releases\/2021HLTH0028-000199","date":"2021-02-03 16:22:29","hr_uid":null},{"id":799333,"province":"BC","city":"Pending","age":"Pending","travel_history":"Pending","confirmed_presumptive":"CONFIRMED","source":"https:\/\/news.gov.bc.ca\/releases\/2021HLTH0028-000199","date":"2021-02-03 16:22:29","hr_uid":null},{"id":799332,"province":"BC","city":"Pending","age":"Pending","travel_history":"Pending","confirmed_presumptive":"CONFIRMED","source":"https:\/\/news.gov.bc.ca\/releases\/2021HLTH0028-000199","date":"2021-02-03 16:22:29","hr_uid":null},{"id":799331,"province":"BC","city":"Pending","age":"Pending","travel_history":"Pending","confirmed_presumptive":"CONFIRMED","source":"https:\/\/news.gov.bc.ca\/releases\/2021HLTH0028-000199","date":"2021-02-03 16:22:29","hr_uid":null},{"id":799330,"province":"BC","city":"Pending","age":"Pending","travel_history":"Pending","confirmed_presumptive":"CONFIRMED","source":"https:\/\/news.gov.bc.ca\/releases\/2021HLTH0028-000199","date":"2021-02-03 16:22:29","hr_uid":null},{"id":799329,"province":"BC","city":"Pending","age":"Pending","travel_history":"Pending","confirmed_presumptive":"CONFIRMED","source":"https:\/\/news.gov.bc.ca\/releases\/2021HLTH0028-000199","date":"2021-02-03 16:22:29","hr_uid":null},{"id":799328,"province":"BC","city":"Pending","age":"Pending","travel_history":"Pending","confirmed_presumptive":"CONFIRMED","source":"https:\/\/news.gov.bc.ca\/releases\/2021HLTH0028-000199","date":"2021-02-03 16:22:29","hr_uid":null},{"id":799327,"province":"BC","city":"Pending","age":"Pending","travel_history":"Pending","confirmed_presumptive":"CONFIRMED","source":"https:\/\/news.gov.bc.ca\/releases\/2021HLTH0028-000199","date":"2021-02-03 16:22:29","hr_uid":null},{"id":799326,"province":"BC","city":"Pending","age":"Pending","travel_history":"Pending","confirmed_presumptive":"CONFIRMED","source":"https:\/\/news.gov.bc.ca\/releases\/2021HLTH0028-000199","date":"2021-02-03 16:22:29","hr_uid":null},{"id":799325,"province":"BC","city":"Pending","age":"Pending","travel_history":"Pending","confirmed_presumptive":"CONFIRMED","source":"https:\/\/news.gov.bc.ca\/releases\/2021HLTH0028-000199","date":"2021-02-03 16:22:29","hr_uid":null},{"id":799324,"province":"BC","city":"Pending","age":"Pending","travel_history":"Pending","confirmed_presumptive":"CONFIRMED","source":"https:\/\/news.gov.bc.ca\/releases\/2021HLTH0028-000199","date":"2021-02-03 16:22:29","hr_uid":null},{"id":799323,"province":"BC","city":"Pending","age":"Pending","travel_history":"Pending","confirmed_presumptive":"CONFIRMED","source":"https:\/\/news.gov.bc.ca\/releases\/2021HLTH0028-000199","date":"2021-02-03 16:22:29","hr_uid":null},{"id":799322,"province":"BC","city":"Pending","age":"Pending","travel_history":"Pending","confirmed_presumptive":"CONFIRMED","source":"https:\/\/news.gov.bc.ca\/releases\/2021HLTH0028-000199","date":"2021-02-03 16:22:29","hr_uid":null},{"id":799321,"province":"BC","city":"Pending","age":"Pending","travel_history":"Pending","confirmed_presumptive":"CONFIRMED","source":"https:\/\/news.gov.bc.ca\/releases\/2021HLTH0028-000199","date":"2021-02-03 16:22:29","hr_uid":null},{"id":799320,"province":"BC","city":"Pending","age":"Pending","travel_history":"Pending","confirmed_presumptive":"CONFIRMED","source":"https:\/\/news.gov.bc.ca\/releases\/2021HLTH0028-000199","date":"2021-02-03 16:22:29","hr_uid":null},{"id":799319,"province":"BC","city":"Pending","age":"Pending","travel_history":"Pending","confirmed_presumptive":"CONFIRMED","source":"https:\/\/news.gov.bc.ca\/releases\/2021HLTH0028-000199","date":"2021-02-03 16:22:29","hr_uid":null},{"id":799318,"province":"BC","city":"Pending","age":"Pending","travel_history":"Pending","confirmed_presumptive":"CONFIRMED","source":"https:\/\/news.gov.bc.ca\/releases\/2021HLTH0028-000199","date":"2021-02-03 16:22:29","hr_uid":null},{"id":799317,"province":"BC","city":"Pending","age":"Pending","travel_history":"Pending","confirmed_presumptive":"CONFIRMED","source":"https:\/\/news.gov.bc.ca\/releases\/2021HLTH0028-000199","date":"2021-02-03 16:22:29","hr_uid":null},{"id":799316,"province":"BC","city":"Pending","age":"Pending","travel_history":"Pending","confirmed_presumptive":"CONFIRMED","source":"https:\/\/news.gov.bc.ca\/releases\/2021HLTH0028-000199","date":"2021-02-03 16:22:29","hr_uid":null},{"id":799315,"province":"BC","city":"Pending","age":"Pending","travel_history":"Pending","confirmed_presumptive":"CONFIRMED","source":"https:\/\/news.gov.bc.ca\/releases\/2021HLTH0028-000199","date":"2021-02-03 16:22:29","hr_uid":null},{"id":799314,"province":"BC","city":"Pending","age":"Pending","travel_history":"Pending","confirmed_presumptive":"CONFIRMED","source":"https:\/\/news.gov.bc.ca\/releases\/2021HLTH0028-000199","date":"2021-02-03 16:22:29","hr_uid":null},{"id":799313,"province":"BC","city":"Pending","age":"Pending","travel_history":"Pending","confirmed_presumptive":"CONFIRMED","source":"https:\/\/news.gov.bc.ca\/releases\/2021HLTH0028-000199","date":"2021-02-03 16:22:29","hr_uid":null},{"id":799312,"province":"BC","city":"Pending","age":"Pending","travel_history":"Pending","confirmed_presumptive":"CONFIRMED","source":"https:\/\/news.gov.bc.ca\/releases\/2021HLTH0028-000199","date":"2021-02-03 16:22:29","hr_uid":null},{"id":799311,"province":"BC","city":"Pending","age":"Pending","travel_history":"Pending","confirmed_presumptive":"CONFIRMED","source":"https:\/\/news.gov.bc.ca\/releases\/2021HLTH0028-000199","date":"2021-02-03 16:22:29","hr_uid":null},{"id":799310,"province":"BC","city":"Pending","age":"Pending","travel_history":"Pending","confirmed_presumptive":"CONFIRMED","source":"https:\/\/news.gov.bc.ca\/releases\/2021HLTH0028-000199","date":"2021-02-03 16:22:29","hr_uid":null},{"id":799309,"province":"BC","city":"Pending","age":"Pending","travel_history":"Pending","confirmed_presumptive":"CONFIRMED","source":"https:\/\/news.gov.bc.ca\/releases\/2021HLTH0028-000199","date":"2021-02-03 16:22:29","hr_uid":null},{"id":799308,"province":"BC","city":"Pending","age":"Pending","travel_history":"Pending","confirmed_presumptive":"CONFIRMED","source":"https:\/\/news.gov.bc.ca\/releases\/2021HLTH0028-000199","date":"2021-02-03 16:22:29","hr_uid":null},{"id":799307,"province":"BC","city":"Pending","age":"Pending","travel_history":"Pending","confirmed_presumptive":"CONFIRMED","source":"https:\/\/news.gov.bc.ca\/releases\/2021HLTH0028-000199","date":"2021-02-03 16:22:29","hr_uid":null},{"id":799306,"province":"BC","city":"Pending","age":"Pending","travel_history":"Pending","confirmed_presumptive":"CONFIRMED","source":"https:\/\/news.gov.bc.ca\/releases\/2021HLTH0028-000199","date":"2021-02-03 16:22:29","hr_uid":null},{"id":799305,"province":"BC","city":"Pending","age":"Pending","travel_history":"Pending","confirmed_presumptive":"CONFIRMED","source":"https:\/\/news.gov.bc.ca\/releases\/2021HLTH0028-000199","date":"2021-02-03 16:22:29","hr_uid":null},{"id":799304,"province":"BC","city":"Pending","age":"Pending","travel_history":"Pending","confirmed_presumptive":"CONFIRMED","source":"https:\/\/news.gov.bc.ca\/releases\/2021HLTH0028-000199","date":"2021-02-03 16:22:29","hr_uid":null},{"id":799303,"province":"BC","city":"Pending","age":"Pending","travel_history":"Pending","confirmed_presumptive":"CONFIRMED","source":"https:\/\/news.gov.bc.ca\/releases\/2021HLTH0028-000199","date":"2021-02-03 16:22:29","hr_uid":null},{"id":799302,"province":"BC","city":"Pending","age":"Pending","travel_history":"Pending","confirmed_presumptive":"CONFIRMED","source":"https:\/\/news.gov.bc.ca\/releases\/2021HLTH0028-000199","date":"2021-02-03 16:22:29","hr_uid":null},{"id":799301,"province":"BC","city":"Pending","age":"Pending","travel_history":"Pending","confirmed_presumptive":"CONFIRMED","source":"https:\/\/news.gov.bc.ca\/releases\/2021HLTH0028-000199","date":"2021-02-03 16:22:29","hr_uid":null},{"id":799300,"province":"BC","city":"Pending","age":"Pending","travel_history":"Pending","confirmed_presumptive":"CONFIRMED","source":"https:\/\/news.gov.bc.ca\/releases\/2021HLTH0028-000199","date":"2021-02-03 16:22:29","hr_uid":null},{"id":799299,"province":"BC","city":"Pending","age":"Pending","travel_history":"Pending","confirmed_presumptive":"CONFIRMED","source":"https:\/\/news.gov.bc.ca\/releases\/2021HLTH0028-000199","date":"2021-02-03 16:22:29","hr_uid":null},{"id":799298,"province":"BC","city":"Pending","age":"Pending","travel_history":"Pending","confirmed_presumptive":"CONFIRMED","source":"https:\/\/news.gov.bc.ca\/releases\/2021HLTH0028-000199","date":"2021-02-03 16:22:29","hr_uid":null},{"id":799297,"province":"BC","city":"Pending","age":"Pending","travel_history":"Pending","confirmed_presumptive":"CONFIRMED","source":"https:\/\/news.gov.bc.ca\/releases\/2021HLTH0028-000199","date":"2021-02-03 16:22:29","hr_uid":null},{"id":799296,"province":"BC","city":"Pending","age":"Pending","travel_history":"Pending","confirmed_presumptive":"CONFIRMED","source":"https:\/\/news.gov.bc.ca\/releases\/2021HLTH0028-000199","date":"2021-02-03 16:22:29","hr_uid":null},{"id":799295,"province":"BC","city":"Pending","age":"Pending","travel_history":"Pending","confirmed_presumptive":"CONFIRMED","source":"https:\/\/news.gov.bc.ca\/releases\/2021HLTH0028-000199","date":"2021-02-03 16:22:29","hr_uid":null},{"id":799294,"province":"BC","city":"Pending","age":"Pending","travel_history":"Pending","confirmed_presumptive":"CONFIRMED","source":"https:\/\/news.gov.bc.ca\/releases\/2021HLTH0028-000199","date":"2021-02-03 16:22:29","hr_uid":null},{"id":799293,"province":"BC","city":"Pending","age":"Pending","travel_history":"Pending","confirmed_presumptive":"CONFIRMED","source":"https:\/\/news.gov.bc.ca\/releases\/2021HLTH0028-000199","date":"2021-02-03 16:22:29","hr_uid":null},{"id":799292,"province":"BC","city":"Pending","age":"Pending","travel_history":"Pending","confirmed_presumptive":"CONFIRMED","source":"https:\/\/news.gov.bc.ca\/releases\/2021HLTH0028-000199","date":"2021-02-03 16:22:29","hr_uid":null},{"id":799291,"province":"BC","city":"Pending","age":"Pending","travel_history":"Pending","confirmed_presumptive":"CONFIRMED","source":"https:\/\/news.gov.bc.ca\/releases\/2021HLTH0028-000199","date":"2021-02-03 16:22:29","hr_uid":null},{"id":799290,"province":"BC","city":"Pending","age":"Pending","travel_history":"Pending","confirmed_presumptive":"CONFIRMED","source":"https:\/\/news.gov.bc.ca\/releases\/2021HLTH0028-000199","date":"2021-02-03 16:22:29","hr_uid":null},{"id":799289,"province":"BC","city":"Pending","age":"Pending","travel_history":"Pending","confirmed_presumptive":"CONFIRMED","source":"https:\/\/news.gov.bc.ca\/releases\/2021HLTH0028-000199","date":"2021-02-03 16:22:29","hr_uid":null},{"id":799288,"province":"BC","city":"Pending","age":"Pending","travel_history":"Pending","confirmed_presumptive":"CONFIRMED","source":"https:\/\/news.gov.bc.ca\/releases\/2021HLTH0028-000199","date":"2021-02-03 16:22:29","hr_uid":null},{"id":799287,"province":"BC","city":"Pending","age":"Pending","travel_history":"Pending","confirmed_presumptive":"CONFIRMED","source":"https:\/\/news.gov.bc.ca\/releases\/2021HLTH0028-000199","date":"2021-02-03 16:22:29","hr_uid":null},{"id":799286,"province":"BC","city":"Pending","age":"Pending","travel_history":"Pending","confirmed_presumptive":"CONFIRMED","source":"https:\/\/news.gov.bc.ca\/releases\/2021HLTH0028-000199","date":"2021-02-03 16:22:29","hr_uid":null},{"id":799285,"province":"BC","city":"Pending","age":"Pending","travel_history":"Pending","confirmed_presumptive":"CONFIRMED","source":"https:\/\/news.gov.bc.ca\/releases\/2021HLTH0028-000199","date":"2021-02-03 16:22:29","hr_uid":null},{"id":799284,"province":"BC","city":"Pending","age":"Pending","travel_history":"Pending","confirmed_presumptive":"CONFIRMED","source":"https:\/\/news.gov.bc.ca\/releases\/2021HLTH0028-000199","date":"2021-02-03 16:22:29","hr_uid":null},{"id":799283,"province":"BC","city":"Pending","age":"Pending","travel_history":"Pending","confirmed_presumptive":"CONFIRMED","source":"https:\/\/news.gov.bc.ca\/releases\/2021HLTH0028-000199","date":"2021-02-03 16:22:29","hr_uid":null},{"id":799282,"province":"BC","city":"Pending","age":"Pending","travel_history":"Pending","confirmed_presumptive":"CONFIRMED","source":"https:\/\/news.gov.bc.ca\/releases\/2021HLTH0028-000199","date":"2021-02-03 16:22:29","hr_uid":null},{"id":799281,"province":"BC","city":"Pending","age":"Pending","travel_history":"Pending","confirmed_presumptive":"CONFIRMED","source":"https:\/\/news.gov.bc.ca\/releases\/2021HLTH0028-000199","date":"2021-02-03 16:22:29","hr_uid":null},{"id":799280,"province":"BC","city":"Pending","age":"Pending","travel_history":"Pending","confirmed_presumptive":"CONFIRMED","source":"https:\/\/news.gov.bc.ca\/releases\/2021HLTH0028-000199","date":"2021-02-03 16:22:29","hr_uid":null},{"id":799279,"province":"BC","city":"Pending","age":"Pending","travel_history":"Pending","confirmed_presumptive":"CONFIRMED","source":"https:\/\/news.gov.bc.ca\/releases\/2021HLTH0028-000199","date":"2021-02-03 16:22:29","hr_uid":null},{"id":799278,"province":"BC","city":"Pending","age":"Pending","travel_history":"Pending","confirmed_presumptive":"CONFIRMED","source":"https:\/\/news.gov.bc.ca\/releases\/2021HLTH0028-000199","date":"2021-02-03 16:22:29","hr_uid":null},{"id":799277,"province":"BC","city":"Pending","age":"Pending","travel_history":"Pending","confirmed_presumptive":"CONFIRMED","source":"https:\/\/news.gov.bc.ca\/releases\/2021HLTH0028-000199","date":"2021-02-03 16:22:29","hr_uid":null},{"id":799276,"province":"BC","city":"Pending","age":"Pending","travel_history":"Pending","confirmed_presumptive":"CONFIRMED","source":"https:\/\/news.gov.bc.ca\/releases\/2021HLTH0028-000199","date":"2021-02-03 16:22:29","hr_uid":null},{"id":799275,"province":"BC","city":"Pending","age":"Pending","travel_history":"Pending","confirmed_presumptive":"CONFIRMED","source":"https:\/\/news.gov.bc.ca\/releases\/2021HLTH0028-000199","date":"2021-02-03 16:22:29","hr_uid":null},{"id":799274,"province":"BC","city":"Pending","age":"Pending","travel_history":"Pending","confirmed_presumptive":"CONFIRMED","source":"https:\/\/news.gov.bc.ca\/releases\/2021HLTH0028-000199","date":"2021-02-03 16:22:29","hr_uid":null},{"id":799273,"province":"BC","city":"Pending","age":"Pending","travel_history":"Pending","confirmed_presumptive":"CONFIRMED","source":"https:\/\/news.gov.bc.ca\/releases\/2021HLTH0028-000199","date":"2021-02-03 16:22:29","hr_uid":null},{"id":799272,"province":"BC","city":"Pending","age":"Pending","travel_history":"Pending","confirmed_presumptive":"CONFIRMED","source":"https:\/\/news.gov.bc.ca\/releases\/2021HLTH0028-000199","date":"2021-02-03 16:22:29","hr_uid":null},{"id":799271,"province":"BC","city":"Pending","age":"Pending","travel_history":"Pending","confirmed_presumptive":"CONFIRMED","source":"https:\/\/news.gov.bc.ca\/releases\/2021HLTH0028-000199","date":"2021-02-03 16:22:29","hr_uid":null},{"id":799270,"province":"BC","city":"Pending","age":"Pending","travel_history":"Pending","confirmed_presumptive":"CONFIRMED","source":"https:\/\/news.gov.bc.ca\/releases\/2021HLTH0028-000199","date":"2021-02-03 16:22:29","hr_uid":null},{"id":799269,"province":"BC","city":"Pending","age":"Pending","travel_history":"Pending","confirmed_presumptive":"CONFIRMED","source":"https:\/\/news.gov.bc.ca\/releases\/2021HLTH0028-000199","date":"2021-02-03 16:22:29","hr_uid":null},{"id":799268,"province":"BC","city":"Pending","age":"Pending","travel_history":"Pending","confirmed_presumptive":"CONFIRMED","source":"https:\/\/news.gov.bc.ca\/releases\/2021HLTH0028-000199","date":"2021-02-03 16:22:29","hr_uid":null},{"id":799267,"province":"BC","city":"Pending","age":"Pending","travel_history":"Pending","confirmed_presumptive":"CONFIRMED","source":"https:\/\/news.gov.bc.ca\/releases\/2021HLTH0028-000199","date":"2021-02-03 16:22:29","hr_uid":null},{"id":799266,"province":"BC","city":"Pending","age":"Pending","travel_history":"Pending","confirmed_presumptive":"CONFIRMED","source":"https:\/\/news.gov.bc.ca\/releases\/2021HLTH0028-000199","date":"2021-02-03 16:22:29","hr_uid":null},{"id":799265,"province":"BC","city":"Pending","age":"Pending","travel_history":"Pending","confirmed_presumptive":"CONFIRMED","source":"https:\/\/news.gov.bc.ca\/releases\/2021HLTH0028-000199","date":"2021-02-03 16:22:29","hr_uid":null},{"id":799264,"province":"BC","city":"Pending","age":"Pending","travel_history":"Pending","confirmed_presumptive":"CONFIRMED","source":"https:\/\/news.gov.bc.ca\/releases\/2021HLTH0028-000199","date":"2021-02-03 16:22:29","hr_uid":null},{"id":799263,"province":"BC","city":"Pending","age":"Pending","travel_history":"Pending","confirmed_presumptive":"CONFIRMED","source":"https:\/\/news.gov.bc.ca\/releases\/2021HLTH0028-000199","date":"2021-02-03 16:22:29","hr_uid":null},{"id":799262,"province":"BC","city":"Pending","age":"Pending","travel_history":"Pending","confirmed_presumptive":"CONFIRMED","source":"https:\/\/news.gov.bc.ca\/releases\/2021HLTH0028-000199","date":"2021-02-03 16:22:29","hr_uid":null},{"id":799261,"province":"BC","city":"Pending","age":"Pending","travel_history":"Pending","confirmed_presumptive":"CONFIRMED","source":"https:\/\/news.gov.bc.ca\/releases\/2021HLTH0028-000199","date":"2021-02-03 16:22:29","hr_uid":null},{"id":799260,"province":"BC","city":"Pending","age":"Pending","travel_history":"Pending","confirmed_presumptive":"CONFIRMED","source":"https:\/\/news.gov.bc.ca\/releases\/2021HLTH0028-000199","date":"2021-02-03 16:22:29","hr_uid":null},{"id":799259,"province":"BC","city":"Pending","age":"Pending","travel_history":"Pending","confirmed_presumptive":"CONFIRMED","source":"https:\/\/news.gov.bc.ca\/releases\/2021HLTH0028-000199","date":"2021-02-03 16:22:29","hr_uid":null},{"id":799258,"province":"BC","city":"Pending","age":"Pending","travel_history":"Pending","confirmed_presumptive":"CONFIRMED","source":"https:\/\/news.gov.bc.ca\/releases\/2021HLTH0028-000199","date":"2021-02-03 16:22:29","hr_uid":null},{"id":799257,"province":"BC","city":"Pending","age":"Pending","travel_history":"Pending","confirmed_presumptive":"CONFIRMED","source":"https:\/\/news.gov.bc.ca\/releases\/2021HLTH0028-000199","date":"2021-02-03 16:22:29","hr_uid":null},{"id":799256,"province":"BC","city":"Pending","age":"Pending","travel_history":"Pending","confirmed_presumptive":"CONFIRMED","source":"https:\/\/news.gov.bc.ca\/releases\/2021HLTH0028-000199","date":"2021-02-03 16:22:29","hr_uid":null},{"id":799255,"province":"BC","city":"Pending","age":"Pending","travel_history":"Pending","confirmed_presumptive":"CONFIRMED","source":"https:\/\/news.gov.bc.ca\/releases\/2021HLTH0028-000199","date":"2021-02-03 16:22:29","hr_uid":null},{"id":799254,"province":"BC","city":"Pending","age":"Pending","travel_history":"Pending","confirmed_presumptive":"CONFIRMED","source":"https:\/\/news.gov.bc.ca\/releases\/2021HLTH0028-000199","date":"2021-02-03 16:22:29","hr_uid":null},{"id":799253,"province":"BC","city":"Pending","age":"Pending","travel_history":"Pending","confirmed_presumptive":"CONFIRMED","source":"https:\/\/news.gov.bc.ca\/releases\/2021HLTH0028-000199","date":"2021-02-03 16:22:29","hr_uid":null},{"id":799252,"province":"BC","city":"Pending","age":"Pending","travel_history":"Pending","confirmed_presumptive":"CONFIRMED","source":"https:\/\/news.gov.bc.ca\/releases\/2021HLTH0028-000199","date":"2021-02-03 16:22:29","hr_uid":null},{"id":799251,"province":"BC","city":"Pending","age":"Pending","travel_history":"Pending","confirmed_presumptive":"CONFIRMED","source":"https:\/\/news.gov.bc.ca\/releases\/2021HLTH0028-000199","date":"2021-02-03 16:22:29","hr_uid":null},{"id":799250,"province":"BC","city":"Pending","age":"Pending","travel_history":"Pending","confirmed_presumptive":"CONFIRMED","source":"https:\/\/news.gov.bc.ca\/releases\/2021HLTH0028-000199","date":"2021-02-03 16:22:29","hr_uid":null},{"id":799249,"province":"BC","city":"Pending","age":"Pending","travel_history":"Pending","confirmed_presumptive":"CONFIRMED","source":"https:\/\/news.gov.bc.ca\/releases\/2021HLTH0028-000199","date":"2021-02-03 16:22:29","hr_uid":null},{"id":799248,"province":"BC","city":"Pending","age":"Pending","travel_history":"Pending","confirmed_presumptive":"CONFIRMED","source":"https:\/\/news.gov.bc.ca\/releases\/2021HLTH0028-000199","date":"2021-02-03 16:22:29","hr_uid":null},{"id":799247,"province":"BC","city":"Pending","age":"Pending","travel_history":"Pending","confirmed_presumptive":"CONFIRMED","source":"https:\/\/news.gov.bc.ca\/releases\/2021HLTH0028-000199","date":"2021-02-03 16:22:29","hr_uid":null},{"id":799246,"province":"BC","city":"Pending","age":"Pending","travel_history":"Pending","confirmed_presumptive":"CONFIRMED","source":"https:\/\/news.gov.bc.ca\/releases\/2021HLTH0028-000199","date":"2021-02-03 16:22:29","hr_uid":null}],"first_page_url":"https:\/\/api.covid19tracker.ca\/cases?page=1","from":1,"last_page":7942,"last_page_url":"https:\/\/api.covid19tracker.ca\/cases?page=7942","links":[{"url":null,"label":"&laquo; Previous","active":false},{"url":"https:\/\/api.covid19tracker.ca\/cases?page=1","label":"1","active":true},{"url":"https:\/\/api.covid19tracker.ca\/cases?page=2","label":"2","active":false},{"url":"https:\/\/api.covid19tracker.ca\/cases?page=3","label":"3","active":false},{"url":"https:\/\/api.covid19tracker.ca\/cases?page=4","label":"4","active":false},{"url":"https:\/\/api.covid19tracker.ca\/cases?page=5","label":"5","active":false},{"url":"https:\/\/api.covid19tracker.ca\/cases?page=6","label":"6","active":false},{"url":"https:\/\/api.covid19tracker.ca\/cases?page=7","label":"7","active":false},{"url":"https:\/\/api.covid19tracker.ca\/cases?page=8","label":"8","active":false},{"url":"https:\/\/api.covid19tracker.ca\/cases?page=9","label":"9","active":false},{"url":"https:\/\/api.covid19tracker.ca\/cases?page=10","label":"10","active":false},{"url":null,"label":"...","active":false},{"url":"https:\/\/api.covid19tracker.ca\/cases?page=7941","label":"7941","active":false},{"url":"https:\/\/api.covid19tracker.ca\/cases?page=7942","label":"7942","active":false},{"url":"https:\/\/api.covid19tracker.ca\/cases?page=2","label":"Next &raquo;","active":false}],"next_page_url":"https:\/\/api.covid19tracker.ca\/cases?page=2","path":"https:\/\/api.covid19tracker.ca\/cases","per_page":100,"prev_page_url":null,"to":100,"total":794175}