{"current_page":1,"data":[{"id":797395,"province":"MB","city":"Pending","age":"Pending","travel_history":"Pending","confirmed_presumptive":"CONFIRMED","source":"https:\/\/manitoba.ca\/covid19\/","date":"2021-02-03 11:36:13","hr_uid":null},{"id":797394,"province":"MB","city":"Pending","age":"Pending","travel_history":"Pending","confirmed_presumptive":"CONFIRMED","source":"https:\/\/manitoba.ca\/covid19\/","date":"2021-02-03 11:36:13","hr_uid":null},{"id":797393,"province":"MB","city":"Pending","age":"Pending","travel_history":"Pending","confirmed_presumptive":"CONFIRMED","source":"https:\/\/manitoba.ca\/covid19\/","date":"2021-02-03 11:36:13","hr_uid":null},{"id":797392,"province":"MB","city":"Pending","age":"Pending","travel_history":"Pending","confirmed_presumptive":"CONFIRMED","source":"https:\/\/manitoba.ca\/covid19\/","date":"2021-02-03 11:36:13","hr_uid":null},{"id":797391,"province":"MB","city":"Pending","age":"Pending","travel_history":"Pending","confirmed_presumptive":"CONFIRMED","source":"https:\/\/manitoba.ca\/covid19\/","date":"2021-02-03 11:36:13","hr_uid":null},{"id":797390,"province":"MB","city":"Pending","age":"Pending","travel_history":"Pending","confirmed_presumptive":"CONFIRMED","source":"https:\/\/manitoba.ca\/covid19\/","date":"2021-02-03 11:36:13","hr_uid":null},{"id":797389,"province":"MB","city":"Pending","age":"Pending","travel_history":"Pending","confirmed_presumptive":"CONFIRMED","source":"https:\/\/manitoba.ca\/covid19\/","date":"2021-02-03 11:36:13","hr_uid":null},{"id":797388,"province":"MB","city":"Pending","age":"Pending","travel_history":"Pending","confirmed_presumptive":"CONFIRMED","source":"https:\/\/manitoba.ca\/covid19\/","date":"2021-02-03 11:36:13","hr_uid":null},{"id":797387,"province":"MB","city":"Pending","age":"Pending","travel_history":"Pending","confirmed_presumptive":"CONFIRMED","source":"https:\/\/manitoba.ca\/covid19\/","date":"2021-02-03 11:36:13","hr_uid":null},{"id":797386,"province":"MB","city":"Pending","age":"Pending","travel_history":"Pending","confirmed_presumptive":"CONFIRMED","source":"https:\/\/manitoba.ca\/covid19\/","date":"2021-02-03 11:36:13","hr_uid":null},{"id":797385,"province":"MB","city":"Pending","age":"Pending","travel_history":"Pending","confirmed_presumptive":"CONFIRMED","source":"https:\/\/manitoba.ca\/covid19\/","date":"2021-02-03 11:36:13","hr_uid":null},{"id":797384,"province":"MB","city":"Pending","age":"Pending","travel_history":"Pending","confirmed_presumptive":"CONFIRMED","source":"https:\/\/manitoba.ca\/covid19\/","date":"2021-02-03 11:36:13","hr_uid":null},{"id":797383,"province":"MB","city":"Pending","age":"Pending","travel_history":"Pending","confirmed_presumptive":"CONFIRMED","source":"https:\/\/manitoba.ca\/covid19\/","date":"2021-02-03 11:36:13","hr_uid":null},{"id":797382,"province":"MB","city":"Pending","age":"Pending","travel_history":"Pending","confirmed_presumptive":"CONFIRMED","source":"https:\/\/manitoba.ca\/covid19\/","date":"2021-02-03 11:36:13","hr_uid":null},{"id":797381,"province":"MB","city":"Pending","age":"Pending","travel_history":"Pending","confirmed_presumptive":"CONFIRMED","source":"https:\/\/manitoba.ca\/covid19\/","date":"2021-02-03 11:36:13","hr_uid":null},{"id":797380,"province":"MB","city":"Pending","age":"Pending","travel_history":"Pending","confirmed_presumptive":"CONFIRMED","source":"https:\/\/manitoba.ca\/covid19\/","date":"2021-02-03 11:36:13","hr_uid":null},{"id":797379,"province":"MB","city":"Pending","age":"Pending","travel_history":"Pending","confirmed_presumptive":"CONFIRMED","source":"https:\/\/manitoba.ca\/covid19\/","date":"2021-02-03 11:36:13","hr_uid":null},{"id":797378,"province":"MB","city":"Pending","age":"Pending","travel_history":"Pending","confirmed_presumptive":"CONFIRMED","source":"https:\/\/manitoba.ca\/covid19\/","date":"2021-02-03 11:36:13","hr_uid":null},{"id":797377,"province":"MB","city":"Pending","age":"Pending","travel_history":"Pending","confirmed_presumptive":"CONFIRMED","source":"https:\/\/manitoba.ca\/covid19\/","date":"2021-02-03 11:36:13","hr_uid":null},{"id":797376,"province":"MB","city":"Pending","age":"Pending","travel_history":"Pending","confirmed_presumptive":"CONFIRMED","source":"https:\/\/manitoba.ca\/covid19\/","date":"2021-02-03 11:36:13","hr_uid":null},{"id":797375,"province":"MB","city":"Pending","age":"Pending","travel_history":"Pending","confirmed_presumptive":"CONFIRMED","source":"https:\/\/manitoba.ca\/covid19\/","date":"2021-02-03 11:36:13","hr_uid":null},{"id":797374,"province":"MB","city":"Pending","age":"Pending","travel_history":"Pending","confirmed_presumptive":"CONFIRMED","source":"https:\/\/manitoba.ca\/covid19\/","date":"2021-02-03 11:36:13","hr_uid":null},{"id":797373,"province":"MB","city":"Pending","age":"Pending","travel_history":"Pending","confirmed_presumptive":"CONFIRMED","source":"https:\/\/manitoba.ca\/covid19\/","date":"2021-02-03 11:36:13","hr_uid":null},{"id":797372,"province":"MB","city":"Pending","age":"Pending","travel_history":"Pending","confirmed_presumptive":"CONFIRMED","source":"https:\/\/manitoba.ca\/covid19\/","date":"2021-02-03 11:36:13","hr_uid":null},{"id":797371,"province":"MB","city":"Pending","age":"Pending","travel_history":"Pending","confirmed_presumptive":"CONFIRMED","source":"https:\/\/manitoba.ca\/covid19\/","date":"2021-02-03 11:36:13","hr_uid":null},{"id":797370,"province":"MB","city":"Pending","age":"Pending","travel_history":"Pending","confirmed_presumptive":"CONFIRMED","source":"https:\/\/manitoba.ca\/covid19\/","date":"2021-02-03 11:36:13","hr_uid":null},{"id":797369,"province":"MB","city":"Pending","age":"Pending","travel_history":"Pending","confirmed_presumptive":"CONFIRMED","source":"https:\/\/manitoba.ca\/covid19\/","date":"2021-02-03 11:36:13","hr_uid":null},{"id":797368,"province":"MB","city":"Pending","age":"Pending","travel_history":"Pending","confirmed_presumptive":"CONFIRMED","source":"https:\/\/manitoba.ca\/covid19\/","date":"2021-02-03 11:36:13","hr_uid":null},{"id":797367,"province":"MB","city":"Pending","age":"Pending","travel_history":"Pending","confirmed_presumptive":"CONFIRMED","source":"https:\/\/manitoba.ca\/covid19\/","date":"2021-02-03 11:36:13","hr_uid":null},{"id":797366,"province":"MB","city":"Pending","age":"Pending","travel_history":"Pending","confirmed_presumptive":"CONFIRMED","source":"https:\/\/manitoba.ca\/covid19\/","date":"2021-02-03 11:36:13","hr_uid":null},{"id":797365,"province":"MB","city":"Pending","age":"Pending","travel_history":"Pending","confirmed_presumptive":"CONFIRMED","source":"https:\/\/manitoba.ca\/covid19\/","date":"2021-02-03 11:36:13","hr_uid":null},{"id":797364,"province":"MB","city":"Pending","age":"Pending","travel_history":"Pending","confirmed_presumptive":"CONFIRMED","source":"https:\/\/manitoba.ca\/covid19\/","date":"2021-02-03 11:36:13","hr_uid":null},{"id":797363,"province":"MB","city":"Pending","age":"Pending","travel_history":"Pending","confirmed_presumptive":"CONFIRMED","source":"https:\/\/manitoba.ca\/covid19\/","date":"2021-02-03 11:36:13","hr_uid":null},{"id":797362,"province":"MB","city":"Pending","age":"Pending","travel_history":"Pending","confirmed_presumptive":"CONFIRMED","source":"https:\/\/manitoba.ca\/covid19\/","date":"2021-02-03 11:36:13","hr_uid":null},{"id":797361,"province":"MB","city":"Pending","age":"Pending","travel_history":"Pending","confirmed_presumptive":"CONFIRMED","source":"https:\/\/manitoba.ca\/covid19\/","date":"2021-02-03 11:36:13","hr_uid":null},{"id":797360,"province":"MB","city":"Pending","age":"Pending","travel_history":"Pending","confirmed_presumptive":"CONFIRMED","source":"https:\/\/manitoba.ca\/covid19\/","date":"2021-02-03 11:36:13","hr_uid":null},{"id":797359,"province":"MB","city":"Pending","age":"Pending","travel_history":"Pending","confirmed_presumptive":"CONFIRMED","source":"https:\/\/manitoba.ca\/covid19\/","date":"2021-02-03 11:36:13","hr_uid":null},{"id":797358,"province":"MB","city":"Pending","age":"Pending","travel_history":"Pending","confirmed_presumptive":"CONFIRMED","source":"https:\/\/manitoba.ca\/covid19\/","date":"2021-02-03 11:36:13","hr_uid":null},{"id":797357,"province":"MB","city":"Pending","age":"Pending","travel_history":"Pending","confirmed_presumptive":"CONFIRMED","source":"https:\/\/manitoba.ca\/covid19\/","date":"2021-02-03 11:36:13","hr_uid":null},{"id":797356,"province":"MB","city":"Pending","age":"Pending","travel_history":"Pending","confirmed_presumptive":"CONFIRMED","source":"https:\/\/manitoba.ca\/covid19\/","date":"2021-02-03 11:36:13","hr_uid":null},{"id":797355,"province":"MB","city":"Pending","age":"Pending","travel_history":"Pending","confirmed_presumptive":"CONFIRMED","source":"https:\/\/manitoba.ca\/covid19\/","date":"2021-02-03 11:36:13","hr_uid":null},{"id":797354,"province":"MB","city":"Pending","age":"Pending","travel_history":"Pending","confirmed_presumptive":"CONFIRMED","source":"https:\/\/manitoba.ca\/covid19\/","date":"2021-02-03 11:36:13","hr_uid":null},{"id":797353,"province":"MB","city":"Pending","age":"Pending","travel_history":"Pending","confirmed_presumptive":"CONFIRMED","source":"https:\/\/manitoba.ca\/covid19\/","date":"2021-02-03 11:36:13","hr_uid":null},{"id":797352,"province":"MB","city":"Pending","age":"Pending","travel_history":"Pending","confirmed_presumptive":"CONFIRMED","source":"https:\/\/manitoba.ca\/covid19\/","date":"2021-02-03 11:36:13","hr_uid":null},{"id":797351,"province":"MB","city":"Pending","age":"Pending","travel_history":"Pending","confirmed_presumptive":"CONFIRMED","source":"https:\/\/manitoba.ca\/covid19\/","date":"2021-02-03 11:36:13","hr_uid":null},{"id":797350,"province":"MB","city":"Pending","age":"Pending","travel_history":"Pending","confirmed_presumptive":"CONFIRMED","source":"https:\/\/manitoba.ca\/covid19\/","date":"2021-02-03 11:36:13","hr_uid":null},{"id":797349,"province":"MB","city":"Pending","age":"Pending","travel_history":"Pending","confirmed_presumptive":"CONFIRMED","source":"https:\/\/manitoba.ca\/covid19\/","date":"2021-02-03 11:36:13","hr_uid":null},{"id":797348,"province":"MB","city":"Pending","age":"Pending","travel_history":"Pending","confirmed_presumptive":"CONFIRMED","source":"https:\/\/manitoba.ca\/covid19\/","date":"2021-02-03 11:36:13","hr_uid":null},{"id":797347,"province":"MB","city":"Pending","age":"Pending","travel_history":"Pending","confirmed_presumptive":"CONFIRMED","source":"https:\/\/manitoba.ca\/covid19\/","date":"2021-02-03 11:36:13","hr_uid":null},{"id":797346,"province":"MB","city":"Pending","age":"Pending","travel_history":"Pending","confirmed_presumptive":"CONFIRMED","source":"https:\/\/manitoba.ca\/covid19\/","date":"2021-02-03 11:36:13","hr_uid":null},{"id":797345,"province":"MB","city":"Pending","age":"Pending","travel_history":"Pending","confirmed_presumptive":"CONFIRMED","source":"https:\/\/manitoba.ca\/covid19\/","date":"2021-02-03 11:36:13","hr_uid":null},{"id":797344,"province":"MB","city":"Pending","age":"Pending","travel_history":"Pending","confirmed_presumptive":"CONFIRMED","source":"https:\/\/manitoba.ca\/covid19\/","date":"2021-02-03 11:36:13","hr_uid":null},{"id":797343,"province":"MB","city":"Pending","age":"Pending","travel_history":"Pending","confirmed_presumptive":"CONFIRMED","source":"https:\/\/manitoba.ca\/covid19\/","date":"2021-02-03 11:36:13","hr_uid":null},{"id":797342,"province":"MB","city":"Pending","age":"Pending","travel_history":"Pending","confirmed_presumptive":"CONFIRMED","source":"https:\/\/manitoba.ca\/covid19\/","date":"2021-02-03 11:36:13","hr_uid":null},{"id":797341,"province":"MB","city":"Pending","age":"Pending","travel_history":"Pending","confirmed_presumptive":"CONFIRMED","source":"https:\/\/manitoba.ca\/covid19\/","date":"2021-02-03 11:36:13","hr_uid":null},{"id":797340,"province":"MB","city":"Pending","age":"Pending","travel_history":"Pending","confirmed_presumptive":"CONFIRMED","source":"https:\/\/manitoba.ca\/covid19\/","date":"2021-02-03 11:36:13","hr_uid":null},{"id":797339,"province":"MB","city":"Pending","age":"Pending","travel_history":"Pending","confirmed_presumptive":"CONFIRMED","source":"https:\/\/manitoba.ca\/covid19\/","date":"2021-02-03 11:36:13","hr_uid":null},{"id":797338,"province":"MB","city":"Pending","age":"Pending","travel_history":"Pending","confirmed_presumptive":"CONFIRMED","source":"https:\/\/manitoba.ca\/covid19\/","date":"2021-02-03 11:36:13","hr_uid":null},{"id":797337,"province":"MB","city":"Pending","age":"Pending","travel_history":"Pending","confirmed_presumptive":"CONFIRMED","source":"https:\/\/manitoba.ca\/covid19\/","date":"2021-02-03 11:36:13","hr_uid":null},{"id":797336,"province":"MB","city":"Pending","age":"Pending","travel_history":"Pending","confirmed_presumptive":"CONFIRMED","source":"https:\/\/manitoba.ca\/covid19\/","date":"2021-02-03 11:36:13","hr_uid":null},{"id":797335,"province":"MB","city":"Pending","age":"Pending","travel_history":"Pending","confirmed_presumptive":"CONFIRMED","source":"https:\/\/manitoba.ca\/covid19\/","date":"2021-02-03 11:36:13","hr_uid":null},{"id":797334,"province":"MB","city":"Pending","age":"Pending","travel_history":"Pending","confirmed_presumptive":"CONFIRMED","source":"https:\/\/manitoba.ca\/covid19\/","date":"2021-02-03 11:36:13","hr_uid":null},{"id":797333,"province":"MB","city":"Pending","age":"Pending","travel_history":"Pending","confirmed_presumptive":"CONFIRMED","source":"https:\/\/manitoba.ca\/covid19\/","date":"2021-02-03 11:36:13","hr_uid":null},{"id":797332,"province":"MB","city":"Pending","age":"Pending","travel_history":"Pending","confirmed_presumptive":"CONFIRMED","source":"https:\/\/manitoba.ca\/covid19\/","date":"2021-02-03 11:36:13","hr_uid":null},{"id":797331,"province":"MB","city":"Pending","age":"Pending","travel_history":"Pending","confirmed_presumptive":"CONFIRMED","source":"https:\/\/manitoba.ca\/covid19\/","date":"2021-02-03 11:36:13","hr_uid":null},{"id":797330,"province":"MB","city":"Pending","age":"Pending","travel_history":"Pending","confirmed_presumptive":"CONFIRMED","source":"https:\/\/manitoba.ca\/covid19\/","date":"2021-02-03 11:36:13","hr_uid":null},{"id":797329,"province":"MB","city":"Pending","age":"Pending","travel_history":"Pending","confirmed_presumptive":"CONFIRMED","source":"https:\/\/manitoba.ca\/covid19\/","date":"2021-02-03 11:36:13","hr_uid":null},{"id":797328,"province":"MB","city":"Pending","age":"Pending","travel_history":"Pending","confirmed_presumptive":"CONFIRMED","source":"https:\/\/manitoba.ca\/covid19\/","date":"2021-02-03 11:36:13","hr_uid":null},{"id":797327,"province":"MB","city":"Pending","age":"Pending","travel_history":"Pending","confirmed_presumptive":"CONFIRMED","source":"https:\/\/manitoba.ca\/covid19\/","date":"2021-02-03 11:36:13","hr_uid":null},{"id":797326,"province":"MB","city":"Pending","age":"Pending","travel_history":"Pending","confirmed_presumptive":"CONFIRMED","source":"https:\/\/manitoba.ca\/covid19\/","date":"2021-02-03 11:36:13","hr_uid":null},{"id":797325,"province":"MB","city":"Pending","age":"Pending","travel_history":"Pending","confirmed_presumptive":"CONFIRMED","source":"https:\/\/manitoba.ca\/covid19\/","date":"2021-02-03 11:36:13","hr_uid":null},{"id":797324,"province":"MB","city":"Pending","age":"Pending","travel_history":"Pending","confirmed_presumptive":"CONFIRMED","source":"https:\/\/manitoba.ca\/covid19\/","date":"2021-02-03 11:36:13","hr_uid":null},{"id":797323,"province":"MB","city":"Pending","age":"Pending","travel_history":"Pending","confirmed_presumptive":"CONFIRMED","source":"https:\/\/manitoba.ca\/covid19\/","date":"2021-02-03 11:36:13","hr_uid":null},{"id":797322,"province":"MB","city":"Pending","age":"Pending","travel_history":"Pending","confirmed_presumptive":"CONFIRMED","source":"https:\/\/manitoba.ca\/covid19\/","date":"2021-02-03 11:36:13","hr_uid":null},{"id":797321,"province":"MB","city":"Pending","age":"Pending","travel_history":"Pending","confirmed_presumptive":"CONFIRMED","source":"https:\/\/manitoba.ca\/covid19\/","date":"2021-02-03 11:36:13","hr_uid":null},{"id":797320,"province":"MB","city":"Pending","age":"Pending","travel_history":"Pending","confirmed_presumptive":"CONFIRMED","source":"https:\/\/manitoba.ca\/covid19\/","date":"2021-02-03 11:36:13","hr_uid":null},{"id":797319,"province":"MB","city":"Pending","age":"Pending","travel_history":"Pending","confirmed_presumptive":"CONFIRMED","source":"https:\/\/manitoba.ca\/covid19\/","date":"2021-02-03 11:36:13","hr_uid":null},{"id":797318,"province":"MB","city":"Pending","age":"Pending","travel_history":"Pending","confirmed_presumptive":"CONFIRMED","source":"https:\/\/manitoba.ca\/covid19\/","date":"2021-02-03 11:36:13","hr_uid":null},{"id":797317,"province":"MB","city":"Pending","age":"Pending","travel_history":"Pending","confirmed_presumptive":"CONFIRMED","source":"https:\/\/manitoba.ca\/covid19\/","date":"2021-02-03 11:36:13","hr_uid":null},{"id":797316,"province":"MB","city":"Pending","age":"Pending","travel_history":"Pending","confirmed_presumptive":"CONFIRMED","source":"https:\/\/manitoba.ca\/covid19\/","date":"2021-02-03 11:36:13","hr_uid":null},{"id":797315,"province":"MB","city":"Pending","age":"Pending","travel_history":"Pending","confirmed_presumptive":"CONFIRMED","source":"https:\/\/manitoba.ca\/covid19\/","date":"2021-02-03 11:36:13","hr_uid":null},{"id":797314,"province":"MB","city":"Pending","age":"Pending","travel_history":"Pending","confirmed_presumptive":"CONFIRMED","source":"https:\/\/manitoba.ca\/covid19\/","date":"2021-02-03 11:36:13","hr_uid":null},{"id":797313,"province":"MB","city":"Pending","age":"Pending","travel_history":"Pending","confirmed_presumptive":"CONFIRMED","source":"https:\/\/manitoba.ca\/covid19\/","date":"2021-02-03 11:36:13","hr_uid":null},{"id":797312,"province":"MB","city":"Pending","age":"Pending","travel_history":"Pending","confirmed_presumptive":"CONFIRMED","source":"https:\/\/manitoba.ca\/covid19\/","date":"2021-02-03 11:36:13","hr_uid":null},{"id":797311,"province":"MB","city":"Pending","age":"Pending","travel_history":"Pending","confirmed_presumptive":"CONFIRMED","source":"https:\/\/manitoba.ca\/covid19\/","date":"2021-02-03 11:36:13","hr_uid":null},{"id":797310,"province":"MB","city":"Pending","age":"Pending","travel_history":"Pending","confirmed_presumptive":"CONFIRMED","source":"https:\/\/manitoba.ca\/covid19\/","date":"2021-02-03 11:36:13","hr_uid":null},{"id":797309,"province":"MB","city":"Pending","age":"Pending","travel_history":"Pending","confirmed_presumptive":"CONFIRMED","source":"https:\/\/manitoba.ca\/covid19\/","date":"2021-02-03 11:36:13","hr_uid":null},{"id":797308,"province":"MB","city":"Pending","age":"Pending","travel_history":"Pending","confirmed_presumptive":"CONFIRMED","source":"https:\/\/manitoba.ca\/covid19\/","date":"2021-02-03 11:36:13","hr_uid":null},{"id":797307,"province":"MB","city":"Pending","age":"Pending","travel_history":"Pending","confirmed_presumptive":"CONFIRMED","source":"https:\/\/manitoba.ca\/covid19\/","date":"2021-02-03 11:36:13","hr_uid":null},{"id":797306,"province":"MB","city":"Pending","age":"Pending","travel_history":"Pending","confirmed_presumptive":"CONFIRMED","source":"https:\/\/manitoba.ca\/covid19\/","date":"2021-02-03 11:36:13","hr_uid":null},{"id":797305,"province":"MB","city":"Pending","age":"Pending","travel_history":"Pending","confirmed_presumptive":"CONFIRMED","source":"https:\/\/manitoba.ca\/covid19\/","date":"2021-02-03 11:36:13","hr_uid":null},{"id":797304,"province":"MB","city":"Pending","age":"Pending","travel_history":"Pending","confirmed_presumptive":"CONFIRMED","source":"https:\/\/manitoba.ca\/covid19\/","date":"2021-02-03 11:36:13","hr_uid":null},{"id":797303,"province":"MB","city":"Pending","age":"Pending","travel_history":"Pending","confirmed_presumptive":"CONFIRMED","source":"https:\/\/manitoba.ca\/covid19\/","date":"2021-02-03 11:36:13","hr_uid":null},{"id":797302,"province":"MB","city":"Pending","age":"Pending","travel_history":"Pending","confirmed_presumptive":"CONFIRMED","source":"https:\/\/manitoba.ca\/covid19\/","date":"2021-02-03 11:36:13","hr_uid":null},{"id":797301,"province":"MB","city":"Pending","age":"Pending","travel_history":"Pending","confirmed_presumptive":"CONFIRMED","source":"https:\/\/manitoba.ca\/covid19\/","date":"2021-02-03 11:36:13","hr_uid":null},{"id":797300,"province":"MB","city":"Pending","age":"Pending","travel_history":"Pending","confirmed_presumptive":"CONFIRMED","source":"https:\/\/manitoba.ca\/covid19\/","date":"2021-02-03 11:36:13","hr_uid":null},{"id":797299,"province":"MB","city":"Pending","age":"Pending","travel_history":"Pending","confirmed_presumptive":"CONFIRMED","source":"https:\/\/manitoba.ca\/covid19\/","date":"2021-02-03 11:36:13","hr_uid":null},{"id":797298,"province":"MB","city":"Pending","age":"Pending","travel_history":"Pending","confirmed_presumptive":"CONFIRMED","source":"https:\/\/manitoba.ca\/covid19\/","date":"2021-02-03 11:36:13","hr_uid":null},{"id":797297,"province":"MB","city":"Pending","age":"Pending","travel_history":"Pending","confirmed_presumptive":"CONFIRMED","source":"https:\/\/manitoba.ca\/covid19\/","date":"2021-02-03 11:36:13","hr_uid":null},{"id":797296,"province":"MB","city":"Pending","age":"Pending","travel_history":"Pending","confirmed_presumptive":"CONFIRMED","source":"https:\/\/manitoba.ca\/covid19\/","date":"2021-02-03 11:36:13","hr_uid":null}],"first_page_url":"https:\/\/api.covid19tracker.ca\/cases?page=1","from":1,"last_page":299,"last_page_url":"https:\/\/api.covid19tracker.ca\/cases?page=299","links":[{"url":null,"label":"&laquo; Previous","active":false},{"url":"https:\/\/api.covid19tracker.ca\/cases?page=1","label":"1","active":true},{"url":"https:\/\/api.covid19tracker.ca\/cases?page=2","label":"2","active":false},{"url":"https:\/\/api.covid19tracker.ca\/cases?page=3","label":"3","active":false},{"url":"https:\/\/api.covid19tracker.ca\/cases?page=4","label":"4","active":false},{"url":"https:\/\/api.covid19tracker.ca\/cases?page=5","label":"5","active":false},{"url":"https:\/\/api.covid19tracker.ca\/cases?page=6","label":"6","active":false},{"url":"https:\/\/api.covid19tracker.ca\/cases?page=7","label":"7","active":false},{"url":"https:\/\/api.covid19tracker.ca\/cases?page=8","label":"8","active":false},{"url":"https:\/\/api.covid19tracker.ca\/cases?page=9","label":"9","active":false},{"url":"https:\/\/api.covid19tracker.ca\/cases?page=10","label":"10","active":false},{"url":null,"label":"...","active":false},{"url":"https:\/\/api.covid19tracker.ca\/cases?page=298","label":"298","active":false},{"url":"https:\/\/api.covid19tracker.ca\/cases?page=299","label":"299","active":false},{"url":"https:\/\/api.covid19tracker.ca\/cases?page=2","label":"Next &raquo;","active":false}],"next_page_url":"https:\/\/api.covid19tracker.ca\/cases?page=2","path":"https:\/\/api.covid19tracker.ca\/cases","per_page":100,"prev_page_url":null,"to":100,"total":29859}