{"current_page":1,"data":[{"id":797267,"province":"NB","city":"Pending","age":"Pending","travel_history":"Pending","confirmed_presumptive":"CONFIRMED","source":"https:\/\/experience.arcgis.com\/experience\/8eeb9a2052d641c996dba5de8f25a8aa","date":"2021-02-03 10:14:29","hr_uid":null},{"id":797266,"province":"NB","city":"Pending","age":"Pending","travel_history":"Pending","confirmed_presumptive":"CONFIRMED","source":"https:\/\/experience.arcgis.com\/experience\/8eeb9a2052d641c996dba5de8f25a8aa","date":"2021-02-03 10:14:29","hr_uid":null},{"id":797265,"province":"NB","city":"Pending","age":"Pending","travel_history":"Pending","confirmed_presumptive":"CONFIRMED","source":"https:\/\/experience.arcgis.com\/experience\/8eeb9a2052d641c996dba5de8f25a8aa","date":"2021-02-03 10:14:29","hr_uid":null},{"id":797264,"province":"NB","city":"Pending","age":"Pending","travel_history":"Pending","confirmed_presumptive":"CONFIRMED","source":"https:\/\/experience.arcgis.com\/experience\/8eeb9a2052d641c996dba5de8f25a8aa","date":"2021-02-03 10:14:29","hr_uid":null},{"id":797263,"province":"NB","city":"Pending","age":"Pending","travel_history":"Pending","confirmed_presumptive":"CONFIRMED","source":"https:\/\/experience.arcgis.com\/experience\/8eeb9a2052d641c996dba5de8f25a8aa","date":"2021-02-03 10:14:29","hr_uid":null},{"id":797262,"province":"NB","city":"Pending","age":"Pending","travel_history":"Pending","confirmed_presumptive":"CONFIRMED","source":"https:\/\/experience.arcgis.com\/experience\/8eeb9a2052d641c996dba5de8f25a8aa","date":"2021-02-03 10:14:29","hr_uid":null},{"id":797261,"province":"NB","city":"Pending","age":"Pending","travel_history":"Pending","confirmed_presumptive":"CONFIRMED","source":"https:\/\/experience.arcgis.com\/experience\/8eeb9a2052d641c996dba5de8f25a8aa","date":"2021-02-03 10:14:29","hr_uid":null},{"id":797260,"province":"NB","city":"Pending","age":"Pending","travel_history":"Pending","confirmed_presumptive":"CONFIRMED","source":"https:\/\/experience.arcgis.com\/experience\/8eeb9a2052d641c996dba5de8f25a8aa","date":"2021-02-03 10:14:29","hr_uid":null},{"id":797259,"province":"NB","city":"Pending","age":"Pending","travel_history":"Pending","confirmed_presumptive":"CONFIRMED","source":"https:\/\/experience.arcgis.com\/experience\/8eeb9a2052d641c996dba5de8f25a8aa","date":"2021-02-03 10:14:29","hr_uid":null},{"id":797258,"province":"NB","city":"Pending","age":"Pending","travel_history":"Pending","confirmed_presumptive":"CONFIRMED","source":"https:\/\/experience.arcgis.com\/experience\/8eeb9a2052d641c996dba5de8f25a8aa","date":"2021-02-03 10:14:29","hr_uid":null},{"id":797257,"province":"NB","city":"Pending","age":"Pending","travel_history":"Pending","confirmed_presumptive":"CONFIRMED","source":"https:\/\/experience.arcgis.com\/experience\/8eeb9a2052d641c996dba5de8f25a8aa","date":"2021-02-03 10:14:29","hr_uid":null},{"id":797256,"province":"NB","city":"Pending","age":"Pending","travel_history":"Pending","confirmed_presumptive":"CONFIRMED","source":"https:\/\/experience.arcgis.com\/experience\/8eeb9a2052d641c996dba5de8f25a8aa","date":"2021-02-03 10:14:29","hr_uid":null},{"id":797255,"province":"NB","city":"Pending","age":"Pending","travel_history":"Pending","confirmed_presumptive":"CONFIRMED","source":"https:\/\/experience.arcgis.com\/experience\/8eeb9a2052d641c996dba5de8f25a8aa","date":"2021-02-03 10:14:29","hr_uid":null},{"id":797254,"province":"NB","city":"Pending","age":"Pending","travel_history":"Pending","confirmed_presumptive":"CONFIRMED","source":"https:\/\/experience.arcgis.com\/experience\/8eeb9a2052d641c996dba5de8f25a8aa","date":"2021-02-03 10:14:29","hr_uid":null},{"id":794763,"province":"NB","city":"Pending","age":"Pending","travel_history":"Pending","confirmed_presumptive":"CONFIRMED","source":"https:\/\/experience.arcgis.com\/experience\/8eeb9a2052d641c996dba5de8f25a8aa","date":"2021-02-02 12:24:22","hr_uid":null},{"id":794762,"province":"NB","city":"Pending","age":"Pending","travel_history":"Pending","confirmed_presumptive":"CONFIRMED","source":"https:\/\/experience.arcgis.com\/experience\/8eeb9a2052d641c996dba5de8f25a8aa","date":"2021-02-02 12:24:22","hr_uid":null},{"id":794761,"province":"NB","city":"Pending","age":"Pending","travel_history":"Pending","confirmed_presumptive":"CONFIRMED","source":"https:\/\/experience.arcgis.com\/experience\/8eeb9a2052d641c996dba5de8f25a8aa","date":"2021-02-02 12:24:22","hr_uid":null},{"id":794760,"province":"NB","city":"Pending","age":"Pending","travel_history":"Pending","confirmed_presumptive":"CONFIRMED","source":"https:\/\/experience.arcgis.com\/experience\/8eeb9a2052d641c996dba5de8f25a8aa","date":"2021-02-02 12:24:22","hr_uid":null},{"id":794759,"province":"NB","city":"Pending","age":"Pending","travel_history":"Pending","confirmed_presumptive":"CONFIRMED","source":"https:\/\/experience.arcgis.com\/experience\/8eeb9a2052d641c996dba5de8f25a8aa","date":"2021-02-02 12:24:22","hr_uid":null},{"id":794758,"province":"NB","city":"Pending","age":"Pending","travel_history":"Pending","confirmed_presumptive":"CONFIRMED","source":"https:\/\/experience.arcgis.com\/experience\/8eeb9a2052d641c996dba5de8f25a8aa","date":"2021-02-02 12:24:22","hr_uid":null},{"id":794757,"province":"NB","city":"Pending","age":"Pending","travel_history":"Pending","confirmed_presumptive":"CONFIRMED","source":"https:\/\/experience.arcgis.com\/experience\/8eeb9a2052d641c996dba5de8f25a8aa","date":"2021-02-02 12:24:22","hr_uid":null},{"id":794756,"province":"NB","city":"Pending","age":"Pending","travel_history":"Pending","confirmed_presumptive":"CONFIRMED","source":"https:\/\/experience.arcgis.com\/experience\/8eeb9a2052d641c996dba5de8f25a8aa","date":"2021-02-02 12:24:22","hr_uid":null},{"id":794755,"province":"NB","city":"Pending","age":"Pending","travel_history":"Pending","confirmed_presumptive":"CONFIRMED","source":"https:\/\/experience.arcgis.com\/experience\/8eeb9a2052d641c996dba5de8f25a8aa","date":"2021-02-02 12:24:22","hr_uid":null},{"id":794754,"province":"NB","city":"Pending","age":"Pending","travel_history":"Pending","confirmed_presumptive":"CONFIRMED","source":"https:\/\/experience.arcgis.com\/experience\/8eeb9a2052d641c996dba5de8f25a8aa","date":"2021-02-02 12:24:22","hr_uid":null},{"id":794753,"province":"NB","city":"Pending","age":"Pending","travel_history":"Pending","confirmed_presumptive":"CONFIRMED","source":"https:\/\/experience.arcgis.com\/experience\/8eeb9a2052d641c996dba5de8f25a8aa","date":"2021-02-02 12:24:22","hr_uid":null},{"id":794752,"province":"NB","city":"Pending","age":"Pending","travel_history":"Pending","confirmed_presumptive":"CONFIRMED","source":"https:\/\/experience.arcgis.com\/experience\/8eeb9a2052d641c996dba5de8f25a8aa","date":"2021-02-02 12:24:22","hr_uid":null},{"id":794751,"province":"NB","city":"Pending","age":"Pending","travel_history":"Pending","confirmed_presumptive":"CONFIRMED","source":"https:\/\/experience.arcgis.com\/experience\/8eeb9a2052d641c996dba5de8f25a8aa","date":"2021-02-02 12:24:22","hr_uid":null},{"id":794750,"province":"NB","city":"Pending","age":"Pending","travel_history":"Pending","confirmed_presumptive":"CONFIRMED","source":"https:\/\/experience.arcgis.com\/experience\/8eeb9a2052d641c996dba5de8f25a8aa","date":"2021-02-02 12:24:22","hr_uid":null},{"id":794749,"province":"NB","city":"Pending","age":"Pending","travel_history":"Pending","confirmed_presumptive":"CONFIRMED","source":"https:\/\/experience.arcgis.com\/experience\/8eeb9a2052d641c996dba5de8f25a8aa","date":"2021-02-02 12:24:22","hr_uid":null},{"id":794748,"province":"NB","city":"Pending","age":"Pending","travel_history":"Pending","confirmed_presumptive":"CONFIRMED","source":"https:\/\/experience.arcgis.com\/experience\/8eeb9a2052d641c996dba5de8f25a8aa","date":"2021-02-02 12:24:22","hr_uid":null},{"id":794747,"province":"NB","city":"Pending","age":"Pending","travel_history":"Pending","confirmed_presumptive":"CONFIRMED","source":"https:\/\/experience.arcgis.com\/experience\/8eeb9a2052d641c996dba5de8f25a8aa","date":"2021-02-02 12:24:22","hr_uid":null},{"id":794746,"province":"NB","city":"Pending","age":"Pending","travel_history":"Pending","confirmed_presumptive":"CONFIRMED","source":"https:\/\/experience.arcgis.com\/experience\/8eeb9a2052d641c996dba5de8f25a8aa","date":"2021-02-02 12:24:22","hr_uid":null},{"id":794745,"province":"NB","city":"Pending","age":"Pending","travel_history":"Pending","confirmed_presumptive":"CONFIRMED","source":"https:\/\/experience.arcgis.com\/experience\/8eeb9a2052d641c996dba5de8f25a8aa","date":"2021-02-02 12:24:22","hr_uid":null},{"id":794744,"province":"NB","city":"Pending","age":"Pending","travel_history":"Pending","confirmed_presumptive":"CONFIRMED","source":"https:\/\/experience.arcgis.com\/experience\/8eeb9a2052d641c996dba5de8f25a8aa","date":"2021-02-02 12:24:22","hr_uid":null},{"id":794743,"province":"NB","city":"Pending","age":"Pending","travel_history":"Pending","confirmed_presumptive":"CONFIRMED","source":"https:\/\/experience.arcgis.com\/experience\/8eeb9a2052d641c996dba5de8f25a8aa","date":"2021-02-02 12:24:22","hr_uid":null},{"id":794742,"province":"NB","city":"Pending","age":"Pending","travel_history":"Pending","confirmed_presumptive":"CONFIRMED","source":"https:\/\/experience.arcgis.com\/experience\/8eeb9a2052d641c996dba5de8f25a8aa","date":"2021-02-02 12:24:22","hr_uid":null},{"id":794741,"province":"NB","city":"Pending","age":"Pending","travel_history":"Pending","confirmed_presumptive":"CONFIRMED","source":"https:\/\/experience.arcgis.com\/experience\/8eeb9a2052d641c996dba5de8f25a8aa","date":"2021-02-02 12:24:22","hr_uid":null},{"id":794740,"province":"NB","city":"Pending","age":"Pending","travel_history":"Pending","confirmed_presumptive":"CONFIRMED","source":"https:\/\/experience.arcgis.com\/experience\/8eeb9a2052d641c996dba5de8f25a8aa","date":"2021-02-02 12:24:22","hr_uid":null},{"id":794739,"province":"NB","city":"Pending","age":"Pending","travel_history":"Pending","confirmed_presumptive":"CONFIRMED","source":"https:\/\/experience.arcgis.com\/experience\/8eeb9a2052d641c996dba5de8f25a8aa","date":"2021-02-02 12:24:22","hr_uid":null},{"id":789634,"province":"NB","city":"Pending","age":"Pending","travel_history":"Pending","confirmed_presumptive":"CONFIRMED","source":"https:\/\/experience.arcgis.com\/experience\/8eeb9a2052d641c996dba5de8f25a8aa","date":"2021-02-01 10:44:49","hr_uid":null},{"id":789633,"province":"NB","city":"Pending","age":"Pending","travel_history":"Pending","confirmed_presumptive":"CONFIRMED","source":"https:\/\/experience.arcgis.com\/experience\/8eeb9a2052d641c996dba5de8f25a8aa","date":"2021-02-01 10:44:49","hr_uid":null},{"id":789632,"province":"NB","city":"Pending","age":"Pending","travel_history":"Pending","confirmed_presumptive":"CONFIRMED","source":"https:\/\/experience.arcgis.com\/experience\/8eeb9a2052d641c996dba5de8f25a8aa","date":"2021-02-01 10:44:49","hr_uid":null},{"id":789631,"province":"NB","city":"Pending","age":"Pending","travel_history":"Pending","confirmed_presumptive":"CONFIRMED","source":"https:\/\/experience.arcgis.com\/experience\/8eeb9a2052d641c996dba5de8f25a8aa","date":"2021-02-01 10:44:49","hr_uid":null},{"id":789630,"province":"NB","city":"Pending","age":"Pending","travel_history":"Pending","confirmed_presumptive":"CONFIRMED","source":"https:\/\/experience.arcgis.com\/experience\/8eeb9a2052d641c996dba5de8f25a8aa","date":"2021-02-01 10:44:49","hr_uid":null},{"id":789629,"province":"NB","city":"Pending","age":"Pending","travel_history":"Pending","confirmed_presumptive":"CONFIRMED","source":"https:\/\/experience.arcgis.com\/experience\/8eeb9a2052d641c996dba5de8f25a8aa","date":"2021-02-01 10:44:49","hr_uid":null},{"id":789628,"province":"NB","city":"Pending","age":"Pending","travel_history":"Pending","confirmed_presumptive":"CONFIRMED","source":"https:\/\/experience.arcgis.com\/experience\/8eeb9a2052d641c996dba5de8f25a8aa","date":"2021-02-01 10:44:49","hr_uid":null},{"id":789627,"province":"NB","city":"Pending","age":"Pending","travel_history":"Pending","confirmed_presumptive":"CONFIRMED","source":"https:\/\/experience.arcgis.com\/experience\/8eeb9a2052d641c996dba5de8f25a8aa","date":"2021-02-01 10:44:49","hr_uid":null},{"id":786027,"province":"NB","city":"Pending","age":"Pending","travel_history":"Pending","confirmed_presumptive":"CONFIRMED","source":"https:\/\/experience.arcgis.com\/experience\/8eeb9a2052d641c996dba5de8f25a8aa","date":"2021-01-31 10:59:05","hr_uid":null},{"id":786026,"province":"NB","city":"Pending","age":"Pending","travel_history":"Pending","confirmed_presumptive":"CONFIRMED","source":"https:\/\/experience.arcgis.com\/experience\/8eeb9a2052d641c996dba5de8f25a8aa","date":"2021-01-31 10:59:05","hr_uid":null},{"id":786025,"province":"NB","city":"Pending","age":"Pending","travel_history":"Pending","confirmed_presumptive":"CONFIRMED","source":"https:\/\/experience.arcgis.com\/experience\/8eeb9a2052d641c996dba5de8f25a8aa","date":"2021-01-31 10:59:05","hr_uid":null},{"id":786024,"province":"NB","city":"Pending","age":"Pending","travel_history":"Pending","confirmed_presumptive":"CONFIRMED","source":"https:\/\/experience.arcgis.com\/experience\/8eeb9a2052d641c996dba5de8f25a8aa","date":"2021-01-31 10:59:05","hr_uid":null},{"id":786023,"province":"NB","city":"Pending","age":"Pending","travel_history":"Pending","confirmed_presumptive":"CONFIRMED","source":"https:\/\/experience.arcgis.com\/experience\/8eeb9a2052d641c996dba5de8f25a8aa","date":"2021-01-31 10:59:05","hr_uid":null},{"id":786022,"province":"NB","city":"Pending","age":"Pending","travel_history":"Pending","confirmed_presumptive":"CONFIRMED","source":"https:\/\/experience.arcgis.com\/experience\/8eeb9a2052d641c996dba5de8f25a8aa","date":"2021-01-31 10:59:05","hr_uid":null},{"id":786021,"province":"NB","city":"Pending","age":"Pending","travel_history":"Pending","confirmed_presumptive":"CONFIRMED","source":"https:\/\/experience.arcgis.com\/experience\/8eeb9a2052d641c996dba5de8f25a8aa","date":"2021-01-31 10:59:05","hr_uid":null},{"id":786020,"province":"NB","city":"Pending","age":"Pending","travel_history":"Pending","confirmed_presumptive":"CONFIRMED","source":"https:\/\/experience.arcgis.com\/experience\/8eeb9a2052d641c996dba5de8f25a8aa","date":"2021-01-31 10:59:05","hr_uid":null},{"id":786019,"province":"NB","city":"Pending","age":"Pending","travel_history":"Pending","confirmed_presumptive":"CONFIRMED","source":"https:\/\/experience.arcgis.com\/experience\/8eeb9a2052d641c996dba5de8f25a8aa","date":"2021-01-31 10:59:05","hr_uid":null},{"id":786018,"province":"NB","city":"Pending","age":"Pending","travel_history":"Pending","confirmed_presumptive":"CONFIRMED","source":"https:\/\/experience.arcgis.com\/experience\/8eeb9a2052d641c996dba5de8f25a8aa","date":"2021-01-31 10:59:05","hr_uid":null},{"id":786017,"province":"NB","city":"Pending","age":"Pending","travel_history":"Pending","confirmed_presumptive":"CONFIRMED","source":"https:\/\/experience.arcgis.com\/experience\/8eeb9a2052d641c996dba5de8f25a8aa","date":"2021-01-31 10:59:05","hr_uid":null},{"id":786016,"province":"NB","city":"Pending","age":"Pending","travel_history":"Pending","confirmed_presumptive":"CONFIRMED","source":"https:\/\/experience.arcgis.com\/experience\/8eeb9a2052d641c996dba5de8f25a8aa","date":"2021-01-31 10:59:05","hr_uid":null},{"id":786015,"province":"NB","city":"Pending","age":"Pending","travel_history":"Pending","confirmed_presumptive":"CONFIRMED","source":"https:\/\/experience.arcgis.com\/experience\/8eeb9a2052d641c996dba5de8f25a8aa","date":"2021-01-31 10:59:05","hr_uid":null},{"id":786014,"province":"NB","city":"Pending","age":"Pending","travel_history":"Pending","confirmed_presumptive":"CONFIRMED","source":"https:\/\/experience.arcgis.com\/experience\/8eeb9a2052d641c996dba5de8f25a8aa","date":"2021-01-31 10:59:05","hr_uid":null},{"id":786013,"province":"NB","city":"Pending","age":"Pending","travel_history":"Pending","confirmed_presumptive":"CONFIRMED","source":"https:\/\/experience.arcgis.com\/experience\/8eeb9a2052d641c996dba5de8f25a8aa","date":"2021-01-31 10:59:05","hr_uid":null},{"id":786012,"province":"NB","city":"Pending","age":"Pending","travel_history":"Pending","confirmed_presumptive":"CONFIRMED","source":"https:\/\/experience.arcgis.com\/experience\/8eeb9a2052d641c996dba5de8f25a8aa","date":"2021-01-31 10:59:05","hr_uid":null},{"id":786011,"province":"NB","city":"Pending","age":"Pending","travel_history":"Pending","confirmed_presumptive":"CONFIRMED","source":"https:\/\/experience.arcgis.com\/experience\/8eeb9a2052d641c996dba5de8f25a8aa","date":"2021-01-31 10:59:05","hr_uid":null},{"id":786010,"province":"NB","city":"Pending","age":"Pending","travel_history":"Pending","confirmed_presumptive":"CONFIRMED","source":"https:\/\/experience.arcgis.com\/experience\/8eeb9a2052d641c996dba5de8f25a8aa","date":"2021-01-31 10:59:05","hr_uid":null},{"id":786009,"province":"NB","city":"Pending","age":"Pending","travel_history":"Pending","confirmed_presumptive":"CONFIRMED","source":"https:\/\/experience.arcgis.com\/experience\/8eeb9a2052d641c996dba5de8f25a8aa","date":"2021-01-31 10:59:05","hr_uid":null},{"id":786008,"province":"NB","city":"Pending","age":"Pending","travel_history":"Pending","confirmed_presumptive":"CONFIRMED","source":"https:\/\/experience.arcgis.com\/experience\/8eeb9a2052d641c996dba5de8f25a8aa","date":"2021-01-31 10:59:05","hr_uid":null},{"id":786007,"province":"NB","city":"Pending","age":"Pending","travel_history":"Pending","confirmed_presumptive":"CONFIRMED","source":"https:\/\/experience.arcgis.com\/experience\/8eeb9a2052d641c996dba5de8f25a8aa","date":"2021-01-31 10:59:05","hr_uid":null},{"id":786006,"province":"NB","city":"Pending","age":"Pending","travel_history":"Pending","confirmed_presumptive":"CONFIRMED","source":"https:\/\/experience.arcgis.com\/experience\/8eeb9a2052d641c996dba5de8f25a8aa","date":"2021-01-31 10:59:05","hr_uid":null},{"id":786005,"province":"NB","city":"Pending","age":"Pending","travel_history":"Pending","confirmed_presumptive":"CONFIRMED","source":"https:\/\/experience.arcgis.com\/experience\/8eeb9a2052d641c996dba5de8f25a8aa","date":"2021-01-31 10:59:05","hr_uid":null},{"id":786004,"province":"NB","city":"Pending","age":"Pending","travel_history":"Pending","confirmed_presumptive":"CONFIRMED","source":"https:\/\/experience.arcgis.com\/experience\/8eeb9a2052d641c996dba5de8f25a8aa","date":"2021-01-31 10:59:05","hr_uid":null},{"id":786003,"province":"NB","city":"Pending","age":"Pending","travel_history":"Pending","confirmed_presumptive":"CONFIRMED","source":"https:\/\/experience.arcgis.com\/experience\/8eeb9a2052d641c996dba5de8f25a8aa","date":"2021-01-31 10:59:05","hr_uid":null},{"id":786002,"province":"NB","city":"Pending","age":"Pending","travel_history":"Pending","confirmed_presumptive":"CONFIRMED","source":"https:\/\/experience.arcgis.com\/experience\/8eeb9a2052d641c996dba5de8f25a8aa","date":"2021-01-31 10:59:05","hr_uid":null},{"id":782676,"province":"NB","city":"Pending","age":"Pending","travel_history":"Pending","confirmed_presumptive":"CONFIRMED","source":"https:\/\/experience.arcgis.com\/experience\/8eeb9a2052d641c996dba5de8f25a8aa","date":"2021-01-30 14:48:56","hr_uid":null},{"id":782675,"province":"NB","city":"Pending","age":"Pending","travel_history":"Pending","confirmed_presumptive":"CONFIRMED","source":"https:\/\/experience.arcgis.com\/experience\/8eeb9a2052d641c996dba5de8f25a8aa","date":"2021-01-30 14:48:56","hr_uid":null},{"id":782674,"province":"NB","city":"Pending","age":"Pending","travel_history":"Pending","confirmed_presumptive":"CONFIRMED","source":"https:\/\/experience.arcgis.com\/experience\/8eeb9a2052d641c996dba5de8f25a8aa","date":"2021-01-30 14:48:56","hr_uid":null},{"id":782673,"province":"NB","city":"Pending","age":"Pending","travel_history":"Pending","confirmed_presumptive":"CONFIRMED","source":"https:\/\/experience.arcgis.com\/experience\/8eeb9a2052d641c996dba5de8f25a8aa","date":"2021-01-30 14:48:56","hr_uid":null},{"id":782672,"province":"NB","city":"Pending","age":"Pending","travel_history":"Pending","confirmed_presumptive":"CONFIRMED","source":"https:\/\/experience.arcgis.com\/experience\/8eeb9a2052d641c996dba5de8f25a8aa","date":"2021-01-30 14:48:56","hr_uid":null},{"id":782671,"province":"NB","city":"Pending","age":"Pending","travel_history":"Pending","confirmed_presumptive":"CONFIRMED","source":"https:\/\/experience.arcgis.com\/experience\/8eeb9a2052d641c996dba5de8f25a8aa","date":"2021-01-30 14:48:56","hr_uid":null},{"id":782670,"province":"NB","city":"Pending","age":"Pending","travel_history":"Pending","confirmed_presumptive":"CONFIRMED","source":"https:\/\/experience.arcgis.com\/experience\/8eeb9a2052d641c996dba5de8f25a8aa","date":"2021-01-30 14:48:56","hr_uid":null},{"id":782669,"province":"NB","city":"Pending","age":"Pending","travel_history":"Pending","confirmed_presumptive":"CONFIRMED","source":"https:\/\/experience.arcgis.com\/experience\/8eeb9a2052d641c996dba5de8f25a8aa","date":"2021-01-30 14:48:56","hr_uid":null},{"id":782668,"province":"NB","city":"Pending","age":"Pending","travel_history":"Pending","confirmed_presumptive":"CONFIRMED","source":"https:\/\/experience.arcgis.com\/experience\/8eeb9a2052d641c996dba5de8f25a8aa","date":"2021-01-30 14:48:56","hr_uid":null},{"id":782667,"province":"NB","city":"Pending","age":"Pending","travel_history":"Pending","confirmed_presumptive":"CONFIRMED","source":"https:\/\/experience.arcgis.com\/experience\/8eeb9a2052d641c996dba5de8f25a8aa","date":"2021-01-30 14:48:56","hr_uid":null},{"id":782666,"province":"NB","city":"Pending","age":"Pending","travel_history":"Pending","confirmed_presumptive":"CONFIRMED","source":"https:\/\/experience.arcgis.com\/experience\/8eeb9a2052d641c996dba5de8f25a8aa","date":"2021-01-30 14:48:56","hr_uid":null},{"id":782665,"province":"NB","city":"Pending","age":"Pending","travel_history":"Pending","confirmed_presumptive":"CONFIRMED","source":"https:\/\/experience.arcgis.com\/experience\/8eeb9a2052d641c996dba5de8f25a8aa","date":"2021-01-30 14:48:56","hr_uid":null},{"id":777178,"province":"NB","city":"Pending","age":"Pending","travel_history":"Pending","confirmed_presumptive":"CONFIRMED","source":"https:\/\/experience.arcgis.com\/experience\/8eeb9a2052d641c996dba5de8f25a8aa","date":"2021-01-29 11:30:01","hr_uid":null},{"id":777177,"province":"NB","city":"Pending","age":"Pending","travel_history":"Pending","confirmed_presumptive":"CONFIRMED","source":"https:\/\/experience.arcgis.com\/experience\/8eeb9a2052d641c996dba5de8f25a8aa","date":"2021-01-29 11:30:01","hr_uid":null},{"id":777176,"province":"NB","city":"Pending","age":"Pending","travel_history":"Pending","confirmed_presumptive":"CONFIRMED","source":"https:\/\/experience.arcgis.com\/experience\/8eeb9a2052d641c996dba5de8f25a8aa","date":"2021-01-29 11:30:01","hr_uid":null},{"id":777175,"province":"NB","city":"Pending","age":"Pending","travel_history":"Pending","confirmed_presumptive":"CONFIRMED","source":"https:\/\/experience.arcgis.com\/experience\/8eeb9a2052d641c996dba5de8f25a8aa","date":"2021-01-29 11:30:01","hr_uid":null},{"id":777174,"province":"NB","city":"Pending","age":"Pending","travel_history":"Pending","confirmed_presumptive":"CONFIRMED","source":"https:\/\/experience.arcgis.com\/experience\/8eeb9a2052d641c996dba5de8f25a8aa","date":"2021-01-29 11:30:01","hr_uid":null},{"id":777173,"province":"NB","city":"Pending","age":"Pending","travel_history":"Pending","confirmed_presumptive":"CONFIRMED","source":"https:\/\/experience.arcgis.com\/experience\/8eeb9a2052d641c996dba5de8f25a8aa","date":"2021-01-29 11:30:01","hr_uid":null},{"id":777172,"province":"NB","city":"Pending","age":"Pending","travel_history":"Pending","confirmed_presumptive":"CONFIRMED","source":"https:\/\/experience.arcgis.com\/experience\/8eeb9a2052d641c996dba5de8f25a8aa","date":"2021-01-29 11:30:01","hr_uid":null},{"id":777171,"province":"NB","city":"Pending","age":"Pending","travel_history":"Pending","confirmed_presumptive":"CONFIRMED","source":"https:\/\/experience.arcgis.com\/experience\/8eeb9a2052d641c996dba5de8f25a8aa","date":"2021-01-29 11:30:01","hr_uid":null},{"id":777170,"province":"NB","city":"Pending","age":"Pending","travel_history":"Pending","confirmed_presumptive":"CONFIRMED","source":"https:\/\/experience.arcgis.com\/experience\/8eeb9a2052d641c996dba5de8f25a8aa","date":"2021-01-29 11:30:01","hr_uid":null},{"id":777169,"province":"NB","city":"Pending","age":"Pending","travel_history":"Pending","confirmed_presumptive":"CONFIRMED","source":"https:\/\/experience.arcgis.com\/experience\/8eeb9a2052d641c996dba5de8f25a8aa","date":"2021-01-29 11:30:01","hr_uid":null},{"id":777168,"province":"NB","city":"Pending","age":"Pending","travel_history":"Pending","confirmed_presumptive":"CONFIRMED","source":"https:\/\/experience.arcgis.com\/experience\/8eeb9a2052d641c996dba5de8f25a8aa","date":"2021-01-29 11:30:01","hr_uid":null},{"id":777167,"province":"NB","city":"Pending","age":"Pending","travel_history":"Pending","confirmed_presumptive":"CONFIRMED","source":"https:\/\/experience.arcgis.com\/experience\/8eeb9a2052d641c996dba5de8f25a8aa","date":"2021-01-29 11:30:01","hr_uid":null},{"id":777166,"province":"NB","city":"Pending","age":"Pending","travel_history":"Pending","confirmed_presumptive":"CONFIRMED","source":"https:\/\/experience.arcgis.com\/experience\/8eeb9a2052d641c996dba5de8f25a8aa","date":"2021-01-29 11:30:01","hr_uid":null},{"id":777165,"province":"NB","city":"Pending","age":"Pending","travel_history":"Pending","confirmed_presumptive":"CONFIRMED","source":"https:\/\/experience.arcgis.com\/experience\/8eeb9a2052d641c996dba5de8f25a8aa","date":"2021-01-29 11:30:01","hr_uid":null},{"id":777164,"province":"NB","city":"Pending","age":"Pending","travel_history":"Pending","confirmed_presumptive":"CONFIRMED","source":"https:\/\/experience.arcgis.com\/experience\/8eeb9a2052d641c996dba5de8f25a8aa","date":"2021-01-29 11:30:01","hr_uid":null}],"first_page_url":"https:\/\/api.covid19tracker.ca\/cases?page=1","from":1,"last_page":14,"last_page_url":"https:\/\/api.covid19tracker.ca\/cases?page=14","links":[{"url":null,"label":"&laquo; Previous","active":false},{"url":"https:\/\/api.covid19tracker.ca\/cases?page=1","label":1,"active":true},{"url":"https:\/\/api.covid19tracker.ca\/cases?page=2","label":2,"active":false},{"url":"https:\/\/api.covid19tracker.ca\/cases?page=3","label":3,"active":false},{"url":"https:\/\/api.covid19tracker.ca\/cases?page=4","label":4,"active":false},{"url":"https:\/\/api.covid19tracker.ca\/cases?page=5","label":5,"active":false},{"url":"https:\/\/api.covid19tracker.ca\/cases?page=6","label":6,"active":false},{"url":"https:\/\/api.covid19tracker.ca\/cases?page=7","label":7,"active":false},{"url":"https:\/\/api.covid19tracker.ca\/cases?page=8","label":8,"active":false},{"url":"https:\/\/api.covid19tracker.ca\/cases?page=9","label":9,"active":false},{"url":"https:\/\/api.covid19tracker.ca\/cases?page=10","label":10,"active":false},{"url":null,"label":"...","active":false},{"url":"https:\/\/api.covid19tracker.ca\/cases?page=13","label":13,"active":false},{"url":"https:\/\/api.covid19tracker.ca\/cases?page=14","label":14,"active":false},{"url":"https:\/\/api.covid19tracker.ca\/cases?page=2","label":"Next &raquo;","active":false}],"next_page_url":"https:\/\/api.covid19tracker.ca\/cases?page=2","path":"https:\/\/api.covid19tracker.ca\/cases","per_page":100,"prev_page_url":null,"to":100,"total":1303}