{"current_page":1,"data":[{"id":797269,"province":"NL","city":"Pending","age":"Pending","travel_history":"Pending","confirmed_presumptive":"CONFIRMED","source":"https:\/\/covid-19-newfoundland-and-labrador-gnl.hub.arcgis.com\/","date":"2021-02-03 10:54:37","hr_uid":null},{"id":797268,"province":"NL","city":"Pending","age":"Pending","travel_history":"Pending","confirmed_presumptive":"CONFIRMED","source":"https:\/\/covid-19-newfoundland-and-labrador-gnl.hub.arcgis.com\/","date":"2021-02-03 10:54:37","hr_uid":null},{"id":777162,"province":"NL","city":"Pending","age":"Pending","travel_history":"Pending","confirmed_presumptive":"CONFIRMED","source":"https:\/\/covid-19-newfoundland-and-labrador-gnl.hub.arcgis.com\/","date":"2021-01-29 10:34:20","hr_uid":null},{"id":777161,"province":"NL","city":"Pending","age":"Pending","travel_history":"Pending","confirmed_presumptive":"CONFIRMED","source":"https:\/\/covid-19-newfoundland-and-labrador-gnl.hub.arcgis.com\/","date":"2021-01-29 10:34:20","hr_uid":null},{"id":777160,"province":"NL","city":"Pending","age":"Pending","travel_history":"Pending","confirmed_presumptive":"CONFIRMED","source":"https:\/\/covid-19-newfoundland-and-labrador-gnl.hub.arcgis.com\/","date":"2021-01-29 10:34:20","hr_uid":null},{"id":777159,"province":"NL","city":"Pending","age":"Pending","travel_history":"Pending","confirmed_presumptive":"CONFIRMED","source":"https:\/\/covid-19-newfoundland-and-labrador-gnl.hub.arcgis.com\/","date":"2021-01-29 10:34:20","hr_uid":null},{"id":772994,"province":"NL","city":"Pending","age":"Pending","travel_history":"Pending","confirmed_presumptive":"CONFIRMED","source":"https:\/\/covid-19-newfoundland-and-labrador-gnl.hub.arcgis.com\/","date":"2021-01-28 15:55:45","hr_uid":null},{"id":772993,"province":"NL","city":"Pending","age":"Pending","travel_history":"Pending","confirmed_presumptive":"CONFIRMED","source":"https:\/\/covid-19-newfoundland-and-labrador-gnl.hub.arcgis.com\/","date":"2021-01-28 15:55:45","hr_uid":null},{"id":772992,"province":"NL","city":"Pending","age":"Pending","travel_history":"Pending","confirmed_presumptive":"CONFIRMED","source":"https:\/\/covid-19-newfoundland-and-labrador-gnl.hub.arcgis.com\/","date":"2021-01-28 15:55:45","hr_uid":null},{"id":772991,"province":"NL","city":"Pending","age":"Pending","travel_history":"Pending","confirmed_presumptive":"CONFIRMED","source":"https:\/\/covid-19-newfoundland-and-labrador-gnl.hub.arcgis.com\/","date":"2021-01-28 15:55:45","hr_uid":null},{"id":768104,"province":"NL","city":"Pending","age":"Pending","travel_history":"Pending","confirmed_presumptive":"CONFIRMED","source":"https:\/\/covid-19-newfoundland-and-labrador-gnl.hub.arcgis.com\/","date":"2021-01-27 11:03:22","hr_uid":null},{"id":768103,"province":"NL","city":"Pending","age":"Pending","travel_history":"Pending","confirmed_presumptive":"CONFIRMED","source":"https:\/\/covid-19-newfoundland-and-labrador-gnl.hub.arcgis.com\/","date":"2021-01-27 11:03:22","hr_uid":null},{"id":743277,"province":"NL","city":"Pending","age":"Pending","travel_history":"Pending","confirmed_presumptive":"CONFIRMED","source":"https:\/\/covid-19-newfoundland-and-labrador-gnl.hub.arcgis.com\/","date":"2021-01-22 10:57:17","hr_uid":null},{"id":737395,"province":"NL","city":"Pending","age":"Pending","travel_history":"Pending","confirmed_presumptive":"CONFIRMED","source":"https:\/\/covid-19-newfoundland-and-labrador-gnl.hub.arcgis.com\/","date":"2021-01-21 12:42:09","hr_uid":null},{"id":714835,"province":"NL","city":"Pending","age":"Pending","travel_history":"Pending","confirmed_presumptive":"CONFIRMED","source":"https:\/\/covid-19-newfoundland-and-labrador-gnl.hub.arcgis.com\/","date":"2021-01-17 16:44:50","hr_uid":null},{"id":700561,"province":"NL","city":"Pending","age":"Pending","travel_history":"Pending","confirmed_presumptive":"CONFIRMED","source":"https:\/\/www.youtube.com\/watch?v=aUSVO0BGw2Q","date":"2021-01-15 10:33:06","hr_uid":null},{"id":693296,"province":"NL","city":"Pending","age":"Pending","travel_history":"Pending","confirmed_presumptive":"CONFIRMED","source":"https:\/\/covid-19-newfoundland-and-labrador-gnl.hub.arcgis.com\/","date":"2021-01-14 11:02:56","hr_uid":null},{"id":664835,"province":"NL","city":"Pending","age":"Pending","travel_history":"Pending","confirmed_presumptive":"CONFIRMED","source":"https:\/\/covid-19-newfoundland-and-labrador-gnl.hub.arcgis.com\/","date":"2021-01-10 11:49:04","hr_uid":null},{"id":623199,"province":"NL","city":"Pending","age":"Pending","travel_history":"Pending","confirmed_presumptive":"CONFIRMED","source":"https:\/\/covid-19-newfoundland-and-labrador-gnl.hub.arcgis.com\/","date":"2021-01-05 10:52:23","hr_uid":null},{"id":613612,"province":"NL","city":"Central NL","age":"Pending","travel_history":"Pending","confirmed_presumptive":"CONFIRMED","source":"https:\/\/www.gov.nl.ca\/covid-19\/","date":"2021-01-04 10:44:55","hr_uid":null},{"id":567497,"province":"NL","city":"Pending","age":"Pending","travel_history":"Pending","confirmed_presumptive":"CONFIRMED","source":"https:\/\/covid-19-newfoundland-and-labrador-gnl.hub.arcgis.com\/","date":"2020-12-29 11:21:00","hr_uid":null},{"id":560204,"province":"NL","city":"Eastern NL","age":"Pending","travel_history":"Pending","confirmed_presumptive":"CONFIRMED","source":"https:\/\/www.gov.nl.ca\/releases\/2020\/health\/1228n01\/","date":"2020-12-28 11:42:11","hr_uid":null},{"id":560203,"province":"NL","city":"Eastern NL","age":"Pending","travel_history":"Pending","confirmed_presumptive":"CONFIRMED","source":"https:\/\/www.gov.nl.ca\/releases\/2020\/health\/1228n01\/","date":"2020-12-28 11:42:11","hr_uid":null},{"id":554837,"province":"NL","city":"Pending","age":"Pending","travel_history":"Pending","confirmed_presumptive":"CONFIRMED","source":"https:\/\/covid-19-newfoundland-and-labrador-gnl.hub.arcgis.com\/","date":"2020-12-27 12:55:45","hr_uid":null},{"id":554836,"province":"NL","city":"Pending","age":"Pending","travel_history":"Pending","confirmed_presumptive":"CONFIRMED","source":"https:\/\/covid-19-newfoundland-and-labrador-gnl.hub.arcgis.com\/","date":"2020-12-27 12:55:45","hr_uid":null},{"id":538908,"province":"NL","city":"Pending","age":"Pending","travel_history":"Pending","confirmed_presumptive":"CONFIRMED","source":"https:\/\/covid-19-newfoundland-and-labrador-gnl.hub.arcgis.com\/","date":"2020-12-23 10:09:32","hr_uid":null},{"id":523313,"province":"NL","city":"Pending","age":"Pending","travel_history":"Pending","confirmed_presumptive":"CONFIRMED","source":"https:\/\/covid-19-newfoundland-and-labrador-gnl.hub.arcgis.com\/","date":"2020-12-22 11:50:40","hr_uid":null},{"id":509693,"province":"NL","city":"Pending","age":"Pending","travel_history":"Pending","confirmed_presumptive":"CONFIRMED","source":"https:\/\/covid-19-newfoundland-and-labrador-gnl.hub.arcgis.com\/","date":"2020-12-20 11:36:34","hr_uid":null},{"id":509692,"province":"NL","city":"Pending","age":"Pending","travel_history":"Pending","confirmed_presumptive":"CONFIRMED","source":"https:\/\/covid-19-newfoundland-and-labrador-gnl.hub.arcgis.com\/","date":"2020-12-20 11:36:34","hr_uid":null},{"id":503239,"province":"NL","city":"Pending","age":"Pending","travel_history":"Pending","confirmed_presumptive":"CONFIRMED","source":"https:\/\/covid-19-newfoundland-and-labrador-gnl.hub.arcgis.com\/","date":"2020-12-19 11:37:59","hr_uid":null},{"id":503238,"province":"NL","city":"Pending","age":"Pending","travel_history":"Pending","confirmed_presumptive":"CONFIRMED","source":"https:\/\/covid-19-newfoundland-and-labrador-gnl.hub.arcgis.com\/","date":"2020-12-19 11:37:59","hr_uid":null},{"id":503237,"province":"NL","city":"Pending","age":"Pending","travel_history":"Pending","confirmed_presumptive":"CONFIRMED","source":"https:\/\/covid-19-newfoundland-and-labrador-gnl.hub.arcgis.com\/","date":"2020-12-19 11:37:59","hr_uid":null},{"id":503236,"province":"NL","city":"Pending","age":"Pending","travel_history":"Pending","confirmed_presumptive":"CONFIRMED","source":"https:\/\/covid-19-newfoundland-and-labrador-gnl.hub.arcgis.com\/","date":"2020-12-19 11:37:59","hr_uid":null},{"id":503235,"province":"NL","city":"Pending","age":"Pending","travel_history":"Pending","confirmed_presumptive":"CONFIRMED","source":"https:\/\/covid-19-newfoundland-and-labrador-gnl.hub.arcgis.com\/","date":"2020-12-19 11:37:59","hr_uid":null},{"id":503234,"province":"NL","city":"Pending","age":"Pending","travel_history":"Pending","confirmed_presumptive":"CONFIRMED","source":"https:\/\/covid-19-newfoundland-and-labrador-gnl.hub.arcgis.com\/","date":"2020-12-19 11:37:59","hr_uid":null},{"id":503233,"province":"NL","city":"Pending","age":"Pending","travel_history":"Pending","confirmed_presumptive":"CONFIRMED","source":"https:\/\/covid-19-newfoundland-and-labrador-gnl.hub.arcgis.com\/","date":"2020-12-19 11:37:59","hr_uid":null},{"id":503232,"province":"NL","city":"Pending","age":"Pending","travel_history":"Pending","confirmed_presumptive":"CONFIRMED","source":"https:\/\/covid-19-newfoundland-and-labrador-gnl.hub.arcgis.com\/","date":"2020-12-19 11:37:59","hr_uid":null},{"id":496030,"province":"NL","city":"Pending","age":"Pending","travel_history":"Pending","confirmed_presumptive":"CONFIRMED","source":"https:\/\/www.youtube.com\/watch?v=q_fx_9dOf1U","date":"2020-12-18 10:32:11","hr_uid":null},{"id":496029,"province":"NL","city":"Pending","age":"Pending","travel_history":"Pending","confirmed_presumptive":"CONFIRMED","source":"https:\/\/www.youtube.com\/watch?v=q_fx_9dOf1U","date":"2020-12-18 10:32:11","hr_uid":null},{"id":496028,"province":"NL","city":"Pending","age":"Pending","travel_history":"Pending","confirmed_presumptive":"CONFIRMED","source":"https:\/\/www.youtube.com\/watch?v=q_fx_9dOf1U","date":"2020-12-18 10:32:11","hr_uid":null},{"id":496027,"province":"NL","city":"Pending","age":"Pending","travel_history":"Pending","confirmed_presumptive":"CONFIRMED","source":"https:\/\/www.youtube.com\/watch?v=q_fx_9dOf1U","date":"2020-12-18 10:32:11","hr_uid":null},{"id":496026,"province":"NL","city":"Pending","age":"Pending","travel_history":"Pending","confirmed_presumptive":"CONFIRMED","source":"https:\/\/www.youtube.com\/watch?v=q_fx_9dOf1U","date":"2020-12-18 10:32:11","hr_uid":null},{"id":489079,"province":"NL","city":"Pending","age":"Pending","travel_history":"Pending","confirmed_presumptive":"CONFIRMED","source":"https:\/\/covid-19-newfoundland-and-labrador-gnl.hub.arcgis.com\/","date":"2020-12-17 11:13:12","hr_uid":null},{"id":489078,"province":"NL","city":"Pending","age":"Pending","travel_history":"Pending","confirmed_presumptive":"CONFIRMED","source":"https:\/\/covid-19-newfoundland-and-labrador-gnl.hub.arcgis.com\/","date":"2020-12-17 11:13:12","hr_uid":null},{"id":482856,"province":"NL","city":"Pending","age":"Pending","travel_history":"Pending","confirmed_presumptive":"CONFIRMED","source":"https:\/\/covid-19-newfoundland-and-labrador-gnl.hub.arcgis.com\/","date":"2020-12-16 11:42:57","hr_uid":null},{"id":482855,"province":"NL","city":"Pending","age":"Pending","travel_history":"Pending","confirmed_presumptive":"CONFIRMED","source":"https:\/\/covid-19-newfoundland-and-labrador-gnl.hub.arcgis.com\/","date":"2020-12-16 11:42:57","hr_uid":null},{"id":482854,"province":"NL","city":"Pending","age":"Pending","travel_history":"Pending","confirmed_presumptive":"CONFIRMED","source":"https:\/\/covid-19-newfoundland-and-labrador-gnl.hub.arcgis.com\/","date":"2020-12-16 11:42:57","hr_uid":null},{"id":482853,"province":"NL","city":"Pending","age":"Pending","travel_history":"Pending","confirmed_presumptive":"CONFIRMED","source":"https:\/\/covid-19-newfoundland-and-labrador-gnl.hub.arcgis.com\/","date":"2020-12-16 11:42:57","hr_uid":null},{"id":482852,"province":"NL","city":"Pending","age":"Pending","travel_history":"Pending","confirmed_presumptive":"CONFIRMED","source":"https:\/\/covid-19-newfoundland-and-labrador-gnl.hub.arcgis.com\/","date":"2020-12-16 11:42:57","hr_uid":null},{"id":476720,"province":"NL","city":"Pending","age":"Pending","travel_history":"Pending","confirmed_presumptive":"CONFIRMED","source":"https:\/\/covid-19-newfoundland-and-labrador-gnl.hub.arcgis.com\/","date":"2020-12-15 14:18:07","hr_uid":null},{"id":467537,"province":"NL","city":"Pending","age":"Pending","travel_history":"Pending","confirmed_presumptive":"CONFIRMED","source":"https:\/\/covid-19-newfoundland-and-labrador-gnl.hub.arcgis.com\/","date":"2020-12-14 09:38:00","hr_uid":null},{"id":456094,"province":"NL","city":"Pending","age":"Pending","travel_history":"Pending","confirmed_presumptive":"CONFIRMED","source":"https:\/\/covid-19-newfoundland-and-labrador-gnl.hub.arcgis.com\/","date":"2020-12-12 10:56:18","hr_uid":null},{"id":456093,"province":"NL","city":"Pending","age":"Pending","travel_history":"Pending","confirmed_presumptive":"CONFIRMED","source":"https:\/\/covid-19-newfoundland-and-labrador-gnl.hub.arcgis.com\/","date":"2020-12-12 10:56:18","hr_uid":null},{"id":449680,"province":"NL","city":"Pending","age":"Pending","travel_history":"Pending","confirmed_presumptive":"CONFIRMED","source":"https:\/\/covid-19-newfoundland-and-labrador-gnl.hub.arcgis.com\/","date":"2020-12-11 12:05:21","hr_uid":null},{"id":443250,"province":"NL","city":"Pending","age":"Pending","travel_history":"Pending","confirmed_presumptive":"CONFIRMED","source":"https:\/\/covid-19-newfoundland-and-labrador-gnl.hub.arcgis.com\/","date":"2020-12-10 12:44:55","hr_uid":null},{"id":436562,"province":"NL","city":"Pending","age":"Pending","travel_history":"Pending","confirmed_presumptive":"CONFIRMED","source":"https:\/\/covid-19-newfoundland-and-labrador-gnl.hub.arcgis.com\/","date":"2020-12-09 11:47:38","hr_uid":null},{"id":430040,"province":"NL","city":"Pending","age":"Pending","travel_history":"Pending","confirmed_presumptive":"CONFIRMED","source":"https:\/\/covid-19-newfoundland-and-labrador-gnl.hub.arcgis.com\/","date":"2020-12-08 12:41:58","hr_uid":null},{"id":415909,"province":"NL","city":"Pending","age":"Pending","travel_history":"Pending","confirmed_presumptive":"CONFIRMED","source":"https:\/\/covid-19-newfoundland-and-labrador-gnl.hub.arcgis.com\/","date":"2020-12-06 11:49:19","hr_uid":null},{"id":415908,"province":"NL","city":"Pending","age":"Pending","travel_history":"Pending","confirmed_presumptive":"CONFIRMED","source":"https:\/\/covid-19-newfoundland-and-labrador-gnl.hub.arcgis.com\/","date":"2020-12-06 11:49:19","hr_uid":null},{"id":415907,"province":"NL","city":"Pending","age":"Pending","travel_history":"Pending","confirmed_presumptive":"CONFIRMED","source":"https:\/\/covid-19-newfoundland-and-labrador-gnl.hub.arcgis.com\/","date":"2020-12-06 11:49:19","hr_uid":null},{"id":415906,"province":"NL","city":"Pending","age":"Pending","travel_history":"Pending","confirmed_presumptive":"CONFIRMED","source":"https:\/\/covid-19-newfoundland-and-labrador-gnl.hub.arcgis.com\/","date":"2020-12-06 11:49:19","hr_uid":null},{"id":409641,"province":"NL","city":"Pending","age":"Pending","travel_history":"Pending","confirmed_presumptive":"CONFIRMED","source":"https:\/\/covid-19-newfoundland-and-labrador-gnl.hub.arcgis.com\/","date":"2020-12-05 11:20:41","hr_uid":null},{"id":409640,"province":"NL","city":"Pending","age":"Pending","travel_history":"Pending","confirmed_presumptive":"CONFIRMED","source":"https:\/\/covid-19-newfoundland-and-labrador-gnl.hub.arcgis.com\/","date":"2020-12-05 11:20:41","hr_uid":null},{"id":409639,"province":"NL","city":"Pending","age":"Pending","travel_history":"Pending","confirmed_presumptive":"CONFIRMED","source":"https:\/\/covid-19-newfoundland-and-labrador-gnl.hub.arcgis.com\/","date":"2020-12-05 11:20:41","hr_uid":null},{"id":409638,"province":"NL","city":"Pending","age":"Pending","travel_history":"Pending","confirmed_presumptive":"CONFIRMED","source":"https:\/\/covid-19-newfoundland-and-labrador-gnl.hub.arcgis.com\/","date":"2020-12-05 11:20:41","hr_uid":null},{"id":403115,"province":"NL","city":"Pending","age":"Pending","travel_history":"Pending","confirmed_presumptive":"CONFIRMED","source":"https:\/\/covid-19-newfoundland-and-labrador-gnl.hub.arcgis.com\/","date":"2020-12-04 13:13:45","hr_uid":null},{"id":403114,"province":"NL","city":"Pending","age":"Pending","travel_history":"Pending","confirmed_presumptive":"CONFIRMED","source":"https:\/\/covid-19-newfoundland-and-labrador-gnl.hub.arcgis.com\/","date":"2020-12-04 13:13:45","hr_uid":null},{"id":403113,"province":"NL","city":"Pending","age":"Pending","travel_history":"Pending","confirmed_presumptive":"CONFIRMED","source":"https:\/\/covid-19-newfoundland-and-labrador-gnl.hub.arcgis.com\/","date":"2020-12-04 13:13:45","hr_uid":null},{"id":390057,"province":"NL","city":"Pending","age":"Pending","travel_history":"Pending","confirmed_presumptive":"CONFIRMED","source":"https:\/\/covid-19-newfoundland-and-labrador-gnl.hub.arcgis.com\/","date":"2020-12-02 11:12:38","hr_uid":null},{"id":384031,"province":"NL","city":"Pending","age":"Pending","travel_history":"Pending","confirmed_presumptive":"CONFIRMED","source":"https:\/\/covid-19-newfoundland-and-labrador-gnl.hub.arcgis.com\/","date":"2020-12-01 11:21:25","hr_uid":null},{"id":376256,"province":"NL","city":"Pending","age":"Pending","travel_history":"Pending","confirmed_presumptive":"CONFIRMED","source":"https:\/\/covid-19-newfoundland-and-labrador-gnl.hub.arcgis.com\/","date":"2020-11-30 11:22:12","hr_uid":null},{"id":371347,"province":"NL","city":"Pending","age":"Pending","travel_history":"Pending","confirmed_presumptive":"CONFIRMED","source":"https:\/\/covid-19-newfoundland-and-labrador-gnl.hub.arcgis.com\/","date":"2020-11-29 11:34:00","hr_uid":null},{"id":371346,"province":"NL","city":"Pending","age":"Pending","travel_history":"Pending","confirmed_presumptive":"CONFIRMED","source":"https:\/\/covid-19-newfoundland-and-labrador-gnl.hub.arcgis.com\/","date":"2020-11-29 11:34:00","hr_uid":null},{"id":371345,"province":"NL","city":"Pending","age":"Pending","travel_history":"Pending","confirmed_presumptive":"CONFIRMED","source":"https:\/\/covid-19-newfoundland-and-labrador-gnl.hub.arcgis.com\/","date":"2020-11-29 11:34:00","hr_uid":null},{"id":371344,"province":"NL","city":"Pending","age":"Pending","travel_history":"Pending","confirmed_presumptive":"CONFIRMED","source":"https:\/\/covid-19-newfoundland-and-labrador-gnl.hub.arcgis.com\/","date":"2020-11-29 11:34:00","hr_uid":null},{"id":365909,"province":"NL","city":"Pending","age":"Pending","travel_history":"Pending","confirmed_presumptive":"CONFIRMED","source":"https:\/\/covid-19-newfoundland-and-labrador-gnl.hub.arcgis.com\/","date":"2020-11-28 12:34:00","hr_uid":null},{"id":365908,"province":"NL","city":"Pending","age":"Pending","travel_history":"Pending","confirmed_presumptive":"CONFIRMED","source":"https:\/\/covid-19-newfoundland-and-labrador-gnl.hub.arcgis.com\/","date":"2020-11-28 12:34:00","hr_uid":null},{"id":359263,"province":"NL","city":"Pending","age":"Pending","travel_history":"Pending","confirmed_presumptive":"CONFIRMED","source":"https:\/\/covid-19-newfoundland-and-labrador-gnl.hub.arcgis.com\/","date":"2020-11-27 11:18:00","hr_uid":null},{"id":359262,"province":"NL","city":"Pending","age":"Pending","travel_history":"Pending","confirmed_presumptive":"CONFIRMED","source":"https:\/\/covid-19-newfoundland-and-labrador-gnl.hub.arcgis.com\/","date":"2020-11-27 11:18:00","hr_uid":null},{"id":359261,"province":"NL","city":"Pending","age":"Pending","travel_history":"Pending","confirmed_presumptive":"CONFIRMED","source":"https:\/\/covid-19-newfoundland-and-labrador-gnl.hub.arcgis.com\/","date":"2020-11-27 11:18:00","hr_uid":null},{"id":359260,"province":"NL","city":"Pending","age":"Pending","travel_history":"Pending","confirmed_presumptive":"CONFIRMED","source":"https:\/\/covid-19-newfoundland-and-labrador-gnl.hub.arcgis.com\/","date":"2020-11-27 11:18:00","hr_uid":null},{"id":353733,"province":"NL","city":"Central NL","age":"20-39","travel_history":"Nova Scotia","confirmed_presumptive":"CONFIRMED","source":"https:\/\/covid-19-newfoundland-and-labrador-gnl.hub.arcgis.com\/","date":"2020-11-26 10:54:00","hr_uid":null},{"id":353732,"province":"NL","city":"Eastern NL","age":"20-39","travel_history":"East Africa","confirmed_presumptive":"CONFIRMED","source":"https:\/\/covid-19-newfoundland-and-labrador-gnl.hub.arcgis.com\/","date":"2020-11-26 10:54:00","hr_uid":null},{"id":353731,"province":"NL","city":"Western NL","age":"0-19","travel_history":"Close contact","confirmed_presumptive":"CONFIRMED","source":"https:\/\/covid-19-newfoundland-and-labrador-gnl.hub.arcgis.com\/","date":"2020-11-26 10:54:00","hr_uid":null},{"id":348236,"province":"NL","city":"Pending","age":"Pending","travel_history":"Pending","confirmed_presumptive":"CONFIRMED","source":"https:\/\/covid-19-newfoundland-and-labrador-gnl.hub.arcgis.com\/","date":"2020-11-25 11:21:00","hr_uid":null},{"id":343618,"province":"NL","city":"Pending","age":"Pending","travel_history":"Pending","confirmed_presumptive":"CONFIRMED","source":"https:\/\/covid-19-newfoundland-and-labrador-gnl.hub.arcgis.com\/","date":"2020-11-24 12:42:00","hr_uid":null},{"id":343617,"province":"NL","city":"Pending","age":"Pending","travel_history":"Pending","confirmed_presumptive":"CONFIRMED","source":"https:\/\/covid-19-newfoundland-and-labrador-gnl.hub.arcgis.com\/","date":"2020-11-24 12:42:00","hr_uid":null},{"id":338464,"province":"NL","city":"Pending","age":"Pending","travel_history":"Pending","confirmed_presumptive":"CONFIRMED","source":"https:\/\/covid-19-newfoundland-and-labrador-gnl.hub.arcgis.com\/","date":"2020-11-23 14:13:00","hr_uid":null},{"id":338463,"province":"NL","city":"Pending","age":"Pending","travel_history":"Pending","confirmed_presumptive":"CONFIRMED","source":"https:\/\/covid-19-newfoundland-and-labrador-gnl.hub.arcgis.com\/","date":"2020-11-23 14:13:00","hr_uid":null},{"id":331428,"province":"NL","city":"Pending","age":"Pending","travel_history":"Pending","confirmed_presumptive":"CONFIRMED","source":"https:\/\/covid-19-newfoundland-and-labrador-gnl.hub.arcgis.com\/","date":"2020-11-22 10:53:00","hr_uid":null},{"id":331427,"province":"NL","city":"Pending","age":"Pending","travel_history":"Pending","confirmed_presumptive":"CONFIRMED","source":"https:\/\/covid-19-newfoundland-and-labrador-gnl.hub.arcgis.com\/","date":"2020-11-22 10:53:00","hr_uid":null},{"id":331426,"province":"NL","city":"Pending","age":"Pending","travel_history":"Pending","confirmed_presumptive":"CONFIRMED","source":"https:\/\/covid-19-newfoundland-and-labrador-gnl.hub.arcgis.com\/","date":"2020-11-22 10:53:00","hr_uid":null},{"id":326553,"province":"NL","city":"Pending","age":"Pending","travel_history":"Pending","confirmed_presumptive":"CONFIRMED","source":"https:\/\/www.gov.nl.ca\/releases\/2020\/health\/1121n02\/","date":"2020-11-21 11:16:00","hr_uid":null},{"id":326552,"province":"NL","city":"Pending","age":"Pending","travel_history":"Pending","confirmed_presumptive":"CONFIRMED","source":"https:\/\/www.gov.nl.ca\/releases\/2020\/health\/1121n02\/","date":"2020-11-21 11:16:00","hr_uid":null},{"id":326551,"province":"NL","city":"Pending","age":"Pending","travel_history":"Pending","confirmed_presumptive":"CONFIRMED","source":"https:\/\/www.gov.nl.ca\/releases\/2020\/health\/1121n02\/","date":"2020-11-21 11:16:00","hr_uid":null},{"id":326550,"province":"NL","city":"Pending","age":"Pending","travel_history":"Pending","confirmed_presumptive":"CONFIRMED","source":"https:\/\/www.gov.nl.ca\/releases\/2020\/health\/1121n02\/","date":"2020-11-21 11:16:00","hr_uid":null},{"id":326549,"province":"NL","city":"Pending","age":"Pending","travel_history":"Pending","confirmed_presumptive":"CONFIRMED","source":"https:\/\/www.gov.nl.ca\/releases\/2020\/health\/1121n02\/","date":"2020-11-21 11:16:00","hr_uid":null},{"id":321618,"province":"NL","city":"Pending","age":"Pending","travel_history":"Pending","confirmed_presumptive":"CONFIRMED","source":"https:\/\/covid-19-newfoundland-and-labrador-gnl.hub.arcgis.com\/","date":"2020-11-20 11:16:00","hr_uid":null},{"id":321617,"province":"NL","city":"Pending","age":"Pending","travel_history":"Pending","confirmed_presumptive":"CONFIRMED","source":"https:\/\/covid-19-newfoundland-and-labrador-gnl.hub.arcgis.com\/","date":"2020-11-20 11:16:00","hr_uid":null},{"id":321616,"province":"NL","city":"Pending","age":"Pending","travel_history":"Pending","confirmed_presumptive":"CONFIRMED","source":"https:\/\/covid-19-newfoundland-and-labrador-gnl.hub.arcgis.com\/","date":"2020-11-20 11:16:00","hr_uid":null}],"first_page_url":"https:\/\/api.covid19tracker.ca\/cases?page=1","from":1,"last_page":5,"last_page_url":"https:\/\/api.covid19tracker.ca\/cases?page=5","links":[{"url":null,"label":"&laquo; Previous","active":false},{"url":"https:\/\/api.covid19tracker.ca\/cases?page=1","label":1,"active":true},{"url":"https:\/\/api.covid19tracker.ca\/cases?page=2","label":2,"active":false},{"url":"https:\/\/api.covid19tracker.ca\/cases?page=3","label":3,"active":false},{"url":"https:\/\/api.covid19tracker.ca\/cases?page=4","label":4,"active":false},{"url":"https:\/\/api.covid19tracker.ca\/cases?page=5","label":5,"active":false},{"url":"https:\/\/api.covid19tracker.ca\/cases?page=2","label":"Next &raquo;","active":false}],"next_page_url":"https:\/\/api.covid19tracker.ca\/cases?page=2","path":"https:\/\/api.covid19tracker.ca\/cases","per_page":100,"prev_page_url":null,"to":100,"total":408}