{"current_page":1,"data":[{"id":796200,"province":"NS","city":"Pending","age":"Pending","travel_history":"Pending","confirmed_presumptive":"CONFIRMED","source":"https:\/\/experience.arcgis.com\/experience\/204d6ed723244dfbb763ca3f913c5cad","date":"2021-02-03 08:45:48","hr_uid":null},{"id":794738,"province":"NS","city":"Pending","age":"Pending","travel_history":"Pending","confirmed_presumptive":"CONFIRMED","source":"https:\/\/experience.arcgis.com\/experience\/204d6ed723244dfbb763ca3f913c5cad","date":"2021-02-02 12:23:52","hr_uid":null},{"id":789871,"province":"NS","city":"Pending","age":"Pending","travel_history":"Pending","confirmed_presumptive":"CONFIRMED","source":"https:\/\/experience.arcgis.com\/experience\/204d6ed723244dfbb763ca3f913c5cad","date":"2021-02-01 12:54:40","hr_uid":null},{"id":782239,"province":"NS","city":"Pending","age":"Pending","travel_history":"Pending","confirmed_presumptive":"CONFIRMED","source":"https:\/\/experience.arcgis.com\/experience\/204d6ed723244dfbb763ca3f913c5cad","date":"2021-01-30 10:01:20","hr_uid":null},{"id":782238,"province":"NS","city":"Pending","age":"Pending","travel_history":"Pending","confirmed_presumptive":"CONFIRMED","source":"https:\/\/experience.arcgis.com\/experience\/204d6ed723244dfbb763ca3f913c5cad","date":"2021-01-30 10:01:20","hr_uid":null},{"id":782237,"province":"NS","city":"Pending","age":"Pending","travel_history":"Pending","confirmed_presumptive":"CONFIRMED","source":"https:\/\/experience.arcgis.com\/experience\/204d6ed723244dfbb763ca3f913c5cad","date":"2021-01-30 10:01:20","hr_uid":null},{"id":777158,"province":"NS","city":"Pending","age":"Pending","travel_history":"Pending","confirmed_presumptive":"CONFIRMED","source":"https:\/\/experience.arcgis.com\/experience\/204d6ed723244dfbb763ca3f913c5cad","date":"2021-01-29 10:32:18","hr_uid":null},{"id":768203,"province":"NS","city":"Pending","age":"Pending","travel_history":"Pending","confirmed_presumptive":"CONFIRMED","source":"https:\/\/experience.arcgis.com\/experience\/204d6ed723244dfbb763ca3f913c5cad","date":"2021-01-27 12:43:23","hr_uid":null},{"id":768202,"province":"NS","city":"Pending","age":"Pending","travel_history":"Pending","confirmed_presumptive":"CONFIRMED","source":"https:\/\/experience.arcgis.com\/experience\/204d6ed723244dfbb763ca3f913c5cad","date":"2021-01-27 12:43:23","hr_uid":null},{"id":768201,"province":"NS","city":"Pending","age":"Pending","travel_history":"Pending","confirmed_presumptive":"CONFIRMED","source":"https:\/\/experience.arcgis.com\/experience\/204d6ed723244dfbb763ca3f913c5cad","date":"2021-01-27 12:43:23","hr_uid":null},{"id":768200,"province":"NS","city":"Pending","age":"Pending","travel_history":"Pending","confirmed_presumptive":"CONFIRMED","source":"https:\/\/experience.arcgis.com\/experience\/204d6ed723244dfbb763ca3f913c5cad","date":"2021-01-27 12:43:23","hr_uid":null},{"id":764078,"province":"NS","city":"Pending","age":"Pending","travel_history":"Pending","confirmed_presumptive":"CONFIRMED","source":"https:\/\/experience.arcgis.com\/experience\/204d6ed723244dfbb763ca3f913c5cad","date":"2021-01-26 12:20:18","hr_uid":null},{"id":753942,"province":"NS","city":"Pending","age":"Pending","travel_history":"Pending","confirmed_presumptive":"CONFIRMED","source":"https:\/\/experience.arcgis.com\/experience\/204d6ed723244dfbb763ca3f913c5cad","date":"2021-01-24 11:09:53","hr_uid":null},{"id":743455,"province":"NS","city":"Pending","age":"Pending","travel_history":"Pending","confirmed_presumptive":"CONFIRMED","source":"https:\/\/experience.arcgis.com\/experience\/204d6ed723244dfbb763ca3f913c5cad","date":"2021-01-22 11:41:41","hr_uid":null},{"id":743454,"province":"NS","city":"Pending","age":"Pending","travel_history":"Pending","confirmed_presumptive":"CONFIRMED","source":"https:\/\/experience.arcgis.com\/experience\/204d6ed723244dfbb763ca3f913c5cad","date":"2021-01-22 11:41:41","hr_uid":null},{"id":743453,"province":"NS","city":"Pending","age":"Pending","travel_history":"Pending","confirmed_presumptive":"CONFIRMED","source":"https:\/\/experience.arcgis.com\/experience\/204d6ed723244dfbb763ca3f913c5cad","date":"2021-01-22 11:41:41","hr_uid":null},{"id":743452,"province":"NS","city":"Pending","age":"Pending","travel_history":"Pending","confirmed_presumptive":"CONFIRMED","source":"https:\/\/experience.arcgis.com\/experience\/204d6ed723244dfbb763ca3f913c5cad","date":"2021-01-22 11:41:41","hr_uid":null},{"id":743451,"province":"NS","city":"Pending","age":"Pending","travel_history":"Pending","confirmed_presumptive":"CONFIRMED","source":"https:\/\/experience.arcgis.com\/experience\/204d6ed723244dfbb763ca3f913c5cad","date":"2021-01-22 11:41:41","hr_uid":null},{"id":736936,"province":"NS","city":"Pending","age":"Pending","travel_history":"Pending","confirmed_presumptive":"CONFIRMED","source":"https:\/\/experience.arcgis.com\/experience\/204d6ed723244dfbb763ca3f913c5cad","date":"2021-01-21 11:04:06","hr_uid":null},{"id":731333,"province":"NS","city":"Pending","age":"Pending","travel_history":"Pending","confirmed_presumptive":"CONFIRMED","source":"https:\/\/experience.arcgis.com\/experience\/204d6ed723244dfbb763ca3f913c5cad","date":"2021-01-20 11:34:42","hr_uid":null},{"id":731332,"province":"NS","city":"Pending","age":"Pending","travel_history":"Pending","confirmed_presumptive":"CONFIRMED","source":"https:\/\/experience.arcgis.com\/experience\/204d6ed723244dfbb763ca3f913c5cad","date":"2021-01-20 11:34:42","hr_uid":null},{"id":726347,"province":"NS","city":"Pending","age":"Pending","travel_history":"Pending","confirmed_presumptive":"CONFIRMED","source":"https:\/\/experience.arcgis.com\/experience\/204d6ed723244dfbb763ca3f913c5cad","date":"2021-01-19 12:27:48","hr_uid":null},{"id":726346,"province":"NS","city":"Pending","age":"Pending","travel_history":"Pending","confirmed_presumptive":"CONFIRMED","source":"https:\/\/experience.arcgis.com\/experience\/204d6ed723244dfbb763ca3f913c5cad","date":"2021-01-19 12:27:48","hr_uid":null},{"id":726345,"province":"NS","city":"Pending","age":"Pending","travel_history":"Pending","confirmed_presumptive":"CONFIRMED","source":"https:\/\/experience.arcgis.com\/experience\/204d6ed723244dfbb763ca3f913c5cad","date":"2021-01-19 12:27:48","hr_uid":null},{"id":726344,"province":"NS","city":"Pending","age":"Pending","travel_history":"Pending","confirmed_presumptive":"CONFIRMED","source":"https:\/\/experience.arcgis.com\/experience\/204d6ed723244dfbb763ca3f913c5cad","date":"2021-01-19 12:27:48","hr_uid":null},{"id":713572,"province":"NS","city":"Pending","age":"Pending","travel_history":"Pending","confirmed_presumptive":"CONFIRMED","source":"https:\/\/novascotia.ca\/coronavirus\/data\/","date":"2021-01-17 10:30:49","hr_uid":null},{"id":713571,"province":"NS","city":"Pending","age":"Pending","travel_history":"Pending","confirmed_presumptive":"CONFIRMED","source":"https:\/\/novascotia.ca\/coronavirus\/data\/","date":"2021-01-17 10:30:49","hr_uid":null},{"id":713570,"province":"NS","city":"Pending","age":"Pending","travel_history":"Pending","confirmed_presumptive":"CONFIRMED","source":"https:\/\/novascotia.ca\/coronavirus\/data\/","date":"2021-01-17 10:30:49","hr_uid":null},{"id":713569,"province":"NS","city":"Pending","age":"Pending","travel_history":"Pending","confirmed_presumptive":"CONFIRMED","source":"https:\/\/novascotia.ca\/coronavirus\/data\/","date":"2021-01-17 10:30:49","hr_uid":null},{"id":707787,"province":"NS","city":"Pending","age":"Pending","travel_history":"Pending","confirmed_presumptive":"CONFIRMED","source":"https:\/\/novascotia.ca\/coronavirus\/","date":"2021-01-16 09:45:33","hr_uid":null},{"id":707786,"province":"NS","city":"Pending","age":"Pending","travel_history":"Pending","confirmed_presumptive":"CONFIRMED","source":"https:\/\/novascotia.ca\/coronavirus\/","date":"2021-01-16 09:45:33","hr_uid":null},{"id":707785,"province":"NS","city":"Pending","age":"Pending","travel_history":"Pending","confirmed_presumptive":"CONFIRMED","source":"https:\/\/novascotia.ca\/coronavirus\/","date":"2021-01-16 09:45:33","hr_uid":null},{"id":707784,"province":"NS","city":"Pending","age":"Pending","travel_history":"Pending","confirmed_presumptive":"CONFIRMED","source":"https:\/\/novascotia.ca\/coronavirus\/","date":"2021-01-16 09:45:33","hr_uid":null},{"id":700560,"province":"NS","city":"Pending","age":"Pending","travel_history":"Pending","confirmed_presumptive":"CONFIRMED","source":"https:\/\/novascotia.ca\/coronavirus\/data\/","date":"2021-01-15 09:17:49","hr_uid":null},{"id":700559,"province":"NS","city":"Pending","age":"Pending","travel_history":"Pending","confirmed_presumptive":"CONFIRMED","source":"https:\/\/novascotia.ca\/coronavirus\/data\/","date":"2021-01-15 09:17:49","hr_uid":null},{"id":693563,"province":"NS","city":"Pending","age":"Pending","travel_history":"Pending","confirmed_presumptive":"CONFIRMED","source":"https:\/\/novascotia.ca\/coronavirus\/data\/","date":"2021-01-14 11:42:42","hr_uid":null},{"id":693562,"province":"NS","city":"Pending","age":"Pending","travel_history":"Pending","confirmed_presumptive":"CONFIRMED","source":"https:\/\/novascotia.ca\/coronavirus\/data\/","date":"2021-01-14 11:42:42","hr_uid":null},{"id":693561,"province":"NS","city":"Pending","age":"Pending","travel_history":"Pending","confirmed_presumptive":"CONFIRMED","source":"https:\/\/novascotia.ca\/coronavirus\/data\/","date":"2021-01-14 11:42:42","hr_uid":null},{"id":693560,"province":"NS","city":"Pending","age":"Pending","travel_history":"Pending","confirmed_presumptive":"CONFIRMED","source":"https:\/\/novascotia.ca\/coronavirus\/data\/","date":"2021-01-14 11:42:42","hr_uid":null},{"id":693559,"province":"NS","city":"Pending","age":"Pending","travel_history":"Pending","confirmed_presumptive":"CONFIRMED","source":"https:\/\/novascotia.ca\/coronavirus\/data\/","date":"2021-01-14 11:42:42","hr_uid":null},{"id":693558,"province":"NS","city":"Pending","age":"Pending","travel_history":"Pending","confirmed_presumptive":"CONFIRMED","source":"https:\/\/novascotia.ca\/coronavirus\/data\/","date":"2021-01-14 11:42:42","hr_uid":null},{"id":686227,"province":"NS","city":"Pending","age":"Pending","travel_history":"Pending","confirmed_presumptive":"CONFIRMED","source":"https:\/\/novascotia.ca\/coronavirus\/data\/","date":"2021-01-13 11:44:17","hr_uid":null},{"id":686226,"province":"NS","city":"Pending","age":"Pending","travel_history":"Pending","confirmed_presumptive":"CONFIRMED","source":"https:\/\/novascotia.ca\/coronavirus\/data\/","date":"2021-01-13 11:44:17","hr_uid":null},{"id":686225,"province":"NS","city":"Pending","age":"Pending","travel_history":"Pending","confirmed_presumptive":"CONFIRMED","source":"https:\/\/novascotia.ca\/coronavirus\/data\/","date":"2021-01-13 11:44:17","hr_uid":null},{"id":686224,"province":"NS","city":"Pending","age":"Pending","travel_history":"Pending","confirmed_presumptive":"CONFIRMED","source":"https:\/\/novascotia.ca\/coronavirus\/data\/","date":"2021-01-13 11:44:17","hr_uid":null},{"id":686223,"province":"NS","city":"Pending","age":"Pending","travel_history":"Pending","confirmed_presumptive":"CONFIRMED","source":"https:\/\/novascotia.ca\/coronavirus\/data\/","date":"2021-01-13 11:44:17","hr_uid":null},{"id":686222,"province":"NS","city":"Pending","age":"Pending","travel_history":"Pending","confirmed_presumptive":"CONFIRMED","source":"https:\/\/novascotia.ca\/coronavirus\/data\/","date":"2021-01-13 11:44:17","hr_uid":null},{"id":686221,"province":"NS","city":"Pending","age":"Pending","travel_history":"Pending","confirmed_presumptive":"CONFIRMED","source":"https:\/\/novascotia.ca\/coronavirus\/data\/","date":"2021-01-13 11:44:17","hr_uid":null},{"id":686220,"province":"NS","city":"Pending","age":"Pending","travel_history":"Pending","confirmed_presumptive":"CONFIRMED","source":"https:\/\/novascotia.ca\/coronavirus\/data\/","date":"2021-01-13 11:44:17","hr_uid":null},{"id":679944,"province":"NS","city":"Pending","age":"Pending","travel_history":"Pending","confirmed_presumptive":"CONFIRMED","source":"https:\/\/novascotia.ca\/coronavirus\/data\/","date":"2021-01-12 12:03:35","hr_uid":null},{"id":671328,"province":"NS","city":"Pending","age":"Pending","travel_history":"Pending","confirmed_presumptive":"CONFIRMED","source":"https:\/\/novascotia.ca\/coronavirus\/data\/","date":"2021-01-11 11:45:49","hr_uid":null},{"id":671327,"province":"NS","city":"Pending","age":"Pending","travel_history":"Pending","confirmed_presumptive":"CONFIRMED","source":"https:\/\/novascotia.ca\/coronavirus\/data\/","date":"2021-01-11 11:45:49","hr_uid":null},{"id":671326,"province":"NS","city":"Pending","age":"Pending","travel_history":"Pending","confirmed_presumptive":"CONFIRMED","source":"https:\/\/novascotia.ca\/coronavirus\/data\/","date":"2021-01-11 11:45:49","hr_uid":null},{"id":671325,"province":"NS","city":"Pending","age":"Pending","travel_history":"Pending","confirmed_presumptive":"CONFIRMED","source":"https:\/\/novascotia.ca\/coronavirus\/data\/","date":"2021-01-11 11:45:49","hr_uid":null},{"id":671324,"province":"NS","city":"Pending","age":"Pending","travel_history":"Pending","confirmed_presumptive":"CONFIRMED","source":"https:\/\/novascotia.ca\/coronavirus\/data\/","date":"2021-01-11 11:45:49","hr_uid":null},{"id":656499,"province":"NS","city":"Pending","age":"Pending","travel_history":"Pending","confirmed_presumptive":"CONFIRMED","source":"https:\/\/novascotia.ca\/coronavirus\/data\/","date":"2021-01-09 11:48:56","hr_uid":null},{"id":656498,"province":"NS","city":"Pending","age":"Pending","travel_history":"Pending","confirmed_presumptive":"CONFIRMED","source":"https:\/\/novascotia.ca\/coronavirus\/data\/","date":"2021-01-09 11:48:56","hr_uid":null},{"id":656497,"province":"NS","city":"Pending","age":"Pending","travel_history":"Pending","confirmed_presumptive":"CONFIRMED","source":"https:\/\/novascotia.ca\/coronavirus\/data\/","date":"2021-01-09 11:48:56","hr_uid":null},{"id":646748,"province":"NS","city":"Pending","age":"Pending","travel_history":"Pending","confirmed_presumptive":"CONFIRMED","source":"https:\/\/novascotia.ca\/stayinformed\/webcast\/","date":"2021-01-08 10:15:26","hr_uid":null},{"id":646747,"province":"NS","city":"Pending","age":"Pending","travel_history":"Pending","confirmed_presumptive":"CONFIRMED","source":"https:\/\/novascotia.ca\/stayinformed\/webcast\/","date":"2021-01-08 10:15:26","hr_uid":null},{"id":638510,"province":"NS","city":"Pending","age":"Pending","travel_history":"Pending","confirmed_presumptive":"CONFIRMED","source":"https:\/\/novascotia.ca\/coronavirus\/data\/","date":"2021-01-07 09:48:39","hr_uid":null},{"id":638509,"province":"NS","city":"Pending","age":"Pending","travel_history":"Pending","confirmed_presumptive":"CONFIRMED","source":"https:\/\/novascotia.ca\/coronavirus\/data\/","date":"2021-01-07 09:48:39","hr_uid":null},{"id":638508,"province":"NS","city":"Pending","age":"Pending","travel_history":"Pending","confirmed_presumptive":"CONFIRMED","source":"https:\/\/novascotia.ca\/coronavirus\/data\/","date":"2021-01-07 09:48:39","hr_uid":null},{"id":631204,"province":"NS","city":"Pending","age":"Pending","travel_history":"Pending","confirmed_presumptive":"CONFIRMED","source":"https:\/\/novascotia.ca\/news\/release\/?id=20210106002","date":"2021-01-06 12:44:56","hr_uid":null},{"id":631203,"province":"NS","city":"Pending","age":"Pending","travel_history":"Pending","confirmed_presumptive":"CONFIRMED","source":"https:\/\/novascotia.ca\/news\/release\/?id=20210106002","date":"2021-01-06 12:44:56","hr_uid":null},{"id":631202,"province":"NS","city":"Pending","age":"Pending","travel_history":"Pending","confirmed_presumptive":"CONFIRMED","source":"https:\/\/novascotia.ca\/news\/release\/?id=20210106002","date":"2021-01-06 12:44:56","hr_uid":null},{"id":631201,"province":"NS","city":"Pending","age":"Pending","travel_history":"Pending","confirmed_presumptive":"CONFIRMED","source":"https:\/\/novascotia.ca\/news\/release\/?id=20210106002","date":"2021-01-06 12:44:56","hr_uid":null},{"id":631200,"province":"NS","city":"Pending","age":"Pending","travel_history":"Pending","confirmed_presumptive":"CONFIRMED","source":"https:\/\/novascotia.ca\/news\/release\/?id=20210106002","date":"2021-01-06 12:44:56","hr_uid":null},{"id":631199,"province":"NS","city":"Pending","age":"Pending","travel_history":"Pending","confirmed_presumptive":"CONFIRMED","source":"https:\/\/novascotia.ca\/news\/release\/?id=20210106002","date":"2021-01-06 12:44:56","hr_uid":null},{"id":631198,"province":"NS","city":"Pending","age":"Pending","travel_history":"Pending","confirmed_presumptive":"CONFIRMED","source":"https:\/\/novascotia.ca\/news\/release\/?id=20210106002","date":"2021-01-06 12:44:56","hr_uid":null},{"id":631197,"province":"NS","city":"Pending","age":"Pending","travel_history":"Pending","confirmed_presumptive":"CONFIRMED","source":"https:\/\/novascotia.ca\/news\/release\/?id=20210106002","date":"2021-01-06 12:44:56","hr_uid":null},{"id":631196,"province":"NS","city":"Pending","age":"Pending","travel_history":"Pending","confirmed_presumptive":"CONFIRMED","source":"https:\/\/novascotia.ca\/news\/release\/?id=20210106002","date":"2021-01-06 12:44:56","hr_uid":null},{"id":631195,"province":"NS","city":"Pending","age":"Pending","travel_history":"Pending","confirmed_presumptive":"CONFIRMED","source":"https:\/\/novascotia.ca\/news\/release\/?id=20210106002","date":"2021-01-06 12:44:56","hr_uid":null},{"id":631194,"province":"NS","city":"Pending","age":"Pending","travel_history":"Pending","confirmed_presumptive":"CONFIRMED","source":"https:\/\/novascotia.ca\/news\/release\/?id=20210106002","date":"2021-01-06 12:44:56","hr_uid":null},{"id":631193,"province":"NS","city":"Pending","age":"Pending","travel_history":"Pending","confirmed_presumptive":"CONFIRMED","source":"https:\/\/novascotia.ca\/news\/release\/?id=20210106002","date":"2021-01-06 12:44:56","hr_uid":null},{"id":623203,"province":"NS","city":"Pending","age":"Pending","travel_history":"Pending","confirmed_presumptive":"CONFIRMED","source":"https:\/\/novascotia.ca\/coronavirus\/data\/","date":"2021-01-05 11:25:20","hr_uid":null},{"id":623202,"province":"NS","city":"Pending","age":"Pending","travel_history":"Pending","confirmed_presumptive":"CONFIRMED","source":"https:\/\/novascotia.ca\/coronavirus\/data\/","date":"2021-01-05 11:25:20","hr_uid":null},{"id":623201,"province":"NS","city":"Pending","age":"Pending","travel_history":"Pending","confirmed_presumptive":"CONFIRMED","source":"https:\/\/novascotia.ca\/coronavirus\/data\/","date":"2021-01-05 11:25:20","hr_uid":null},{"id":617540,"province":"NS","city":"Pending","age":"Pending","travel_history":"Pending","confirmed_presumptive":"CONFIRMED","source":"https:\/\/novascotia.ca\/news\/release\/?id=20210104001","date":"2021-01-04 16:34:12","hr_uid":null},{"id":617539,"province":"NS","city":"Pending","age":"Pending","travel_history":"Pending","confirmed_presumptive":"CONFIRMED","source":"https:\/\/novascotia.ca\/news\/release\/?id=20210104001","date":"2021-01-04 16:34:12","hr_uid":null},{"id":617538,"province":"NS","city":"Pending","age":"Pending","travel_history":"Pending","confirmed_presumptive":"CONFIRMED","source":"https:\/\/novascotia.ca\/news\/release\/?id=20210104001","date":"2021-01-04 16:34:12","hr_uid":null},{"id":617537,"province":"NS","city":"Pending","age":"Pending","travel_history":"Pending","confirmed_presumptive":"CONFIRMED","source":"https:\/\/novascotia.ca\/news\/release\/?id=20210104001","date":"2021-01-04 16:34:12","hr_uid":null},{"id":617536,"province":"NS","city":"Pending","age":"Pending","travel_history":"Pending","confirmed_presumptive":"CONFIRMED","source":"https:\/\/novascotia.ca\/news\/release\/?id=20210104001","date":"2021-01-04 16:34:12","hr_uid":null},{"id":617535,"province":"NS","city":"Pending","age":"Pending","travel_history":"Pending","confirmed_presumptive":"CONFIRMED","source":"https:\/\/novascotia.ca\/news\/release\/?id=20210104001","date":"2021-01-04 16:34:12","hr_uid":null},{"id":592643,"province":"NS","city":"Pending","age":"Pending","travel_history":"Pending","confirmed_presumptive":"CONFIRMED","source":"https:\/\/novascotia.ca\/news\/release\/?id=20210102001","date":"2021-01-02 12:27:00","hr_uid":null},{"id":592642,"province":"NS","city":"Pending","age":"Pending","travel_history":"Pending","confirmed_presumptive":"CONFIRMED","source":"https:\/\/novascotia.ca\/news\/release\/?id=20210102001","date":"2021-01-02 12:27:00","hr_uid":null},{"id":592641,"province":"NS","city":"Pending","age":"Pending","travel_history":"Pending","confirmed_presumptive":"CONFIRMED","source":"https:\/\/novascotia.ca\/news\/release\/?id=20210102001","date":"2021-01-02 12:27:00","hr_uid":null},{"id":592640,"province":"NS","city":"Pending","age":"Pending","travel_history":"Pending","confirmed_presumptive":"CONFIRMED","source":"https:\/\/novascotia.ca\/news\/release\/?id=20210102001","date":"2021-01-02 12:27:00","hr_uid":null},{"id":592639,"province":"NS","city":"Pending","age":"Pending","travel_history":"Pending","confirmed_presumptive":"CONFIRMED","source":"https:\/\/novascotia.ca\/news\/release\/?id=20210102001","date":"2021-01-02 12:27:00","hr_uid":null},{"id":592638,"province":"NS","city":"Pending","age":"Pending","travel_history":"Pending","confirmed_presumptive":"CONFIRMED","source":"https:\/\/novascotia.ca\/news\/release\/?id=20210102001","date":"2021-01-02 12:27:00","hr_uid":null},{"id":592637,"province":"NS","city":"Pending","age":"Pending","travel_history":"Pending","confirmed_presumptive":"CONFIRMED","source":"https:\/\/novascotia.ca\/news\/release\/?id=20210102001","date":"2021-01-02 12:27:00","hr_uid":null},{"id":592636,"province":"NS","city":"Pending","age":"Pending","travel_history":"Pending","confirmed_presumptive":"CONFIRMED","source":"https:\/\/novascotia.ca\/news\/release\/?id=20210102001","date":"2021-01-02 12:27:00","hr_uid":null},{"id":592635,"province":"NS","city":"Pending","age":"Pending","travel_history":"Pending","confirmed_presumptive":"CONFIRMED","source":"https:\/\/novascotia.ca\/news\/release\/?id=20210102001","date":"2021-01-02 12:27:00","hr_uid":null},{"id":592634,"province":"NS","city":"Pending","age":"Pending","travel_history":"Pending","confirmed_presumptive":"CONFIRMED","source":"https:\/\/novascotia.ca\/news\/release\/?id=20210102001","date":"2021-01-02 12:27:00","hr_uid":null},{"id":592633,"province":"NS","city":"Pending","age":"Pending","travel_history":"Pending","confirmed_presumptive":"CONFIRMED","source":"https:\/\/novascotia.ca\/news\/release\/?id=20210102001","date":"2021-01-02 12:27:00","hr_uid":null},{"id":592632,"province":"NS","city":"Pending","age":"Pending","travel_history":"Pending","confirmed_presumptive":"CONFIRMED","source":"https:\/\/novascotia.ca\/news\/release\/?id=20210102001","date":"2021-01-02 12:27:00","hr_uid":null},{"id":592631,"province":"NS","city":"Pending","age":"Pending","travel_history":"Pending","confirmed_presumptive":"CONFIRMED","source":"https:\/\/novascotia.ca\/news\/release\/?id=20210102001","date":"2021-01-02 12:27:00","hr_uid":null},{"id":586004,"province":"NS","city":"Pending","age":"Pending","travel_history":"Pending","confirmed_presumptive":"CONFIRMED","source":"https:\/\/novascotia.ca\/coronavirus\/data\/","date":"2020-12-31 12:03:23","hr_uid":null},{"id":586003,"province":"NS","city":"Pending","age":"Pending","travel_history":"Pending","confirmed_presumptive":"CONFIRMED","source":"https:\/\/novascotia.ca\/coronavirus\/data\/","date":"2020-12-31 12:03:23","hr_uid":null},{"id":586002,"province":"NS","city":"Pending","age":"Pending","travel_history":"Pending","confirmed_presumptive":"CONFIRMED","source":"https:\/\/novascotia.ca\/coronavirus\/data\/","date":"2020-12-31 12:03:23","hr_uid":null}],"first_page_url":"https:\/\/api.covid19tracker.ca\/cases?page=1","from":1,"last_page":16,"last_page_url":"https:\/\/api.covid19tracker.ca\/cases?page=16","links":[{"url":null,"label":"&laquo; Previous","active":false},{"url":"https:\/\/api.covid19tracker.ca\/cases?page=1","label":"1","active":true},{"url":"https:\/\/api.covid19tracker.ca\/cases?page=2","label":"2","active":false},{"url":"https:\/\/api.covid19tracker.ca\/cases?page=3","label":"3","active":false},{"url":"https:\/\/api.covid19tracker.ca\/cases?page=4","label":"4","active":false},{"url":"https:\/\/api.covid19tracker.ca\/cases?page=5","label":"5","active":false},{"url":"https:\/\/api.covid19tracker.ca\/cases?page=6","label":"6","active":false},{"url":"https:\/\/api.covid19tracker.ca\/cases?page=7","label":"7","active":false},{"url":"https:\/\/api.covid19tracker.ca\/cases?page=8","label":"8","active":false},{"url":"https:\/\/api.covid19tracker.ca\/cases?page=9","label":"9","active":false},{"url":"https:\/\/api.covid19tracker.ca\/cases?page=10","label":"10","active":false},{"url":null,"label":"...","active":false},{"url":"https:\/\/api.covid19tracker.ca\/cases?page=15","label":"15","active":false},{"url":"https:\/\/api.covid19tracker.ca\/cases?page=16","label":"16","active":false},{"url":"https:\/\/api.covid19tracker.ca\/cases?page=2","label":"Next &raquo;","active":false}],"next_page_url":"https:\/\/api.covid19tracker.ca\/cases?page=2","path":"https:\/\/api.covid19tracker.ca\/cases","per_page":100,"prev_page_url":null,"to":100,"total":1583}