{"current_page":1,"data":[{"id":786394,"province":"NU","city":"Pending","age":"Pending","travel_history":"Pending","confirmed_presumptive":"CONFIRMED","source":"https:\/\/www.gov.nu.ca\/health\/information\/covid-19-novel-coronavirus","date":"2021-01-31 13:52:34","hr_uid":null},{"id":786393,"province":"NU","city":"Pending","age":"Pending","travel_history":"Pending","confirmed_presumptive":"CONFIRMED","source":"https:\/\/www.gov.nu.ca\/health\/information\/covid-19-novel-coronavirus","date":"2021-01-31 13:52:34","hr_uid":null},{"id":786392,"province":"NU","city":"Pending","age":"Pending","travel_history":"Pending","confirmed_presumptive":"CONFIRMED","source":"https:\/\/www.gov.nu.ca\/health\/information\/covid-19-novel-coronavirus","date":"2021-01-31 13:52:34","hr_uid":null},{"id":786391,"province":"NU","city":"Pending","age":"Pending","travel_history":"Pending","confirmed_presumptive":"CONFIRMED","source":"https:\/\/www.gov.nu.ca\/health\/information\/covid-19-novel-coronavirus","date":"2021-01-31 13:52:34","hr_uid":null},{"id":786390,"province":"NU","city":"Pending","age":"Pending","travel_history":"Pending","confirmed_presumptive":"CONFIRMED","source":"https:\/\/www.gov.nu.ca\/health\/information\/covid-19-novel-coronavirus","date":"2021-01-31 13:52:34","hr_uid":null},{"id":786389,"province":"NU","city":"Pending","age":"Pending","travel_history":"Pending","confirmed_presumptive":"CONFIRMED","source":"https:\/\/www.gov.nu.ca\/health\/information\/covid-19-novel-coronavirus","date":"2021-01-31 13:52:34","hr_uid":null},{"id":786388,"province":"NU","city":"Pending","age":"Pending","travel_history":"Pending","confirmed_presumptive":"CONFIRMED","source":"https:\/\/www.gov.nu.ca\/health\/information\/covid-19-novel-coronavirus","date":"2021-01-31 13:52:34","hr_uid":null},{"id":786387,"province":"NU","city":"Pending","age":"Pending","travel_history":"Pending","confirmed_presumptive":"CONFIRMED","source":"https:\/\/www.gov.nu.ca\/health\/information\/covid-19-novel-coronavirus","date":"2021-01-31 13:52:34","hr_uid":null},{"id":786386,"province":"NU","city":"Pending","age":"Pending","travel_history":"Pending","confirmed_presumptive":"CONFIRMED","source":"https:\/\/www.gov.nu.ca\/health\/information\/covid-19-novel-coronavirus","date":"2021-01-31 13:52:34","hr_uid":null},{"id":786385,"province":"NU","city":"Pending","age":"Pending","travel_history":"Pending","confirmed_presumptive":"CONFIRMED","source":"https:\/\/www.gov.nu.ca\/health\/information\/covid-19-novel-coronavirus","date":"2021-01-31 13:52:34","hr_uid":null},{"id":782664,"province":"NU","city":"Pending","age":"Pending","travel_history":"Pending","confirmed_presumptive":"CONFIRMED","source":"https:\/\/www.gov.nu.ca\/health\/information\/covid-19-novel-coronavirus","date":"2021-01-30 14:47:53","hr_uid":null},{"id":772746,"province":"NU","city":"Pending","age":"Pending","travel_history":"Pending","confirmed_presumptive":"CONFIRMED","source":"https:\/\/www.gov.nu.ca\/health\/information\/covid-19-novel-coronavirus","date":"2021-01-28 11:54:12","hr_uid":null},{"id":758094,"province":"NU","city":"Pending","age":"Pending","travel_history":"Pending","confirmed_presumptive":"CONFIRMED","source":"https:\/\/www.gov.nu.ca\/health\/information\/covid-19-novel-coronavirus","date":"2021-01-25 09:11:46","hr_uid":null},{"id":758093,"province":"NU","city":"Pending","age":"Pending","travel_history":"Pending","confirmed_presumptive":"CONFIRMED","source":"https:\/\/www.gov.nu.ca\/health\/information\/covid-19-novel-coronavirus","date":"2021-01-25 09:11:46","hr_uid":null},{"id":756889,"province":"NU","city":"Pending","age":"Pending","travel_history":"Pending","confirmed_presumptive":"CONFIRMED","source":"https:\/\/www.gov.nu.ca\/health\/information\/covid-19-novel-coronavirus","date":"2021-01-24 17:40:37","hr_uid":null},{"id":756888,"province":"NU","city":"Pending","age":"Pending","travel_history":"Pending","confirmed_presumptive":"CONFIRMED","source":"https:\/\/www.gov.nu.ca\/health\/information\/covid-19-novel-coronavirus","date":"2021-01-24 17:40:37","hr_uid":null},{"id":756887,"province":"NU","city":"Pending","age":"Pending","travel_history":"Pending","confirmed_presumptive":"CONFIRMED","source":"https:\/\/www.gov.nu.ca\/health\/information\/covid-19-novel-coronavirus","date":"2021-01-24 17:40:37","hr_uid":null},{"id":756886,"province":"NU","city":"Pending","age":"Pending","travel_history":"Pending","confirmed_presumptive":"CONFIRMED","source":"https:\/\/www.gov.nu.ca\/health\/information\/covid-19-novel-coronavirus","date":"2021-01-24 17:40:37","hr_uid":null},{"id":756885,"province":"NU","city":"Pending","age":"Pending","travel_history":"Pending","confirmed_presumptive":"CONFIRMED","source":"https:\/\/www.gov.nu.ca\/health\/information\/covid-19-novel-coronavirus","date":"2021-01-24 17:40:37","hr_uid":null},{"id":756884,"province":"NU","city":"Pending","age":"Pending","travel_history":"Pending","confirmed_presumptive":"CONFIRMED","source":"https:\/\/www.gov.nu.ca\/health\/information\/covid-19-novel-coronavirus","date":"2021-01-24 17:40:37","hr_uid":null},{"id":756883,"province":"NU","city":"Pending","age":"Pending","travel_history":"Pending","confirmed_presumptive":"CONFIRMED","source":"https:\/\/www.gov.nu.ca\/health\/information\/covid-19-novel-coronavirus","date":"2021-01-24 17:40:37","hr_uid":null},{"id":756882,"province":"NU","city":"Pending","age":"Pending","travel_history":"Pending","confirmed_presumptive":"CONFIRMED","source":"https:\/\/www.gov.nu.ca\/health\/information\/covid-19-novel-coronavirus","date":"2021-01-24 17:40:37","hr_uid":null},{"id":756881,"province":"NU","city":"Pending","age":"Pending","travel_history":"Pending","confirmed_presumptive":"CONFIRMED","source":"https:\/\/www.gov.nu.ca\/health\/information\/covid-19-novel-coronavirus","date":"2021-01-24 17:40:37","hr_uid":null},{"id":756880,"province":"NU","city":"Pending","age":"Pending","travel_history":"Pending","confirmed_presumptive":"CONFIRMED","source":"https:\/\/www.gov.nu.ca\/health\/information\/covid-19-novel-coronavirus","date":"2021-01-24 17:40:37","hr_uid":null},{"id":756879,"province":"NU","city":"Pending","age":"Pending","travel_history":"Pending","confirmed_presumptive":"CONFIRMED","source":"https:\/\/www.gov.nu.ca\/health\/information\/covid-19-novel-coronavirus","date":"2021-01-24 17:40:37","hr_uid":null},{"id":756878,"province":"NU","city":"Pending","age":"Pending","travel_history":"Pending","confirmed_presumptive":"CONFIRMED","source":"https:\/\/www.gov.nu.ca\/health\/information\/covid-19-novel-coronavirus","date":"2021-01-24 17:40:37","hr_uid":null},{"id":756877,"province":"NU","city":"Pending","age":"Pending","travel_history":"Pending","confirmed_presumptive":"CONFIRMED","source":"https:\/\/www.gov.nu.ca\/health\/information\/covid-19-novel-coronavirus","date":"2021-01-24 17:40:37","hr_uid":null},{"id":741645,"province":"NU","city":"Pending","age":"Pending","travel_history":"Pending","confirmed_presumptive":"CONFIRMED","source":"https:\/\/www.gov.nu.ca\/health\/information\/covid-19-novel-coronavirus","date":"2021-01-22 08:45:42","hr_uid":null},{"id":560081,"province":"NU","city":"Pending","age":"Pending","travel_history":"Pending","confirmed_presumptive":"CONFIRMED","source":"https:\/\/www.gov.nu.ca\/health\/information\/covid-19-novel-coronavirus","date":"2020-12-28 10:27:33","hr_uid":null},{"id":543329,"province":"NU","city":"Pending","age":"Pending","travel_history":"Pending","confirmed_presumptive":"CONFIRMED","source":"https:\/\/www.gov.nu.ca\/health\/information\/covid-19-novel-coronavirus","date":"2020-12-24 18:04:00","hr_uid":null},{"id":534200,"province":"NU","city":"Pending","age":"Pending","travel_history":"Pending","confirmed_presumptive":"CONFIRMED","source":"https:\/\/www.gov.nu.ca\/health\/information\/covid-19-novel-coronavirus","date":"2020-12-23 17:14:45","hr_uid":null},{"id":534199,"province":"NU","city":"Pending","age":"Pending","travel_history":"Pending","confirmed_presumptive":"CONFIRMED","source":"https:\/\/www.gov.nu.ca\/health\/information\/covid-19-novel-coronavirus","date":"2020-12-23 17:14:45","hr_uid":null},{"id":518516,"province":"NU","city":"Pending","age":"Pending","travel_history":"Pending","confirmed_presumptive":"CONFIRMED","source":"https:\/\/www.gov.nu.ca\/health\/information\/covid-19-novel-coronavirus","date":"2020-12-21 17:03:25","hr_uid":null},{"id":518515,"province":"NU","city":"Pending","age":"Pending","travel_history":"Pending","confirmed_presumptive":"CONFIRMED","source":"https:\/\/www.gov.nu.ca\/health\/information\/covid-19-novel-coronavirus","date":"2020-12-21 17:03:25","hr_uid":null},{"id":518514,"province":"NU","city":"Pending","age":"Pending","travel_history":"Pending","confirmed_presumptive":"CONFIRMED","source":"https:\/\/www.gov.nu.ca\/health\/information\/covid-19-novel-coronavirus","date":"2020-12-21 17:03:25","hr_uid":null},{"id":489301,"province":"NU","city":"Pending","age":"Pending","travel_history":"Pending","confirmed_presumptive":"CONFIRMED","source":"https:\/\/www.gov.nu.ca\/health\/news\/one-new-case-covid-19-nunavut-1","date":"2020-12-17 11:44:30","hr_uid":null},{"id":476719,"province":"NU","city":"Pending","age":"Pending","travel_history":"Pending","confirmed_presumptive":"CONFIRMED","source":"https:\/\/www.gov.nu.ca\/health\/information\/covid-19-novel-coronavirus","date":"2020-12-15 14:14:40","hr_uid":null},{"id":476718,"province":"NU","city":"Pending","age":"Pending","travel_history":"Pending","confirmed_presumptive":"CONFIRMED","source":"https:\/\/www.gov.nu.ca\/health\/information\/covid-19-novel-coronavirus","date":"2020-12-15 14:14:40","hr_uid":null},{"id":467536,"province":"NU","city":"Arviat","age":"Pending","travel_history":"Pending","confirmed_presumptive":"CONFIRMED","source":"https:\/\/www.gov.nu.ca\/health\/news\/nine-new-cases-covid-19-nunavut-0","date":"2020-12-14 09:27:00","hr_uid":null},{"id":467535,"province":"NU","city":"Arviat","age":"Pending","travel_history":"Pending","confirmed_presumptive":"CONFIRMED","source":"https:\/\/www.gov.nu.ca\/health\/news\/nine-new-cases-covid-19-nunavut-0","date":"2020-12-14 09:27:00","hr_uid":null},{"id":467534,"province":"NU","city":"Arviat","age":"Pending","travel_history":"Pending","confirmed_presumptive":"CONFIRMED","source":"https:\/\/www.gov.nu.ca\/health\/news\/nine-new-cases-covid-19-nunavut-0","date":"2020-12-14 09:27:00","hr_uid":null},{"id":467533,"province":"NU","city":"Arviat","age":"Pending","travel_history":"Pending","confirmed_presumptive":"CONFIRMED","source":"https:\/\/www.gov.nu.ca\/health\/news\/nine-new-cases-covid-19-nunavut-0","date":"2020-12-14 09:27:00","hr_uid":null},{"id":467532,"province":"NU","city":"Arviat","age":"Pending","travel_history":"Pending","confirmed_presumptive":"CONFIRMED","source":"https:\/\/www.gov.nu.ca\/health\/news\/nine-new-cases-covid-19-nunavut-0","date":"2020-12-14 09:27:00","hr_uid":null},{"id":467531,"province":"NU","city":"Arviat","age":"Pending","travel_history":"Pending","confirmed_presumptive":"CONFIRMED","source":"https:\/\/www.gov.nu.ca\/health\/news\/nine-new-cases-covid-19-nunavut-0","date":"2020-12-14 09:27:00","hr_uid":null},{"id":467530,"province":"NU","city":"Arviat","age":"Pending","travel_history":"Pending","confirmed_presumptive":"CONFIRMED","source":"https:\/\/www.gov.nu.ca\/health\/news\/nine-new-cases-covid-19-nunavut-0","date":"2020-12-14 09:27:00","hr_uid":null},{"id":467529,"province":"NU","city":"Arviat","age":"Pending","travel_history":"Pending","confirmed_presumptive":"CONFIRMED","source":"https:\/\/www.gov.nu.ca\/health\/news\/nine-new-cases-covid-19-nunavut-0","date":"2020-12-14 09:27:00","hr_uid":null},{"id":467528,"province":"NU","city":"Arviat","age":"Pending","travel_history":"Pending","confirmed_presumptive":"CONFIRMED","source":"https:\/\/www.gov.nu.ca\/health\/news\/nine-new-cases-covid-19-nunavut-0","date":"2020-12-14 09:27:00","hr_uid":null},{"id":456744,"province":"NU","city":"Pending","age":"Pending","travel_history":"Pending","confirmed_presumptive":"CONFIRMED","source":"https:\/\/www.gov.nu.ca\/health\/information\/covid-19-novel-coronavirus","date":"2020-12-12 13:11:57","hr_uid":null},{"id":456743,"province":"NU","city":"Pending","age":"Pending","travel_history":"Pending","confirmed_presumptive":"CONFIRMED","source":"https:\/\/www.gov.nu.ca\/health\/information\/covid-19-novel-coronavirus","date":"2020-12-12 13:11:57","hr_uid":null},{"id":449223,"province":"NU","city":"Pending","age":"Pending","travel_history":"Pending","confirmed_presumptive":"CONFIRMED","source":"https:\/\/www.gov.nu.ca\/health\/news\/16-new-cases-covid-19-nunavut","date":"2020-12-11 09:22:33","hr_uid":null},{"id":449222,"province":"NU","city":"Pending","age":"Pending","travel_history":"Pending","confirmed_presumptive":"CONFIRMED","source":"https:\/\/www.gov.nu.ca\/health\/news\/16-new-cases-covid-19-nunavut","date":"2020-12-11 09:22:33","hr_uid":null},{"id":449221,"province":"NU","city":"Pending","age":"Pending","travel_history":"Pending","confirmed_presumptive":"CONFIRMED","source":"https:\/\/www.gov.nu.ca\/health\/news\/16-new-cases-covid-19-nunavut","date":"2020-12-11 09:22:33","hr_uid":null},{"id":449220,"province":"NU","city":"Pending","age":"Pending","travel_history":"Pending","confirmed_presumptive":"CONFIRMED","source":"https:\/\/www.gov.nu.ca\/health\/news\/16-new-cases-covid-19-nunavut","date":"2020-12-11 09:22:33","hr_uid":null},{"id":449219,"province":"NU","city":"Pending","age":"Pending","travel_history":"Pending","confirmed_presumptive":"CONFIRMED","source":"https:\/\/www.gov.nu.ca\/health\/news\/16-new-cases-covid-19-nunavut","date":"2020-12-11 09:22:33","hr_uid":null},{"id":449218,"province":"NU","city":"Pending","age":"Pending","travel_history":"Pending","confirmed_presumptive":"CONFIRMED","source":"https:\/\/www.gov.nu.ca\/health\/news\/16-new-cases-covid-19-nunavut","date":"2020-12-11 09:22:33","hr_uid":null},{"id":449217,"province":"NU","city":"Pending","age":"Pending","travel_history":"Pending","confirmed_presumptive":"CONFIRMED","source":"https:\/\/www.gov.nu.ca\/health\/news\/16-new-cases-covid-19-nunavut","date":"2020-12-11 09:22:33","hr_uid":null},{"id":449216,"province":"NU","city":"Pending","age":"Pending","travel_history":"Pending","confirmed_presumptive":"CONFIRMED","source":"https:\/\/www.gov.nu.ca\/health\/news\/16-new-cases-covid-19-nunavut","date":"2020-12-11 09:22:33","hr_uid":null},{"id":449215,"province":"NU","city":"Pending","age":"Pending","travel_history":"Pending","confirmed_presumptive":"CONFIRMED","source":"https:\/\/www.gov.nu.ca\/health\/news\/16-new-cases-covid-19-nunavut","date":"2020-12-11 09:22:33","hr_uid":null},{"id":449214,"province":"NU","city":"Pending","age":"Pending","travel_history":"Pending","confirmed_presumptive":"CONFIRMED","source":"https:\/\/www.gov.nu.ca\/health\/news\/16-new-cases-covid-19-nunavut","date":"2020-12-11 09:22:33","hr_uid":null},{"id":449213,"province":"NU","city":"Pending","age":"Pending","travel_history":"Pending","confirmed_presumptive":"CONFIRMED","source":"https:\/\/www.gov.nu.ca\/health\/news\/16-new-cases-covid-19-nunavut","date":"2020-12-11 09:22:33","hr_uid":null},{"id":449212,"province":"NU","city":"Pending","age":"Pending","travel_history":"Pending","confirmed_presumptive":"CONFIRMED","source":"https:\/\/www.gov.nu.ca\/health\/news\/16-new-cases-covid-19-nunavut","date":"2020-12-11 09:22:33","hr_uid":null},{"id":449211,"province":"NU","city":"Pending","age":"Pending","travel_history":"Pending","confirmed_presumptive":"CONFIRMED","source":"https:\/\/www.gov.nu.ca\/health\/news\/16-new-cases-covid-19-nunavut","date":"2020-12-11 09:22:33","hr_uid":null},{"id":449210,"province":"NU","city":"Pending","age":"Pending","travel_history":"Pending","confirmed_presumptive":"CONFIRMED","source":"https:\/\/www.gov.nu.ca\/health\/news\/16-new-cases-covid-19-nunavut","date":"2020-12-11 09:22:33","hr_uid":null},{"id":449209,"province":"NU","city":"Pending","age":"Pending","travel_history":"Pending","confirmed_presumptive":"CONFIRMED","source":"https:\/\/www.gov.nu.ca\/health\/news\/16-new-cases-covid-19-nunavut","date":"2020-12-11 09:22:33","hr_uid":null},{"id":449208,"province":"NU","city":"Pending","age":"Pending","travel_history":"Pending","confirmed_presumptive":"CONFIRMED","source":"https:\/\/www.gov.nu.ca\/health\/news\/16-new-cases-covid-19-nunavut","date":"2020-12-11 09:22:33","hr_uid":null},{"id":436571,"province":"NU","city":"Pending","age":"Pending","travel_history":"Pending","confirmed_presumptive":"CONFIRMED","source":"https:\/\/www.gov.nu.ca\/health\/news\/nine-new-cases-covid-19-nunavut","date":"2020-12-09 14:09:59","hr_uid":null},{"id":436570,"province":"NU","city":"Pending","age":"Pending","travel_history":"Pending","confirmed_presumptive":"CONFIRMED","source":"https:\/\/www.gov.nu.ca\/health\/news\/nine-new-cases-covid-19-nunavut","date":"2020-12-09 14:09:59","hr_uid":null},{"id":436569,"province":"NU","city":"Pending","age":"Pending","travel_history":"Pending","confirmed_presumptive":"CONFIRMED","source":"https:\/\/www.gov.nu.ca\/health\/news\/nine-new-cases-covid-19-nunavut","date":"2020-12-09 14:09:59","hr_uid":null},{"id":436568,"province":"NU","city":"Pending","age":"Pending","travel_history":"Pending","confirmed_presumptive":"CONFIRMED","source":"https:\/\/www.gov.nu.ca\/health\/news\/nine-new-cases-covid-19-nunavut","date":"2020-12-09 14:09:59","hr_uid":null},{"id":436567,"province":"NU","city":"Pending","age":"Pending","travel_history":"Pending","confirmed_presumptive":"CONFIRMED","source":"https:\/\/www.gov.nu.ca\/health\/news\/nine-new-cases-covid-19-nunavut","date":"2020-12-09 14:09:59","hr_uid":null},{"id":436566,"province":"NU","city":"Pending","age":"Pending","travel_history":"Pending","confirmed_presumptive":"CONFIRMED","source":"https:\/\/www.gov.nu.ca\/health\/news\/nine-new-cases-covid-19-nunavut","date":"2020-12-09 14:09:59","hr_uid":null},{"id":436565,"province":"NU","city":"Pending","age":"Pending","travel_history":"Pending","confirmed_presumptive":"CONFIRMED","source":"https:\/\/www.gov.nu.ca\/health\/news\/nine-new-cases-covid-19-nunavut","date":"2020-12-09 14:09:59","hr_uid":null},{"id":436564,"province":"NU","city":"Pending","age":"Pending","travel_history":"Pending","confirmed_presumptive":"CONFIRMED","source":"https:\/\/www.gov.nu.ca\/health\/news\/nine-new-cases-covid-19-nunavut","date":"2020-12-09 14:09:59","hr_uid":null},{"id":436563,"province":"NU","city":"Pending","age":"Pending","travel_history":"Pending","confirmed_presumptive":"CONFIRMED","source":"https:\/\/www.gov.nu.ca\/health\/news\/nine-new-cases-covid-19-nunavut","date":"2020-12-09 14:09:59","hr_uid":null},{"id":430041,"province":"NU","city":"Pending","age":"Pending","travel_history":"Pending","confirmed_presumptive":"CONFIRMED","source":"https:\/\/www.gov.nu.ca\/health\/information\/covid-19-novel-coronavirus","date":"2020-12-08 13:05:58","hr_uid":null},{"id":421688,"province":"NU","city":"Pending","age":"Pending","travel_history":"Pending","confirmed_presumptive":"CONFIRMED","source":"https:\/\/www.gov.nu.ca\/health\/news\/three-new-cases-covid-19-nunavut","date":"2020-12-07 09:22:33","hr_uid":null},{"id":421687,"province":"NU","city":"Pending","age":"Pending","travel_history":"Pending","confirmed_presumptive":"CONFIRMED","source":"https:\/\/www.gov.nu.ca\/health\/news\/three-new-cases-covid-19-nunavut","date":"2020-12-07 09:22:33","hr_uid":null},{"id":421686,"province":"NU","city":"Pending","age":"Pending","travel_history":"Pending","confirmed_presumptive":"CONFIRMED","source":"https:\/\/www.gov.nu.ca\/health\/news\/three-new-cases-covid-19-nunavut","date":"2020-12-07 09:22:33","hr_uid":null},{"id":420101,"province":"NU","city":"Pending","age":"Pending","travel_history":"Pending","confirmed_presumptive":"CONFIRMED","source":"https:\/\/www.gov.nu.ca\/health\/information\/covid-19-novel-coronavirus","date":"2020-12-06 17:09:06","hr_uid":null},{"id":420100,"province":"NU","city":"Pending","age":"Pending","travel_history":"Pending","confirmed_presumptive":"CONFIRMED","source":"https:\/\/www.gov.nu.ca\/health\/information\/covid-19-novel-coronavirus","date":"2020-12-06 17:09:06","hr_uid":null},{"id":410003,"province":"NU","city":"Pending","age":"Pending","travel_history":"Pending","confirmed_presumptive":"CONFIRMED","source":"https:\/\/gov.nu.ca\/health\/information\/covid-19-novel-coronavirus","date":"2020-12-05 12:21:11","hr_uid":null},{"id":410002,"province":"NU","city":"Pending","age":"Pending","travel_history":"Pending","confirmed_presumptive":"CONFIRMED","source":"https:\/\/gov.nu.ca\/health\/information\/covid-19-novel-coronavirus","date":"2020-12-05 12:21:11","hr_uid":null},{"id":410001,"province":"NU","city":"Pending","age":"Pending","travel_history":"Pending","confirmed_presumptive":"CONFIRMED","source":"https:\/\/gov.nu.ca\/health\/information\/covid-19-novel-coronavirus","date":"2020-12-05 12:21:11","hr_uid":null},{"id":410000,"province":"NU","city":"Pending","age":"Pending","travel_history":"Pending","confirmed_presumptive":"CONFIRMED","source":"https:\/\/gov.nu.ca\/health\/information\/covid-19-novel-coronavirus","date":"2020-12-05 12:21:11","hr_uid":null},{"id":409999,"province":"NU","city":"Pending","age":"Pending","travel_history":"Pending","confirmed_presumptive":"CONFIRMED","source":"https:\/\/gov.nu.ca\/health\/information\/covid-19-novel-coronavirus","date":"2020-12-05 12:21:11","hr_uid":null},{"id":409998,"province":"NU","city":"Pending","age":"Pending","travel_history":"Pending","confirmed_presumptive":"CONFIRMED","source":"https:\/\/gov.nu.ca\/health\/information\/covid-19-novel-coronavirus","date":"2020-12-05 12:21:11","hr_uid":null},{"id":409997,"province":"NU","city":"Pending","age":"Pending","travel_history":"Pending","confirmed_presumptive":"CONFIRMED","source":"https:\/\/gov.nu.ca\/health\/information\/covid-19-novel-coronavirus","date":"2020-12-05 12:21:11","hr_uid":null},{"id":409996,"province":"NU","city":"Pending","age":"Pending","travel_history":"Pending","confirmed_presumptive":"CONFIRMED","source":"https:\/\/gov.nu.ca\/health\/information\/covid-19-novel-coronavirus","date":"2020-12-05 12:21:11","hr_uid":null},{"id":403112,"province":"NU","city":"Pending","age":"Pending","travel_history":"Pending","confirmed_presumptive":"CONFIRMED","source":"https:\/\/gov.nu.ca\/health\/news\/eight-new-cases-covid-19-nunavut","date":"2020-12-04 13:03:54","hr_uid":null},{"id":403111,"province":"NU","city":"Pending","age":"Pending","travel_history":"Pending","confirmed_presumptive":"CONFIRMED","source":"https:\/\/gov.nu.ca\/health\/news\/eight-new-cases-covid-19-nunavut","date":"2020-12-04 13:03:54","hr_uid":null},{"id":403110,"province":"NU","city":"Pending","age":"Pending","travel_history":"Pending","confirmed_presumptive":"CONFIRMED","source":"https:\/\/gov.nu.ca\/health\/news\/eight-new-cases-covid-19-nunavut","date":"2020-12-04 13:03:54","hr_uid":null},{"id":403109,"province":"NU","city":"Pending","age":"Pending","travel_history":"Pending","confirmed_presumptive":"CONFIRMED","source":"https:\/\/gov.nu.ca\/health\/news\/eight-new-cases-covid-19-nunavut","date":"2020-12-04 13:03:54","hr_uid":null},{"id":403108,"province":"NU","city":"Pending","age":"Pending","travel_history":"Pending","confirmed_presumptive":"CONFIRMED","source":"https:\/\/gov.nu.ca\/health\/news\/eight-new-cases-covid-19-nunavut","date":"2020-12-04 13:03:54","hr_uid":null},{"id":403107,"province":"NU","city":"Pending","age":"Pending","travel_history":"Pending","confirmed_presumptive":"CONFIRMED","source":"https:\/\/gov.nu.ca\/health\/news\/eight-new-cases-covid-19-nunavut","date":"2020-12-04 13:03:54","hr_uid":null},{"id":403106,"province":"NU","city":"Pending","age":"Pending","travel_history":"Pending","confirmed_presumptive":"CONFIRMED","source":"https:\/\/gov.nu.ca\/health\/news\/eight-new-cases-covid-19-nunavut","date":"2020-12-04 13:03:54","hr_uid":null},{"id":403105,"province":"NU","city":"Pending","age":"Pending","travel_history":"Pending","confirmed_presumptive":"CONFIRMED","source":"https:\/\/gov.nu.ca\/health\/news\/eight-new-cases-covid-19-nunavut","date":"2020-12-04 13:03:54","hr_uid":null},{"id":396782,"province":"NU","city":"Pending","age":"Pending","travel_history":"Pending","confirmed_presumptive":"CONFIRMED","source":"https:\/\/www.gov.nu.ca\/health\/information\/covid-19-novel-coronavirus","date":"2020-12-03 11:54:39","hr_uid":null},{"id":396781,"province":"NU","city":"Pending","age":"Pending","travel_history":"Pending","confirmed_presumptive":"CONFIRMED","source":"https:\/\/www.gov.nu.ca\/health\/information\/covid-19-novel-coronavirus","date":"2020-12-03 11:54:39","hr_uid":null},{"id":396780,"province":"NU","city":"Pending","age":"Pending","travel_history":"Pending","confirmed_presumptive":"CONFIRMED","source":"https:\/\/www.gov.nu.ca\/health\/information\/covid-19-novel-coronavirus","date":"2020-12-03 11:54:39","hr_uid":null},{"id":396779,"province":"NU","city":"Pending","age":"Pending","travel_history":"Pending","confirmed_presumptive":"CONFIRMED","source":"https:\/\/www.gov.nu.ca\/health\/information\/covid-19-novel-coronavirus","date":"2020-12-03 11:54:39","hr_uid":null}],"first_page_url":"https:\/\/api.covid19tracker.ca\/cases?page=1","from":1,"last_page":3,"last_page_url":"https:\/\/api.covid19tracker.ca\/cases?page=3","links":[{"url":null,"label":"&laquo; Previous","active":false},{"url":"https:\/\/api.covid19tracker.ca\/cases?page=1","label":"1","active":true},{"url":"https:\/\/api.covid19tracker.ca\/cases?page=2","label":"2","active":false},{"url":"https:\/\/api.covid19tracker.ca\/cases?page=3","label":"3","active":false},{"url":"https:\/\/api.covid19tracker.ca\/cases?page=2","label":"Next &raquo;","active":false}],"next_page_url":"https:\/\/api.covid19tracker.ca\/cases?page=2","path":"https:\/\/api.covid19tracker.ca\/cases","per_page":100,"prev_page_url":null,"to":100,"total":294}