{"current_page":1,"data":[{"id":798931,"province":"ON","city":"Pending","age":"Pending","travel_history":"Pending","confirmed_presumptive":"CONFIRMED","source":"https:\/\/covid19tracker.ca\/sources.html","date":"2021-02-03 16:00:08","hr_uid":null},{"id":798930,"province":"ON","city":"Pending","age":"Pending","travel_history":"Pending","confirmed_presumptive":"CONFIRMED","source":"https:\/\/covid19tracker.ca\/sources.html","date":"2021-02-03 16:00:08","hr_uid":null},{"id":798929,"province":"ON","city":"Pending","age":"Pending","travel_history":"Pending","confirmed_presumptive":"CONFIRMED","source":"https:\/\/covid19tracker.ca\/sources.html","date":"2021-02-03 16:00:08","hr_uid":null},{"id":798928,"province":"ON","city":"Pending","age":"Pending","travel_history":"Pending","confirmed_presumptive":"CONFIRMED","source":"https:\/\/covid19tracker.ca\/sources.html","date":"2021-02-03 16:00:08","hr_uid":null},{"id":798927,"province":"ON","city":"Pending","age":"Pending","travel_history":"Pending","confirmed_presumptive":"CONFIRMED","source":"https:\/\/covid19tracker.ca\/sources.html","date":"2021-02-03 16:00:08","hr_uid":null},{"id":798926,"province":"ON","city":"Pending","age":"Pending","travel_history":"Pending","confirmed_presumptive":"CONFIRMED","source":"https:\/\/covid19tracker.ca\/sources.html","date":"2021-02-03 16:00:08","hr_uid":null},{"id":798925,"province":"ON","city":"Pending","age":"Pending","travel_history":"Pending","confirmed_presumptive":"CONFIRMED","source":"https:\/\/covid19tracker.ca\/sources.html","date":"2021-02-03 16:00:08","hr_uid":null},{"id":798924,"province":"ON","city":"Pending","age":"Pending","travel_history":"Pending","confirmed_presumptive":"CONFIRMED","source":"https:\/\/covid19tracker.ca\/sources.html","date":"2021-02-03 16:00:08","hr_uid":null},{"id":798923,"province":"ON","city":"Pending","age":"Pending","travel_history":"Pending","confirmed_presumptive":"CONFIRMED","source":"https:\/\/covid19tracker.ca\/sources.html","date":"2021-02-03 16:00:08","hr_uid":null},{"id":798922,"province":"ON","city":"Pending","age":"Pending","travel_history":"Pending","confirmed_presumptive":"CONFIRMED","source":"https:\/\/covid19tracker.ca\/sources.html","date":"2021-02-03 16:00:08","hr_uid":null},{"id":798921,"province":"ON","city":"Pending","age":"Pending","travel_history":"Pending","confirmed_presumptive":"CONFIRMED","source":"https:\/\/covid19tracker.ca\/sources.html","date":"2021-02-03 16:00:08","hr_uid":null},{"id":798920,"province":"ON","city":"Pending","age":"Pending","travel_history":"Pending","confirmed_presumptive":"CONFIRMED","source":"https:\/\/covid19tracker.ca\/sources.html","date":"2021-02-03 16:00:08","hr_uid":null},{"id":798919,"province":"ON","city":"Pending","age":"Pending","travel_history":"Pending","confirmed_presumptive":"CONFIRMED","source":"https:\/\/covid19tracker.ca\/sources.html","date":"2021-02-03 16:00:08","hr_uid":null},{"id":798918,"province":"ON","city":"Pending","age":"Pending","travel_history":"Pending","confirmed_presumptive":"CONFIRMED","source":"https:\/\/covid19tracker.ca\/sources.html","date":"2021-02-03 16:00:08","hr_uid":null},{"id":798917,"province":"ON","city":"Pending","age":"Pending","travel_history":"Pending","confirmed_presumptive":"CONFIRMED","source":"https:\/\/covid19tracker.ca\/sources.html","date":"2021-02-03 16:00:08","hr_uid":null},{"id":798916,"province":"ON","city":"Pending","age":"Pending","travel_history":"Pending","confirmed_presumptive":"CONFIRMED","source":"https:\/\/covid19tracker.ca\/sources.html","date":"2021-02-03 16:00:08","hr_uid":null},{"id":798915,"province":"ON","city":"Pending","age":"Pending","travel_history":"Pending","confirmed_presumptive":"CONFIRMED","source":"https:\/\/covid19tracker.ca\/sources.html","date":"2021-02-03 16:00:08","hr_uid":null},{"id":798914,"province":"ON","city":"Pending","age":"Pending","travel_history":"Pending","confirmed_presumptive":"CONFIRMED","source":"https:\/\/covid19tracker.ca\/sources.html","date":"2021-02-03 16:00:08","hr_uid":null},{"id":798913,"province":"ON","city":"Pending","age":"Pending","travel_history":"Pending","confirmed_presumptive":"CONFIRMED","source":"https:\/\/covid19tracker.ca\/sources.html","date":"2021-02-03 16:00:08","hr_uid":null},{"id":798912,"province":"ON","city":"Pending","age":"Pending","travel_history":"Pending","confirmed_presumptive":"CONFIRMED","source":"https:\/\/covid19tracker.ca\/sources.html","date":"2021-02-03 16:00:08","hr_uid":null},{"id":798911,"province":"ON","city":"Pending","age":"Pending","travel_history":"Pending","confirmed_presumptive":"CONFIRMED","source":"https:\/\/covid19tracker.ca\/sources.html","date":"2021-02-03 16:00:08","hr_uid":null},{"id":798910,"province":"ON","city":"Pending","age":"Pending","travel_history":"Pending","confirmed_presumptive":"CONFIRMED","source":"https:\/\/covid19tracker.ca\/sources.html","date":"2021-02-03 16:00:08","hr_uid":null},{"id":798909,"province":"ON","city":"Pending","age":"Pending","travel_history":"Pending","confirmed_presumptive":"CONFIRMED","source":"https:\/\/covid19tracker.ca\/sources.html","date":"2021-02-03 16:00:08","hr_uid":null},{"id":798908,"province":"ON","city":"Pending","age":"Pending","travel_history":"Pending","confirmed_presumptive":"CONFIRMED","source":"https:\/\/covid19tracker.ca\/sources.html","date":"2021-02-03 16:00:08","hr_uid":null},{"id":798907,"province":"ON","city":"Pending","age":"Pending","travel_history":"Pending","confirmed_presumptive":"CONFIRMED","source":"https:\/\/covid19tracker.ca\/sources.html","date":"2021-02-03 16:00:08","hr_uid":null},{"id":798906,"province":"ON","city":"Pending","age":"Pending","travel_history":"Pending","confirmed_presumptive":"CONFIRMED","source":"https:\/\/covid19tracker.ca\/sources.html","date":"2021-02-03 16:00:08","hr_uid":null},{"id":798905,"province":"ON","city":"Pending","age":"Pending","travel_history":"Pending","confirmed_presumptive":"CONFIRMED","source":"https:\/\/covid19tracker.ca\/sources.html","date":"2021-02-03 16:00:08","hr_uid":null},{"id":798904,"province":"ON","city":"Pending","age":"Pending","travel_history":"Pending","confirmed_presumptive":"CONFIRMED","source":"https:\/\/covid19tracker.ca\/sources.html","date":"2021-02-03 16:00:08","hr_uid":null},{"id":798903,"province":"ON","city":"Pending","age":"Pending","travel_history":"Pending","confirmed_presumptive":"CONFIRMED","source":"https:\/\/covid19tracker.ca\/sources.html","date":"2021-02-03 16:00:08","hr_uid":null},{"id":798902,"province":"ON","city":"Pending","age":"Pending","travel_history":"Pending","confirmed_presumptive":"CONFIRMED","source":"https:\/\/covid19tracker.ca\/sources.html","date":"2021-02-03 16:00:08","hr_uid":null},{"id":798901,"province":"ON","city":"Pending","age":"Pending","travel_history":"Pending","confirmed_presumptive":"CONFIRMED","source":"https:\/\/covid19tracker.ca\/sources.html","date":"2021-02-03 16:00:08","hr_uid":null},{"id":798900,"province":"ON","city":"Pending","age":"Pending","travel_history":"Pending","confirmed_presumptive":"CONFIRMED","source":"https:\/\/covid19tracker.ca\/sources.html","date":"2021-02-03 16:00:08","hr_uid":null},{"id":798899,"province":"ON","city":"Pending","age":"Pending","travel_history":"Pending","confirmed_presumptive":"CONFIRMED","source":"https:\/\/covid19tracker.ca\/sources.html","date":"2021-02-03 16:00:08","hr_uid":null},{"id":798898,"province":"ON","city":"Pending","age":"Pending","travel_history":"Pending","confirmed_presumptive":"CONFIRMED","source":"https:\/\/covid19tracker.ca\/sources.html","date":"2021-02-03 16:00:08","hr_uid":null},{"id":798897,"province":"ON","city":"Pending","age":"Pending","travel_history":"Pending","confirmed_presumptive":"CONFIRMED","source":"https:\/\/covid19tracker.ca\/sources.html","date":"2021-02-03 16:00:08","hr_uid":null},{"id":798896,"province":"ON","city":"Pending","age":"Pending","travel_history":"Pending","confirmed_presumptive":"CONFIRMED","source":"https:\/\/covid19tracker.ca\/sources.html","date":"2021-02-03 16:00:08","hr_uid":null},{"id":798895,"province":"ON","city":"Pending","age":"Pending","travel_history":"Pending","confirmed_presumptive":"CONFIRMED","source":"https:\/\/covid19tracker.ca\/sources.html","date":"2021-02-03 16:00:08","hr_uid":null},{"id":798894,"province":"ON","city":"Pending","age":"Pending","travel_history":"Pending","confirmed_presumptive":"CONFIRMED","source":"https:\/\/covid19tracker.ca\/sources.html","date":"2021-02-03 16:00:08","hr_uid":null},{"id":798893,"province":"ON","city":"Pending","age":"Pending","travel_history":"Pending","confirmed_presumptive":"CONFIRMED","source":"https:\/\/covid19tracker.ca\/sources.html","date":"2021-02-03 16:00:08","hr_uid":null},{"id":798892,"province":"ON","city":"Pending","age":"Pending","travel_history":"Pending","confirmed_presumptive":"CONFIRMED","source":"https:\/\/covid19tracker.ca\/sources.html","date":"2021-02-03 16:00:08","hr_uid":null},{"id":798891,"province":"ON","city":"Pending","age":"Pending","travel_history":"Pending","confirmed_presumptive":"CONFIRMED","source":"https:\/\/covid19tracker.ca\/sources.html","date":"2021-02-03 16:00:08","hr_uid":null},{"id":798890,"province":"ON","city":"Pending","age":"Pending","travel_history":"Pending","confirmed_presumptive":"CONFIRMED","source":"https:\/\/covid19tracker.ca\/sources.html","date":"2021-02-03 16:00:08","hr_uid":null},{"id":798889,"province":"ON","city":"Pending","age":"Pending","travel_history":"Pending","confirmed_presumptive":"CONFIRMED","source":"https:\/\/covid19tracker.ca\/sources.html","date":"2021-02-03 16:00:08","hr_uid":null},{"id":798888,"province":"ON","city":"Pending","age":"Pending","travel_history":"Pending","confirmed_presumptive":"CONFIRMED","source":"https:\/\/covid19tracker.ca\/sources.html","date":"2021-02-03 16:00:08","hr_uid":null},{"id":798887,"province":"ON","city":"Pending","age":"Pending","travel_history":"Pending","confirmed_presumptive":"CONFIRMED","source":"https:\/\/covid19tracker.ca\/sources.html","date":"2021-02-03 16:00:08","hr_uid":null},{"id":798886,"province":"ON","city":"Pending","age":"Pending","travel_history":"Pending","confirmed_presumptive":"CONFIRMED","source":"https:\/\/covid19tracker.ca\/sources.html","date":"2021-02-03 16:00:08","hr_uid":null},{"id":798885,"province":"ON","city":"Pending","age":"Pending","travel_history":"Pending","confirmed_presumptive":"CONFIRMED","source":"https:\/\/covid19tracker.ca\/sources.html","date":"2021-02-03 16:00:08","hr_uid":null},{"id":798884,"province":"ON","city":"Pending","age":"Pending","travel_history":"Pending","confirmed_presumptive":"CONFIRMED","source":"https:\/\/covid19tracker.ca\/sources.html","date":"2021-02-03 16:00:08","hr_uid":null},{"id":798883,"province":"ON","city":"Pending","age":"Pending","travel_history":"Pending","confirmed_presumptive":"CONFIRMED","source":"https:\/\/covid19tracker.ca\/sources.html","date":"2021-02-03 16:00:08","hr_uid":null},{"id":798882,"province":"ON","city":"Pending","age":"Pending","travel_history":"Pending","confirmed_presumptive":"CONFIRMED","source":"https:\/\/covid19tracker.ca\/sources.html","date":"2021-02-03 16:00:08","hr_uid":null},{"id":798881,"province":"ON","city":"Pending","age":"Pending","travel_history":"Pending","confirmed_presumptive":"CONFIRMED","source":"https:\/\/covid19tracker.ca\/sources.html","date":"2021-02-03 16:00:08","hr_uid":null},{"id":798880,"province":"ON","city":"Pending","age":"Pending","travel_history":"Pending","confirmed_presumptive":"CONFIRMED","source":"https:\/\/covid19tracker.ca\/sources.html","date":"2021-02-03 16:00:08","hr_uid":null},{"id":798879,"province":"ON","city":"Pending","age":"Pending","travel_history":"Pending","confirmed_presumptive":"CONFIRMED","source":"https:\/\/covid19tracker.ca\/sources.html","date":"2021-02-03 16:00:08","hr_uid":null},{"id":798878,"province":"ON","city":"Pending","age":"Pending","travel_history":"Pending","confirmed_presumptive":"CONFIRMED","source":"https:\/\/covid19tracker.ca\/sources.html","date":"2021-02-03 16:00:08","hr_uid":null},{"id":798877,"province":"ON","city":"Pending","age":"Pending","travel_history":"Pending","confirmed_presumptive":"CONFIRMED","source":"https:\/\/covid19tracker.ca\/sources.html","date":"2021-02-03 16:00:08","hr_uid":null},{"id":798876,"province":"ON","city":"Pending","age":"Pending","travel_history":"Pending","confirmed_presumptive":"CONFIRMED","source":"https:\/\/covid19tracker.ca\/sources.html","date":"2021-02-03 16:00:08","hr_uid":null},{"id":798875,"province":"ON","city":"Pending","age":"Pending","travel_history":"Pending","confirmed_presumptive":"CONFIRMED","source":"https:\/\/covid19tracker.ca\/sources.html","date":"2021-02-03 16:00:08","hr_uid":null},{"id":798874,"province":"ON","city":"Pending","age":"Pending","travel_history":"Pending","confirmed_presumptive":"CONFIRMED","source":"https:\/\/covid19tracker.ca\/sources.html","date":"2021-02-03 16:00:08","hr_uid":null},{"id":798873,"province":"ON","city":"Pending","age":"Pending","travel_history":"Pending","confirmed_presumptive":"CONFIRMED","source":"https:\/\/covid19tracker.ca\/sources.html","date":"2021-02-03 16:00:08","hr_uid":null},{"id":798872,"province":"ON","city":"Pending","age":"Pending","travel_history":"Pending","confirmed_presumptive":"CONFIRMED","source":"https:\/\/covid19tracker.ca\/sources.html","date":"2021-02-03 16:00:08","hr_uid":null},{"id":798871,"province":"ON","city":"Pending","age":"Pending","travel_history":"Pending","confirmed_presumptive":"CONFIRMED","source":"https:\/\/covid19tracker.ca\/sources.html","date":"2021-02-03 16:00:08","hr_uid":null},{"id":798870,"province":"ON","city":"Pending","age":"Pending","travel_history":"Pending","confirmed_presumptive":"CONFIRMED","source":"https:\/\/covid19tracker.ca\/sources.html","date":"2021-02-03 16:00:08","hr_uid":null},{"id":798869,"province":"ON","city":"Pending","age":"Pending","travel_history":"Pending","confirmed_presumptive":"CONFIRMED","source":"https:\/\/covid19tracker.ca\/sources.html","date":"2021-02-03 16:00:08","hr_uid":null},{"id":798868,"province":"ON","city":"Pending","age":"Pending","travel_history":"Pending","confirmed_presumptive":"CONFIRMED","source":"https:\/\/covid19tracker.ca\/sources.html","date":"2021-02-03 16:00:08","hr_uid":null},{"id":798867,"province":"ON","city":"Pending","age":"Pending","travel_history":"Pending","confirmed_presumptive":"CONFIRMED","source":"https:\/\/covid19tracker.ca\/sources.html","date":"2021-02-03 16:00:08","hr_uid":null},{"id":798866,"province":"ON","city":"Pending","age":"Pending","travel_history":"Pending","confirmed_presumptive":"CONFIRMED","source":"https:\/\/covid19tracker.ca\/sources.html","date":"2021-02-03 16:00:08","hr_uid":null},{"id":798865,"province":"ON","city":"Pending","age":"Pending","travel_history":"Pending","confirmed_presumptive":"CONFIRMED","source":"https:\/\/covid19tracker.ca\/sources.html","date":"2021-02-03 16:00:08","hr_uid":null},{"id":798864,"province":"ON","city":"Pending","age":"Pending","travel_history":"Pending","confirmed_presumptive":"CONFIRMED","source":"https:\/\/covid19tracker.ca\/sources.html","date":"2021-02-03 16:00:08","hr_uid":null},{"id":798863,"province":"ON","city":"Pending","age":"Pending","travel_history":"Pending","confirmed_presumptive":"CONFIRMED","source":"https:\/\/covid19tracker.ca\/sources.html","date":"2021-02-03 16:00:08","hr_uid":null},{"id":798862,"province":"ON","city":"Pending","age":"Pending","travel_history":"Pending","confirmed_presumptive":"CONFIRMED","source":"https:\/\/covid19tracker.ca\/sources.html","date":"2021-02-03 16:00:08","hr_uid":null},{"id":798861,"province":"ON","city":"Pending","age":"Pending","travel_history":"Pending","confirmed_presumptive":"CONFIRMED","source":"https:\/\/covid19tracker.ca\/sources.html","date":"2021-02-03 16:00:08","hr_uid":null},{"id":798860,"province":"ON","city":"Pending","age":"Pending","travel_history":"Pending","confirmed_presumptive":"CONFIRMED","source":"https:\/\/covid19tracker.ca\/sources.html","date":"2021-02-03 16:00:08","hr_uid":null},{"id":798859,"province":"ON","city":"Pending","age":"Pending","travel_history":"Pending","confirmed_presumptive":"CONFIRMED","source":"https:\/\/covid19tracker.ca\/sources.html","date":"2021-02-03 16:00:08","hr_uid":null},{"id":798858,"province":"ON","city":"Pending","age":"Pending","travel_history":"Pending","confirmed_presumptive":"CONFIRMED","source":"https:\/\/covid19tracker.ca\/sources.html","date":"2021-02-03 16:00:08","hr_uid":null},{"id":798857,"province":"ON","city":"Pending","age":"Pending","travel_history":"Pending","confirmed_presumptive":"CONFIRMED","source":"https:\/\/covid19tracker.ca\/sources.html","date":"2021-02-03 16:00:08","hr_uid":null},{"id":798856,"province":"ON","city":"Pending","age":"Pending","travel_history":"Pending","confirmed_presumptive":"CONFIRMED","source":"https:\/\/covid19tracker.ca\/sources.html","date":"2021-02-03 16:00:08","hr_uid":null},{"id":798855,"province":"ON","city":"Pending","age":"Pending","travel_history":"Pending","confirmed_presumptive":"CONFIRMED","source":"https:\/\/covid19tracker.ca\/sources.html","date":"2021-02-03 16:00:08","hr_uid":null},{"id":798854,"province":"ON","city":"Pending","age":"Pending","travel_history":"Pending","confirmed_presumptive":"CONFIRMED","source":"https:\/\/covid19tracker.ca\/sources.html","date":"2021-02-03 16:00:08","hr_uid":null},{"id":798853,"province":"ON","city":"Pending","age":"Pending","travel_history":"Pending","confirmed_presumptive":"CONFIRMED","source":"https:\/\/covid19tracker.ca\/sources.html","date":"2021-02-03 16:00:08","hr_uid":null},{"id":798852,"province":"ON","city":"Pending","age":"Pending","travel_history":"Pending","confirmed_presumptive":"CONFIRMED","source":"https:\/\/covid19tracker.ca\/sources.html","date":"2021-02-03 16:00:08","hr_uid":null},{"id":798851,"province":"ON","city":"Pending","age":"Pending","travel_history":"Pending","confirmed_presumptive":"CONFIRMED","source":"https:\/\/covid19tracker.ca\/sources.html","date":"2021-02-03 16:00:08","hr_uid":null},{"id":798850,"province":"ON","city":"Pending","age":"Pending","travel_history":"Pending","confirmed_presumptive":"CONFIRMED","source":"https:\/\/covid19tracker.ca\/sources.html","date":"2021-02-03 16:00:08","hr_uid":null},{"id":798849,"province":"ON","city":"Pending","age":"Pending","travel_history":"Pending","confirmed_presumptive":"CONFIRMED","source":"https:\/\/covid19tracker.ca\/sources.html","date":"2021-02-03 16:00:08","hr_uid":null},{"id":798848,"province":"ON","city":"Pending","age":"Pending","travel_history":"Pending","confirmed_presumptive":"CONFIRMED","source":"https:\/\/covid19tracker.ca\/sources.html","date":"2021-02-03 16:00:08","hr_uid":null},{"id":798847,"province":"ON","city":"Pending","age":"Pending","travel_history":"Pending","confirmed_presumptive":"CONFIRMED","source":"https:\/\/covid19tracker.ca\/sources.html","date":"2021-02-03 16:00:08","hr_uid":null},{"id":798846,"province":"ON","city":"Pending","age":"Pending","travel_history":"Pending","confirmed_presumptive":"CONFIRMED","source":"https:\/\/covid19tracker.ca\/sources.html","date":"2021-02-03 16:00:08","hr_uid":null},{"id":798845,"province":"ON","city":"Pending","age":"Pending","travel_history":"Pending","confirmed_presumptive":"CONFIRMED","source":"https:\/\/covid19tracker.ca\/sources.html","date":"2021-02-03 16:00:08","hr_uid":null},{"id":798844,"province":"ON","city":"Pending","age":"Pending","travel_history":"Pending","confirmed_presumptive":"CONFIRMED","source":"https:\/\/covid19tracker.ca\/sources.html","date":"2021-02-03 16:00:08","hr_uid":null},{"id":798843,"province":"ON","city":"Pending","age":"Pending","travel_history":"Pending","confirmed_presumptive":"CONFIRMED","source":"https:\/\/covid19tracker.ca\/sources.html","date":"2021-02-03 16:00:08","hr_uid":null},{"id":798842,"province":"ON","city":"Pending","age":"Pending","travel_history":"Pending","confirmed_presumptive":"CONFIRMED","source":"https:\/\/covid19tracker.ca\/sources.html","date":"2021-02-03 16:00:08","hr_uid":null},{"id":798841,"province":"ON","city":"Pending","age":"Pending","travel_history":"Pending","confirmed_presumptive":"CONFIRMED","source":"https:\/\/covid19tracker.ca\/sources.html","date":"2021-02-03 16:00:08","hr_uid":null},{"id":798840,"province":"ON","city":"Pending","age":"Pending","travel_history":"Pending","confirmed_presumptive":"CONFIRMED","source":"https:\/\/covid19tracker.ca\/sources.html","date":"2021-02-03 16:00:08","hr_uid":null},{"id":798839,"province":"ON","city":"Pending","age":"Pending","travel_history":"Pending","confirmed_presumptive":"CONFIRMED","source":"https:\/\/covid19tracker.ca\/sources.html","date":"2021-02-03 16:00:08","hr_uid":null},{"id":798838,"province":"ON","city":"Pending","age":"Pending","travel_history":"Pending","confirmed_presumptive":"CONFIRMED","source":"https:\/\/covid19tracker.ca\/sources.html","date":"2021-02-03 16:00:08","hr_uid":null},{"id":798837,"province":"ON","city":"Pending","age":"Pending","travel_history":"Pending","confirmed_presumptive":"CONFIRMED","source":"https:\/\/covid19tracker.ca\/sources.html","date":"2021-02-03 16:00:08","hr_uid":null},{"id":798836,"province":"ON","city":"Pending","age":"Pending","travel_history":"Pending","confirmed_presumptive":"CONFIRMED","source":"https:\/\/covid19tracker.ca\/sources.html","date":"2021-02-03 16:00:08","hr_uid":null},{"id":798835,"province":"ON","city":"Pending","age":"Pending","travel_history":"Pending","confirmed_presumptive":"CONFIRMED","source":"https:\/\/covid19tracker.ca\/sources.html","date":"2021-02-03 16:00:08","hr_uid":null},{"id":798834,"province":"ON","city":"Pending","age":"Pending","travel_history":"Pending","confirmed_presumptive":"CONFIRMED","source":"https:\/\/covid19tracker.ca\/sources.html","date":"2021-02-03 16:00:08","hr_uid":null},{"id":798833,"province":"ON","city":"Pending","age":"Pending","travel_history":"Pending","confirmed_presumptive":"CONFIRMED","source":"https:\/\/covid19tracker.ca\/sources.html","date":"2021-02-03 16:00:08","hr_uid":null},{"id":798832,"province":"ON","city":"Pending","age":"Pending","travel_history":"Pending","confirmed_presumptive":"CONFIRMED","source":"https:\/\/covid19tracker.ca\/sources.html","date":"2021-02-03 16:00:08","hr_uid":null}],"first_page_url":"https:\/\/api.covid19tracker.ca\/cases?page=1","from":1,"last_page":2767,"last_page_url":"https:\/\/api.covid19tracker.ca\/cases?page=2767","links":[{"url":null,"label":"&laquo; Previous","active":false},{"url":"https:\/\/api.covid19tracker.ca\/cases?page=1","label":1,"active":true},{"url":"https:\/\/api.covid19tracker.ca\/cases?page=2","label":2,"active":false},{"url":"https:\/\/api.covid19tracker.ca\/cases?page=3","label":3,"active":false},{"url":"https:\/\/api.covid19tracker.ca\/cases?page=4","label":4,"active":false},{"url":"https:\/\/api.covid19tracker.ca\/cases?page=5","label":5,"active":false},{"url":"https:\/\/api.covid19tracker.ca\/cases?page=6","label":6,"active":false},{"url":"https:\/\/api.covid19tracker.ca\/cases?page=7","label":7,"active":false},{"url":"https:\/\/api.covid19tracker.ca\/cases?page=8","label":8,"active":false},{"url":"https:\/\/api.covid19tracker.ca\/cases?page=9","label":9,"active":false},{"url":"https:\/\/api.covid19tracker.ca\/cases?page=10","label":10,"active":false},{"url":null,"label":"...","active":false},{"url":"https:\/\/api.covid19tracker.ca\/cases?page=2766","label":2766,"active":false},{"url":"https:\/\/api.covid19tracker.ca\/cases?page=2767","label":2767,"active":false},{"url":"https:\/\/api.covid19tracker.ca\/cases?page=2","label":"Next &raquo;","active":false}],"next_page_url":"https:\/\/api.covid19tracker.ca\/cases?page=2","path":"https:\/\/api.covid19tracker.ca\/cases","per_page":100,"prev_page_url":null,"to":100,"total":276617}