{"current_page":1,"data":[{"id":793601,"province":"PE","city":"Pending","age":"Pending","travel_history":"Pending","confirmed_presumptive":"CONFIRMED","source":"https:\/\/www.cbc.ca\/news\/canada\/prince-edward-island\/pei-covid-19-cases-feb-1-1.5896138","date":"2021-02-01 16:32:34","hr_uid":null},{"id":793600,"province":"PE","city":"Pending","age":"Pending","travel_history":"Pending","confirmed_presumptive":"CONFIRMED","source":"https:\/\/www.cbc.ca\/news\/canada\/prince-edward-island\/pei-covid-19-cases-feb-1-1.5896138","date":"2021-02-01 16:32:34","hr_uid":null},{"id":762817,"province":"PE","city":"Pending","age":"Pending","travel_history":"Pending","confirmed_presumptive":"CONFIRMED","source":"https:\/\/www.princeedwardisland.ca\/en\/information\/health-and-wellness\/pei-covid-19-case-data","date":"2021-01-24 16:39:10","hr_uid":null},{"id":744441,"province":"PE","city":"Pending","age":"Pending","travel_history":"Pending","confirmed_presumptive":"CONFIRMED","source":"https:\/\/www.princeedwardisland.ca\/en\/covid19","date":"2021-01-19 15:47:47","hr_uid":null},{"id":724846,"province":"PE","city":"Pending","age":"Pending","travel_history":"Pending","confirmed_presumptive":"CONFIRMED","source":"https:\/\/www.youtube.com\/watch?v=a2r9QEpUen0","date":"2021-01-19 09:11:49","hr_uid":null},{"id":724845,"province":"PE","city":"Pending","age":"Pending","travel_history":"Pending","confirmed_presumptive":"CONFIRMED","source":"https:\/\/www.youtube.com\/watch?v=a2r9QEpUen0","date":"2021-01-19 09:11:49","hr_uid":null},{"id":724844,"province":"PE","city":"Pending","age":"Pending","travel_history":"Pending","confirmed_presumptive":"CONFIRMED","source":"https:\/\/twitter.com\/InfoPEI\/status\/1351264952250736642?ref_src=twsrc%5Egoogle%7Ctwcamp%5Eserp%7Ctwgr%5Etweet","date":"2021-01-18 16:32:15","hr_uid":null},{"id":724843,"province":"PE","city":"Pending","age":"Pending","travel_history":"Pending","confirmed_presumptive":"CONFIRMED","source":"https:\/\/twitter.com\/InfoPEI\/status\/1351264952250736642?ref_src=twsrc%5Egoogle%7Ctwcamp%5Eserp%7Ctwgr%5Etweet","date":"2021-01-18 16:32:15","hr_uid":null},{"id":724842,"province":"PE","city":"Pending","age":"Pending","travel_history":"Pending","confirmed_presumptive":"CONFIRMED","source":"https:\/\/twitter.com\/InfoPEI\/status\/1351264952250736642?ref_src=twsrc%5Egoogle%7Ctwcamp%5Eserp%7Ctwgr%5Etweet","date":"2021-01-18 16:32:15","hr_uid":null},{"id":724841,"province":"PE","city":"Pending","age":"Pending","travel_history":"Pending","confirmed_presumptive":"CONFIRMED","source":"https:\/\/twitter.com\/InfoPEI\/status\/1351264952250736642?ref_src=twsrc%5Egoogle%7Ctwcamp%5Eserp%7Ctwgr%5Etweet","date":"2021-01-18 16:32:15","hr_uid":null},{"id":679851,"province":"PE","city":"Pending","age":"Pending","travel_history":"Pending","confirmed_presumptive":"CONFIRMED","source":"https:\/\/www.youtube.com\/watch?v=462108aub-Q","date":"2021-01-12 10:18:57","hr_uid":null},{"id":644158,"province":"PE","city":"Pending","age":"Pending","travel_history":"Pending","confirmed_presumptive":"CONFIRMED","source":"https:\/\/www.theguardian.pe.ca\/news\/local\/one-new-case-of-covid-19-announced-in-pei-on-jan-7-538487\/","date":"2021-01-07 17:17:56","hr_uid":null},{"id":631208,"province":"PE","city":"Pending","age":"Pending","travel_history":"Pending","confirmed_presumptive":"CONFIRMED","source":"https:\/\/www.princeedwardisland.ca\/en\/news\/four-new-covid-19-cases-testing-encouraged-workers-travelling-nb","date":"2021-01-06 13:43:09","hr_uid":null},{"id":631207,"province":"PE","city":"Pending","age":"Pending","travel_history":"Pending","confirmed_presumptive":"CONFIRMED","source":"https:\/\/www.princeedwardisland.ca\/en\/news\/four-new-covid-19-cases-testing-encouraged-workers-travelling-nb","date":"2021-01-06 13:43:09","hr_uid":null},{"id":631206,"province":"PE","city":"Pending","age":"Pending","travel_history":"Pending","confirmed_presumptive":"CONFIRMED","source":"https:\/\/www.princeedwardisland.ca\/en\/news\/four-new-covid-19-cases-testing-encouraged-workers-travelling-nb","date":"2021-01-06 13:43:09","hr_uid":null},{"id":631205,"province":"PE","city":"Pending","age":"Pending","travel_history":"Pending","confirmed_presumptive":"CONFIRMED","source":"https:\/\/www.princeedwardisland.ca\/en\/news\/four-new-covid-19-cases-testing-encouraged-workers-travelling-nb","date":"2021-01-06 13:43:09","hr_uid":null},{"id":623200,"province":"PE","city":"Pending","age":"Pending","travel_history":"Pending","confirmed_presumptive":"CONFIRMED","source":"https:\/\/www.youtube.com\/watch?v=aM-Lc5Eakt8&list=PLdgoQ6C3ckQtNPnFDkY7ecy3VKvPj3oNR","date":"2021-01-05 10:57:42","hr_uid":null},{"id":573777,"province":"PE","city":"Pending","age":"Pending","travel_history":"Pending","confirmed_presumptive":"CONFIRMED","source":"https:\/\/www.princeedwardisland.ca\/en\/news\/two-new-positive-cases-covid-19-pei-0","date":"2020-12-29 16:49:15","hr_uid":null},{"id":573776,"province":"PE","city":"Pending","age":"Pending","travel_history":"Pending","confirmed_presumptive":"CONFIRMED","source":"https:\/\/www.princeedwardisland.ca\/en\/news\/two-new-positive-cases-covid-19-pei-0","date":"2020-12-29 16:49:15","hr_uid":null},{"id":540409,"province":"PE","city":"Pending","age":"Pending","travel_history":"Pending","confirmed_presumptive":"CONFIRMED","source":"https:\/\/www.princeedwardisland.ca\/en\/information\/health-and-wellness\/pei-covid-19-case-data","date":"2020-12-24 16:15:36","hr_uid":null},{"id":540408,"province":"PE","city":"Pending","age":"Pending","travel_history":"Pending","confirmed_presumptive":"CONFIRMED","source":"https:\/\/www.princeedwardisland.ca\/en\/information\/health-and-wellness\/pei-covid-19-case-data","date":"2020-12-24 16:15:36","hr_uid":null},{"id":540407,"province":"PE","city":"Pending","age":"Pending","travel_history":"Pending","confirmed_presumptive":"CONFIRMED","source":"https:\/\/www.princeedwardisland.ca\/en\/information\/health-and-wellness\/pei-covid-19-case-data","date":"2020-12-24 16:15:36","hr_uid":null},{"id":504844,"province":"PE","city":"Pending","age":"Pending","travel_history":"Pending","confirmed_presumptive":"CONFIRMED","source":"https:\/\/www.princeedwardisland.ca\/en\/news\/one-new-positive-covid-19-case-pei-1","date":"2020-12-19 15:47:47","hr_uid":null},{"id":494251,"province":"PE","city":"Pending","age":"Pending","travel_history":"Pending","confirmed_presumptive":"CONFIRMED","source":"https:\/\/www.princeedwardisland.ca\/en\/information\/health-and-wellness\/pei-covid-19-case-data","date":"2020-12-17 18:03:59","hr_uid":null},{"id":460097,"province":"PE","city":"Pending","age":"Pending","travel_history":"Pending","confirmed_presumptive":"CONFIRMED","source":"https:\/\/www.princeedwardisland.ca\/en\/news\/five-new-positive-covid-19-cases-pei","date":"2020-12-12 17:01:27","hr_uid":null},{"id":460096,"province":"PE","city":"Pending","age":"Pending","travel_history":"Pending","confirmed_presumptive":"CONFIRMED","source":"https:\/\/www.princeedwardisland.ca\/en\/news\/five-new-positive-covid-19-cases-pei","date":"2020-12-12 17:01:27","hr_uid":null},{"id":460095,"province":"PE","city":"Pending","age":"Pending","travel_history":"Pending","confirmed_presumptive":"CONFIRMED","source":"https:\/\/www.princeedwardisland.ca\/en\/news\/five-new-positive-covid-19-cases-pei","date":"2020-12-12 17:01:27","hr_uid":null},{"id":460094,"province":"PE","city":"Pending","age":"Pending","travel_history":"Pending","confirmed_presumptive":"CONFIRMED","source":"https:\/\/www.princeedwardisland.ca\/en\/news\/five-new-positive-covid-19-cases-pei","date":"2020-12-12 17:01:27","hr_uid":null},{"id":460093,"province":"PE","city":"Pending","age":"Pending","travel_history":"Pending","confirmed_presumptive":"CONFIRMED","source":"https:\/\/www.princeedwardisland.ca\/en\/news\/five-new-positive-covid-19-cases-pei","date":"2020-12-12 17:01:27","hr_uid":null},{"id":428029,"province":"PE","city":"Pending","age":"Pending","travel_history":"Pending","confirmed_presumptive":"CONFIRMED","source":"https:\/\/www.princeedwardisland.ca\/en\/topic\/covid-19","date":"2020-12-07 17:13:32","hr_uid":null},{"id":428028,"province":"PE","city":"Pending","age":"Pending","travel_history":"Pending","confirmed_presumptive":"CONFIRMED","source":"https:\/\/www.princeedwardisland.ca\/en\/topic\/covid-19","date":"2020-12-07 17:13:32","hr_uid":null},{"id":428027,"province":"PE","city":"Pending","age":"Pending","travel_history":"Pending","confirmed_presumptive":"CONFIRMED","source":"https:\/\/www.princeedwardisland.ca\/en\/topic\/covid-19","date":"2020-12-07 17:13:32","hr_uid":null},{"id":428026,"province":"PE","city":"Pending","age":"Pending","travel_history":"Pending","confirmed_presumptive":"CONFIRMED","source":"https:\/\/www.princeedwardisland.ca\/en\/topic\/covid-19","date":"2020-12-07 17:13:32","hr_uid":null},{"id":420108,"province":"PE","city":"Pending","age":"Pending","travel_history":"Pending","confirmed_presumptive":"CONFIRMED","source":"https:\/\/www.princeedwardisland.ca\/en\/information\/health-and-wellness\/pei-covid-19-case-data","date":"2020-12-06 17:59:51","hr_uid":null},{"id":420107,"province":"PE","city":"Pending","age":"Pending","travel_history":"Pending","confirmed_presumptive":"CONFIRMED","source":"https:\/\/www.princeedwardisland.ca\/en\/information\/health-and-wellness\/pei-covid-19-case-data","date":"2020-12-06 17:59:51","hr_uid":null},{"id":420106,"province":"PE","city":"Pending","age":"Pending","travel_history":"Pending","confirmed_presumptive":"CONFIRMED","source":"https:\/\/www.princeedwardisland.ca\/en\/information\/health-and-wellness\/pei-covid-19-case-data","date":"2020-12-06 17:59:51","hr_uid":null},{"id":420105,"province":"PE","city":"Pending","age":"Pending","travel_history":"Pending","confirmed_presumptive":"CONFIRMED","source":"https:\/\/www.princeedwardisland.ca\/en\/information\/health-and-wellness\/pei-covid-19-case-data","date":"2020-12-06 17:59:51","hr_uid":null},{"id":420104,"province":"PE","city":"Pending","age":"Pending","travel_history":"Pending","confirmed_presumptive":"CONFIRMED","source":"https:\/\/www.princeedwardisland.ca\/en\/information\/health-and-wellness\/pei-covid-19-case-data","date":"2020-12-05 17:59:46","hr_uid":null},{"id":420103,"province":"PE","city":"Pending","age":"Pending","travel_history":"Pending","confirmed_presumptive":"CONFIRMED","source":"https:\/\/www.princeedwardisland.ca\/en\/information\/health-and-wellness\/pei-covid-19-case-data","date":"2020-12-05 17:59:46","hr_uid":null},{"id":420102,"province":"PE","city":"Pending","age":"Pending","travel_history":"Pending","confirmed_presumptive":"CONFIRMED","source":"https:\/\/www.princeedwardisland.ca\/en\/information\/health-and-wellness\/pei-covid-19-case-data","date":"2020-12-05 17:59:46","hr_uid":null},{"id":398907,"province":"PE","city":"Pending","age":"Pending","travel_history":"Pending","confirmed_presumptive":"CONFIRMED","source":"https:\/\/www.princeedwardisland.ca\/en\/news\/one-additional-covid-19-case-confirmed-pei","date":"2020-12-03 15:53:13","hr_uid":null},{"id":365907,"province":"PE","city":"Pending","age":"Pending","travel_history":"Pending","confirmed_presumptive":"CONFIRMED","source":"https:\/\/www.princeedwardisland.ca\/en\/information\/health-and-wellness\/pei-covid-19-case-data","date":"2020-11-28 12:32:00","hr_uid":null},{"id":365906,"province":"PE","city":"Pending","age":"Pending","travel_history":"Pending","confirmed_presumptive":"CONFIRMED","source":"https:\/\/www.princeedwardisland.ca\/en\/information\/health-and-wellness\/pei-covid-19-case-data","date":"2020-11-28 12:32:00","hr_uid":null},{"id":348586,"province":"PE","city":"Pending","age":"Pending","travel_history":"Pending","confirmed_presumptive":"CONFIRMED","source":"https:\/\/www.cbc.ca\/news\/canada\/prince-edward-island\/pei-covid-19-briefing-wednesday-1.5815906","date":"2020-11-25 11:45:00","hr_uid":null},{"id":340398,"province":"PE","city":"Pending","age":"Pending","travel_history":"Pending","confirmed_presumptive":"CONFIRMED","source":"https:\/\/www.princeedwardisland.ca\/en\/information\/health-and-wellness\/pei-covid-19-case-data","date":"2020-11-23 18:04:00","hr_uid":null},{"id":281479,"province":"PE","city":"Pending","age":"30-39","travel_history":"Pending","confirmed_presumptive":"CONFIRMED","source":"https:\/\/www.princeedwardisland.ca\/en\/news\/one-new-positive-cases-covid-19-pei","date":"2020-11-11 16:56:00","hr_uid":null},{"id":277528,"province":"PE","city":"Pending","age":"Pending","travel_history":"Close contact","confirmed_presumptive":"CONFIRMED","source":"https:\/\/www.cbc.ca\/news\/canada\/prince-edward-island\/pei-covid-19-pandemic-briefing-november-10-1.5796471","date":"2020-11-10 16:35:00","hr_uid":null},{"id":259675,"province":"PE","city":"Pending","age":"Pending","travel_history":"Travel outside the Atlantic Bubble","confirmed_presumptive":"CONFIRMED","source":"https:\/\/www.princeedwardisland.ca\/en\/news\/two-new-positive-cases-covid-19-pei","date":"2020-11-06 17:14:00","hr_uid":null},{"id":259674,"province":"PE","city":"Pending","age":"Pending","travel_history":"Travel outside the Atlantic Bubble","confirmed_presumptive":"CONFIRMED","source":"https:\/\/www.princeedwardisland.ca\/en\/news\/two-new-positive-cases-covid-19-pei","date":"2020-11-06 17:14:00","hr_uid":null},{"id":205644,"province":"PE","city":"Pending","age":"Pending","travel_history":"Pending","confirmed_presumptive":"CONFIRMED","source":"https:\/\/atlantic.ctvnews.ca\/p-e-i-reports-one-new-case-of-covid-19-potential-flight-exposure-1.5152576","date":"2020-10-13 15:21:00","hr_uid":null},{"id":205643,"province":"PE","city":"Pending","age":"Pending","travel_history":"Pending","confirmed_presumptive":"CONFIRMED","source":"https:\/\/atlantic.ctvnews.ca\/p-e-i-reports-one-new-case-of-covid-19-potential-flight-exposure-1.5152576","date":"2020-10-13 15:21:00","hr_uid":null},{"id":205640,"province":"PE","city":"Pending","age":"Pending","travel_history":"Pending","confirmed_presumptive":"CONFIRMED","source":"https:\/\/atlantic.ctvnews.ca\/p-e-i-reports-one-new-case-of-covid-19-potential-flight-exposure-1.5152576","date":"2020-10-20 15:17:00","hr_uid":null},{"id":174401,"province":"PE","city":"Pending","age":"Pending","travel_history":"Pending","confirmed_presumptive":"CONFIRMED","source":"https:\/\/www.princeedwardisland.ca\/en\/news\/two-new-positive-covid-19-cases-pei","date":"2020-10-04 17:53:00","hr_uid":null},{"id":174400,"province":"PE","city":"Pending","age":"Pending","travel_history":"Pending","confirmed_presumptive":"CONFIRMED","source":"https:\/\/www.princeedwardisland.ca\/en\/news\/two-new-positive-covid-19-cases-pei","date":"2020-10-04 17:53:00","hr_uid":null},{"id":159489,"province":"PE","city":"Pending","age":"20-29","travel_history":"Travel outside of Atlantic Canada","confirmed_presumptive":"CONFIRMED","source":"https:\/\/www.princeedwardisland.ca\/en\/news\/one-new-positive-covid-19-case-pei-new-alert-system-launched","date":"2020-09-29 14:45:00","hr_uid":null},{"id":150496,"province":"PE","city":"Pending","age":"Pending","travel_history":"Pending","confirmed_presumptive":"CONFIRMED","source":"https:\/\/www.princeedwardisland.ca\/en\/information\/health-and-wellness\/pei-covid-19-case-data","date":"2020-09-23 22:04:00","hr_uid":null},{"id":141431,"province":"PE","city":"Pending","age":"30-39","travel_history":"Pending","confirmed_presumptive":"CONFIRMED","source":"https:\/\/www.princeedwardisland.ca\/en\/news\/two-new-positive-covid-19-cases-confirmed-pei","date":"2020-09-15 23:38:00","hr_uid":null},{"id":141430,"province":"PE","city":"Pending","age":"20-29","travel_history":"Pending","confirmed_presumptive":"CONFIRMED","source":"https:\/\/www.princeedwardisland.ca\/en\/news\/two-new-positive-covid-19-cases-confirmed-pei","date":"2020-09-15 23:37:00","hr_uid":null},{"id":136834,"province":"PE","city":"Pending","age":"Pending","travel_history":"Pending","confirmed_presumptive":"CONFIRMED","source":"https:\/\/www.princeedwardisland.ca\/en\/topic\/covid-19","date":"2020-09-09 23:59:00","hr_uid":null},{"id":136833,"province":"PE","city":"Pending","age":"Pending","travel_history":"Pending","confirmed_presumptive":"CONFIRMED","source":"https:\/\/www.princeedwardisland.ca\/en\/topic\/covid-19","date":"2020-09-09 23:59:00","hr_uid":null},{"id":135126,"province":"PE","city":"Pending","age":"30-39","travel_history":"Arrived from international travel on August 27","confirmed_presumptive":"CONFIRMED","source":"https:\/\/www.princeedwardisland.ca\/en\/news\/province-confirms-two-new-cases-covid-19-0","date":"2020-09-08 13:38:00","hr_uid":null},{"id":135125,"province":"PE","city":"Pending","age":"30-39","travel_history":"Essential worker who arrived on August 28 following international travel","confirmed_presumptive":"CONFIRMED","source":"https:\/\/www.princeedwardisland.ca\/en\/news\/province-confirms-two-new-cases-covid-19-0","date":"2020-09-08 13:37:00","hr_uid":null},{"id":134705,"province":"PE","city":"Pending","age":"Pending","travel_history":"Pending","confirmed_presumptive":"CONFIRMED","source":"https:\/\/www.theguardian.pe.ca\/news\/local\/four-new-cases-of-covid-19-confirmed-in-pei-493985\/","date":"2020-09-07 13:53:00","hr_uid":null},{"id":134704,"province":"PE","city":"Pending","age":"Pending","travel_history":"Pending","confirmed_presumptive":"CONFIRMED","source":"https:\/\/www.theguardian.pe.ca\/news\/local\/four-new-cases-of-covid-19-confirmed-in-pei-493985\/","date":"2020-09-07 13:53:00","hr_uid":null},{"id":134703,"province":"PE","city":"Pending","age":"Pending","travel_history":"Pending","confirmed_presumptive":"CONFIRMED","source":"https:\/\/www.theguardian.pe.ca\/news\/local\/four-new-cases-of-covid-19-confirmed-in-pei-493985\/","date":"2020-09-07 13:53:00","hr_uid":null},{"id":134702,"province":"PE","city":"Pending","age":"Pending","travel_history":"Pending","confirmed_presumptive":"CONFIRMED","source":"https:\/\/www.theguardian.pe.ca\/news\/local\/four-new-cases-of-covid-19-confirmed-in-pei-493985\/","date":"2020-09-07 13:53:00","hr_uid":null},{"id":133641,"province":"PE","city":"Pending","age":"0-20","travel_history":"International Travel","confirmed_presumptive":"CONFIRMED","source":"https:\/\/www.princeedwardisland.ca\/en\/news\/province-confirms-one-new-case-covid-19","date":"2020-09-04 20:31:00","hr_uid":null},{"id":132807,"province":"PE","city":"Pending","age":"30-39","travel_history":"Essential Worker with Foreign Travel History","confirmed_presumptive":"CONFIRMED","source":"https:\/\/www.princeedwardisland.ca\/en\/information\/health-and-wellness\/pei-covid-19-case-data","date":"2020-09-03 14:50:00","hr_uid":null},{"id":132806,"province":"PE","city":"Pending","age":"20-29","travel_history":"Essential Worker with Foreign Travel History","confirmed_presumptive":"CONFIRMED","source":"https:\/\/www.princeedwardisland.ca\/en\/information\/health-and-wellness\/pei-covid-19-case-data","date":"2020-09-03 14:50:00","hr_uid":null},{"id":125298,"province":"PE","city":"Pending","age":"40-49","travel_history":"Pending","confirmed_presumptive":"CONFIRMED","source":"https:\/\/atlantic.ctvnews.ca\/p-e-i-reports-3-new-covid-19-cases-involving-essential-workers-public-gathering-limits-increased-1.5068979","date":"2020-08-18 13:35:00","hr_uid":null},{"id":125297,"province":"PE","city":"Pending","age":"30-39","travel_history":"Pending","confirmed_presumptive":"CONFIRMED","source":"https:\/\/atlantic.ctvnews.ca\/p-e-i-reports-3-new-covid-19-cases-involving-essential-workers-public-gathering-limits-increased-1.5068979","date":"2020-08-18 13:35:00","hr_uid":null},{"id":125296,"province":"PE","city":"Pending","age":"30-39","travel_history":"Pending","confirmed_presumptive":"CONFIRMED","source":"https:\/\/atlantic.ctvnews.ca\/p-e-i-reports-3-new-covid-19-cases-involving-essential-workers-public-gathering-limits-increased-1.5068979","date":"2020-08-18 13:35:00","hr_uid":null},{"id":123091,"province":"PE","city":"Pending","age":"30-49","travel_history":"Foreign essential worker who arrived in the province July 30","confirmed_presumptive":"CONFIRMED","source":"https:\/\/atlantic.ctvnews.ca\/p-e-i-reports-5-new-covid-19-cases-involving-foreign-essential-workers-1.5061246","date":"2020-08-12 17:11:00","hr_uid":null},{"id":123090,"province":"PE","city":"Pending","age":"30-49","travel_history":"Foreign essential worker who arrived in the province July 30","confirmed_presumptive":"CONFIRMED","source":"https:\/\/atlantic.ctvnews.ca\/p-e-i-reports-5-new-covid-19-cases-involving-foreign-essential-workers-1.5061246","date":"2020-08-12 17:11:00","hr_uid":null},{"id":123089,"province":"PE","city":"Pending","age":"30-49","travel_history":"Foreign essential worker who arrived in the province July 30","confirmed_presumptive":"CONFIRMED","source":"https:\/\/atlantic.ctvnews.ca\/p-e-i-reports-5-new-covid-19-cases-involving-foreign-essential-workers-1.5061246","date":"2020-08-12 17:11:00","hr_uid":null},{"id":123088,"province":"PE","city":"Pending","age":"30-49","travel_history":"Foreign essential worker who arrived in the province July 30","confirmed_presumptive":"CONFIRMED","source":"https:\/\/atlantic.ctvnews.ca\/p-e-i-reports-5-new-covid-19-cases-involving-foreign-essential-workers-1.5061246","date":"2020-08-12 17:11:00","hr_uid":null},{"id":123087,"province":"PE","city":"Pending","age":"30-49","travel_history":"Foreign essential worker who arrived in the province July 30","confirmed_presumptive":"CONFIRMED","source":"https:\/\/atlantic.ctvnews.ca\/p-e-i-reports-5-new-covid-19-cases-involving-foreign-essential-workers-1.5061246","date":"2020-08-12 17:11:00","hr_uid":null},{"id":110313,"province":"PE","city":"Pending","age":"30-39","travel_history":"International travel","confirmed_presumptive":"CONFIRMED","source":"https:\/\/www.youtube.com\/watch?v=U0RhY4Uy-dA","date":"2020-07-14 10:38:00","hr_uid":null},{"id":109597,"province":"PE","city":"Charlottetown","age":"40-49","travel_history":"Healthcare worker related to case announced yesterday","confirmed_presumptive":"CONFIRMED","source":"https:\/\/www.cbc.ca\/news\/canada\/prince-edward-island\/pei-covid-daily-monday-july-13-1.5647176","date":"2020-07-13 09:12:00","hr_uid":null},{"id":109475,"province":"PE","city":"Queens County","age":"Pending","travel_history":"Pending","confirmed_presumptive":"CONFIRMED","source":"https:\/\/globalnews.ca\/news\/7168148\/pei-covid-19-update-july-12\/","date":"2020-07-12 22:05:00","hr_uid":null},{"id":108664,"province":"PE","city":"Pending","age":"20-29","travel_history":"Close contact","confirmed_presumptive":"CONFIRMED","source":"https:\/\/www.cbc.ca\/news\/canada\/prince-edward-island\/pei-covid-daily-thursday-july-9-1.5643055","date":"2020-07-09 11:27:00","hr_uid":null},{"id":107498,"province":"PE","city":"Pending","age":"20-29","travel_history":"Close contact of case related to contact with American in Nova Scotia","confirmed_presumptive":"CONFIRMED","source":"https:\/\/www.princeedwardisland.ca\/en\/information\/health-and-wellness\/pei-covid-19-testing-data","date":"2020-07-05 13:17:00","hr_uid":null},{"id":107497,"province":"PE","city":"Pending","age":"20-29","travel_history":"Close contact of case related to contact with American in Nova Scotia","confirmed_presumptive":"CONFIRMED","source":"https:\/\/www.princeedwardisland.ca\/en\/information\/health-and-wellness\/pei-covid-19-testing-data","date":"2020-07-05 13:17:00","hr_uid":null},{"id":107288,"province":"PE","city":"Charlottetown","age":"50-59","travel_history":"Travel outside of PEI","confirmed_presumptive":"CONFIRMED","source":"https:\/\/globalnews.ca\/news\/7139115\/pei-covid-19-update-july-4\/","date":"2020-07-04 11:40:00","hr_uid":null},{"id":107287,"province":"PE","city":"Charlottetown","age":"20-29","travel_history":"Travel to Nova Scotia","confirmed_presumptive":"CONFIRMED","source":"https:\/\/globalnews.ca\/news\/7139115\/pei-covid-19-update-july-4\/","date":"2020-07-04 11:39:00","hr_uid":null},{"id":107286,"province":"PE","city":"Charlottetown","age":"20-29","travel_history":"Close contact","confirmed_presumptive":"CONFIRMED","source":"https:\/\/globalnews.ca\/news\/7139115\/pei-covid-19-update-july-4\/","date":"2020-07-04 11:39:00","hr_uid":null},{"id":50913,"province":"PE","city":"Pending","age":"50s","travel_history":"International travel","confirmed_presumptive":"CONFIRMED","source":"https:\/\/www.princeedwardisland.ca\/en\/information\/health-and-wellness\/pei-covid-19-testing-data","date":"2020-04-28 18:03:00","hr_uid":null},{"id":28195,"province":"PE","city":"Pending","age":"Pending","travel_history":"Pending","confirmed_presumptive":"CONFIRMED","source":"https:\/\/www.princeedwardisland.ca\/en\/information\/health-and-wellness\/pei-covid-19-testing-data","date":"2020-04-15 11:01:00","hr_uid":null},{"id":19727,"province":"PE","city":"Pending","age":"50s","travel_history":"Pending","confirmed_presumptive":"CONFIRMED","source":"https:\/\/www.cbc.ca\/news\/canada\/prince-edward-island\/pei-cheif-public-health-covid-19-updates-wednesday-april-2020-1.5526088","date":"2020-04-08 14:44:00","hr_uid":null},{"id":18773,"province":"PE","city":"Pending","age":"Pending","travel_history":"Pending","confirmed_presumptive":"CONFIRMED","source":"https:\/\/www.princeedwardisland.ca\/en\/topic\/covid-19","date":"2020-04-08 10:55:00","hr_uid":null},{"id":18772,"province":"PE","city":"Pending","age":"Pending","travel_history":"Pending","confirmed_presumptive":"CONFIRMED","source":"https:\/\/www.princeedwardisland.ca\/en\/topic\/covid-19","date":"2020-04-08 10:55:00","hr_uid":null},{"id":11613,"province":"PE","city":"Queens County","age":"50s","travel_history":"Travel related, location not specified","confirmed_presumptive":"CONFIRMED","source":"https:\/\/www.princeedwardisland.ca\/en\/topic\/covid-19","date":"2020-04-02 00:00:00","hr_uid":null},{"id":7731,"province":"PE","city":"Pending","age":"20s","travel_history":"Travel related, location not specified","confirmed_presumptive":"CONFIRMED","source":"https:\/\/www.princeedwardisland.ca\/en\/topic\/covid-21","date":"2020-03-31 00:00:00","hr_uid":null},{"id":7730,"province":"PE","city":"Pending","age":"30s","travel_history":"Travel related, location not specified","confirmed_presumptive":"CONFIRMED","source":"https:\/\/www.princeedwardisland.ca\/en\/topic\/covid-20","date":"2020-03-31 00:00:00","hr_uid":null},{"id":7729,"province":"PE","city":"Pending","age":"40s","travel_history":"Travel related, location not specified","confirmed_presumptive":"CONFIRMED","source":"https:\/\/www.princeedwardisland.ca\/en\/topic\/covid-19","date":"2020-03-31 00:00:00","hr_uid":null},{"id":6683,"province":"PE","city":"Pending","age":"20s","travel_history":"Travel related, location not specified","confirmed_presumptive":"CONFIRMED","source":"https:\/\/www.princeedwardisland.ca\/en\/topic\/covid-25","date":"2020-03-30 00:00:00","hr_uid":null},{"id":6682,"province":"PE","city":"Pending","age":"70s","travel_history":"Travel related, location not specified","confirmed_presumptive":"CONFIRMED","source":"https:\/\/www.princeedwardisland.ca\/en\/topic\/covid-24","date":"2020-03-30 00:00:00","hr_uid":null},{"id":6681,"province":"PE","city":"Pending","age":"70s","travel_history":"Travel related, location not specified","confirmed_presumptive":"CONFIRMED","source":"https:\/\/www.princeedwardisland.ca\/en\/topic\/covid-23","date":"2020-03-30 00:00:00","hr_uid":null},{"id":6680,"province":"PE","city":"Pending","age":"Pending","travel_history":"Travel related, location not specified","confirmed_presumptive":"CONFIRMED","source":"https:\/\/www.princeedwardisland.ca\/en\/topic\/covid-22","date":"2020-03-30 00:00:00","hr_uid":null},{"id":6679,"province":"PE","city":"Pending","age":"Pending","travel_history":"Travel related, location not specified","confirmed_presumptive":"CONFIRMED","source":"https:\/\/www.princeedwardisland.ca\/en\/topic\/covid-21","date":"2020-03-30 00:00:00","hr_uid":null}],"first_page_url":"https:\/\/api.covid19tracker.ca\/cases?page=1","from":1,"last_page":2,"last_page_url":"https:\/\/api.covid19tracker.ca\/cases?page=2","links":[{"url":null,"label":"&laquo; Previous","active":false},{"url":"https:\/\/api.covid19tracker.ca\/cases?page=1","label":"1","active":true},{"url":"https:\/\/api.covid19tracker.ca\/cases?page=2","label":"2","active":false},{"url":"https:\/\/api.covid19tracker.ca\/cases?page=2","label":"Next &raquo;","active":false}],"next_page_url":"https:\/\/api.covid19tracker.ca\/cases?page=2","path":"https:\/\/api.covid19tracker.ca\/cases","per_page":100,"prev_page_url":null,"to":100,"total":113}